%!PS
%%BoundingBox: -91 -91 91 91 
%%HiResBoundingBox: -90.95856 -90.95856 90.95856 90.95856 
%%Creator: MetaPost 2.00
%%CreationDate: 2020.09.29:1452
%%Pages: 1
%*Font: cmmi10 9.96265 9.96265 66:80002
%*Font: cmsy10 9.96265 9.96265 00:8
%*Font: cmr10 9.96265 9.96265 28:c
%%BeginProlog
%%EndProlog
%%Page: 1 1
 1 0 0 setrgbcolor 0 2 dtransform truncate idtransform setlinewidth pop
 [] 0 setdash 1 setlinecap 1 setlinejoin 10 setmiterlimit
newpath -68.03131 -59.86682 moveto
-67.14246 -53.92036 -66.1978 -47.98213 -65.19693 -42.0534 curveto
-64.30331 -36.75748 -63.36472 -31.46933 -62.3621 -26.19287 curveto
-61.47368 -21.51807 -60.53465 -16.8532 -59.52728 -12.20303 curveto
-58.64276 -8.12123 -57.70546 -4.0511 -56.69247 0.00087 curveto
-55.8127 3.51909 -54.8767 7.02303 -53.85765 10.50362 curveto
-52.98393 13.4881 -52.04924 16.45483 -51.02283 19.39043 curveto
-50.15517 21.87144 -49.22263 24.32953 -48.18802 26.74608 curveto
-47.32771 28.75563 -46.3969 30.73532 -45.3532 32.65663 curveto
-44.49937 34.22803 -43.5703 35.75919 -42.51837 37.20601 curveto
-41.66759 38.37602 -40.73764 39.48892 -39.68356 40.47986 curveto
-38.82541 41.28609 -37.88812 42.008 -36.84874 42.5625 curveto
-35.96075 43.03612 -35.00789 43.38171 -34.01393 43.54045 curveto
-33.07404 43.69011 -32.11511 43.66934 -31.17911 43.49677 curveto
-30.19077 43.31467 -29.24266 42.96735 -28.34428 42.51794 curveto
-27.33562 42.01361 -26.39616 41.38557 -25.50948 40.6892 curveto
-24.50081 39.89723 -23.5635 39.01962 -22.67465 38.09486 curveto
-21.67377 37.05333 -20.73561 35.9534 -19.83983 34.82016 curveto
-18.84804 33.56496 -17.90901 32.26952 -17.00502 30.94986 curveto
-16.02231 29.51428 -15.08154 28.05103 -14.1702 26.56961 curveto
-13.19527 24.98567 -12.25407 23.38184 -11.33537 21.7646 curveto
-10.36824 20.06172 -9.42575 18.34457 -8.50056 16.61876 curveto
-7.5399 14.82678 -6.59741 13.02528 -5.66574 11.21817 curveto
-4.71115 9.36606 -3.76822 7.50833 -2.83093 5.64758 curveto
-1.88239 3.76433 -0.93903 1.8785 0.00389 -0.00778 curveto
0.94681 -1.89406 1.89017 -3.7799 2.83871 -5.66315 curveto
3.77602 -7.52391 4.71893 -9.38164 5.67352 -11.2333 curveto
6.60521 -13.04042 7.5477 -14.84192 8.50835 -16.63347 curveto
9.43353 -18.35884 10.37602 -20.07556 11.34317 -21.77802 curveto
12.26187 -23.39482 13.20305 -24.99864 14.17798 -26.58258 curveto
15.08932 -28.06357 16.03009 -29.52682 17.0128 -30.96155 curveto
17.9168 -32.28076 18.85582 -33.57578 19.84763 -34.83011 curveto
20.7434 -35.96292 21.68156 -37.06198 22.68243 -38.10266 curveto
23.57129 -39.02698 24.50859 -39.90372 25.51726 -40.69525 curveto
26.40395 -41.39076 27.34341 -42.01837 28.35208 -42.52184 curveto
29.25087 -42.97038 30.19899 -43.31683 31.18689 -43.49806 curveto
32.12332 -43.66978 33.08182 -43.68924 34.02171 -43.53873 curveto
35.01567 -43.37955 35.96854 -43.0331 36.85652 -42.55861 curveto
37.8959 -42.00323 38.8332 -41.28004 39.69135 -40.4725 curveto
40.74586 -39.48027 41.67537 -38.3665 42.52617 -37.19563 curveto
43.57808 -35.74751 44.50716 -34.21461 45.36098 -32.64194 curveto
46.40468 -30.71976 47.33507 -28.7392 48.1958 -26.72835 curveto
49.23042 -24.31049 50.16296 -21.8511 51.03062 -19.36838 curveto
52.05702 -16.43147 52.99171 -13.46301 53.86543 -10.47723 curveto
54.88448 -6.99535 55.82048 -3.48967 56.70026 0.03027 curveto
57.71281 4.08354 58.65054 8.1554 59.53508 12.23851 curveto
60.54243 16.8904 61.48148 21.55699 62.36989 26.2331 curveto
63.3725 31.51172 64.31067 36.80203 65.20471 42.10011 curveto
66.20558 48.03188 67.15024 53.97314 68.03952 59.92305 curveto stroke
 0 0 0 setrgbcolor 0.5 0 dtransform exch truncate exch idtransform pop setlinewidth
newpath -85.03935 -2.83482 moveto
-85.03935 2.83482 lineto stroke
newpath -56.6929 -2.83482 moveto
-56.6929 2.83482 lineto stroke
newpath -28.34645 -2.83482 moveto
-28.34645 2.83482 lineto stroke
newpath 0 -2.83482 moveto
0 2.83482 lineto stroke
newpath 28.34645 -2.83482 moveto
28.34645 2.83482 lineto stroke
newpath 56.6929 -2.83482 moveto
56.6929 2.83482 lineto stroke
newpath 85.03935 -2.83482 moveto
85.03935 2.83482 lineto stroke
 0 0.5 dtransform truncate idtransform setlinewidth pop
newpath -2.83482 -56.6929 moveto
2.83482 -56.6929 lineto stroke
newpath -2.83482 -28.34645 moveto
2.83482 -28.34645 lineto stroke
newpath -2.83482 0 moveto
2.83482 0 lineto stroke
newpath -2.83482 28.34645 moveto
2.83482 28.34645 lineto stroke
newpath -2.83482 56.6929 moveto
2.83482 56.6929 lineto stroke
newpath -90.70856 0 moveto
90.70856 0 lineto stroke
newpath 87.01299 -1.53079 moveto
90.70856 0 lineto
87.01299 1.53079 lineto
 closepath
gsave fill grestore stroke
 0.5 0 dtransform exch truncate exch idtransform pop setlinewidth
newpath 0 -90.70856 moveto
0 90.70856 lineto stroke
 0 0.5 dtransform truncate idtransform setlinewidth pop
newpath 1.53079 87.01299 moveto
0 90.70856 lineto
-1.53079 87.01299 lineto
 closepath
gsave fill grestore stroke
 0.5 0 dtransform exch truncate exch idtransform pop setlinewidth
 [3 3 ] 0 setdash
newpath 28.34645 0 moveto
28.34645 -42.51968 lineto stroke
 0 0.5 dtransform truncate idtransform setlinewidth pop
newpath 28.34645 -42.51968 moveto
0 -42.51968 lineto stroke
 0.5 0 dtransform exch truncate exch idtransform pop setlinewidth
newpath -28.34645 0 moveto
-28.34645 42.51968 lineto stroke
 0 0.5 dtransform truncate idtransform setlinewidth pop
newpath -28.34645 42.51968 moveto
0 42.51968 lineto stroke
25.4995 3 moveto
(x) cmmi10 9.96265 fshow
-35.06781 -8.8115 moveto
(\000) cmsy10 9.96265 fshow
-27.3191 -8.8115 moveto
(x) cmmi10 9.96265 fshow
-22.3926 -45.01035 moveto
(f) cmmi10 9.96265 fshow
-16.44269 -45.01035 moveto
(\() cmr10 9.96265 fshow
-12.5683 -45.01035 moveto
(x) cmmi10 9.96265 fshow
-6.87439 -45.01035 moveto
(\)) cmr10 9.96265 fshow
3 40.02904 moveto
(f) cmmi10 9.96265 fshow
8.9499 40.02904 moveto
(\() cmr10 9.96265 fshow
12.8243 40.02904 moveto
(\000) cmsy10 9.96265 fshow
20.5731 40.02904 moveto
(x) cmmi10 9.96265 fshow
26.267 40.02904 moveto
(\)) cmr10 9.96265 fshow
showpage
%%EOF
