%!PS-Adobe-3.0 EPSF-3.0
%%Creator: EpsGraphics 1.0.0 by Thomas Abeel, http://www.sourceforge.net/epsgraphics/
%%Title: GeoGebra, http://www.geogebra.org/
%%CreationDate: Sat Aug 16 15:06:02 CEST 2014
%%BoundingBox: 0 0 445 394
%%DocumentData: Clean7Bit
%%LanguageLevel: 2
%%DocumentProcessColors: Black
%%ColorUsage: Color
%%Origin: 0 0
%%Pages: 1
%%Page: 1 1
%%EndComments

gsave
0.0 394.0 translate
0.0 0.0 0.0 setrgbcolor
0.0 0.0 0.0 setrgbcolor
gsave
newpath
0.0 -0.0 moveto
445.7497920270352 -0.0 lineto
445.7497920270352 -394.5738591653623 lineto
0.0 -394.5738591653623 lineto
0.0 -0.0 lineto
closepath
clip
newpath
1.0 1.0 1.0 setrgbcolor
newpath
0.0 -0.0 moveto
445.7497920270352 -0.0 lineto
445.7497920270352 -394.5738591653623 lineto
0.0 -394.5738591653623 lineto
0.0 -0.0 lineto
closepath
fill
newpath
0.0 0.0 0.0 setrgbcolor
1.0 setlinewidth
10.0 setmiterlimit
0 setlinejoin
0 setlinecap
[ ] 0 setdash
newpath
213.85030866805022 -1.4833603728021139 moveto
213.85030866805022 -394.5738591653623 lineto
stroke
newpath
1.0 setlinewidth
10.0 setmiterlimit
0 setlinejoin
0 setlinecap
[ ] 0 setdash
newpath
214.22114876125073 -0.7416801864010569 moveto
211.62526810884705 -2.9667207456042277 lineto
stroke
newpath
1.0 setlinewidth
10.0 setmiterlimit
0 setlinejoin
0 setlinecap
[ ] 0 setdash
newpath
213.47946857484968 -0.7416801864010569 moveto
216.07534922725338 -2.9667207456042277 lineto
stroke
newpath
1.0 setlinewidth
10.0 setmiterlimit
0 setlinejoin
0 setlinecap
[ ] 0 setdash
newpath
0.0 -364.08126480817924 moveto
444.2664316542331 -364.08126480817924 lineto
stroke
newpath
1.0 setlinewidth
10.0 setmiterlimit
0 setlinejoin
0 setlinecap
[ ] 0 setdash
newpath
445.0081118406342 -364.45210490137976 moveto
442.783071281431 -361.85622424897605 lineto
stroke
newpath
1.0 setlinewidth
10.0 setmiterlimit
0 setlinejoin
0 setlinecap
[ ] 0 setdash
newpath
445.0081118406342 -363.7104247149787 moveto
442.783071281431 -366.30630536738244 lineto
stroke
newpath
0.0 0.0 0.0 setrgbcolor
1.0 setlinewidth
10.0 setmiterlimit
0 setlinejoin
0 setlinecap
[ ] 0 setdash
newpath
41.17266620700008 -371.8403474362901 moveto
41.17266620700008 -371.3478254375081 lineto
44.120555229121464 -371.3478254375081 lineto
44.120555229121464 -371.8403474362901 lineto
closepath
45.25408012337699 -373.7669776079959 moveto
45.25408012337699 -373.1006243155262 lineto
45.765916725600384 -373.30342749753925 46.169108743150204 -373.4048290794798 46.4636562086209 -373.4048290794798 curveto
46.80407583557137 -373.4048290794798 47.08111945292482 -373.3052382311698 47.294787081565445 -373.106056543454 curveto
47.50845471975776 -372.906874846834 47.61528852930223 -372.6491458119299 47.61528852930223 -372.332869435072 curveto
47.61528852930223 -371.57960047330926 47.08775882370877 -371.20296602610165 46.03269945968669 -371.20296602610165 curveto
45.750223607444106 -371.20296602610165 lineto
45.750223607444106 -370.72130848317516 lineto
46.00010609212024 -370.71768699789 lineto
46.98997876623153 -370.71768699789 47.48491505903642 -370.36881723835563 47.48491505903642 -369.6710777504784 curveto
47.48491505903642 -369.12302629432406 47.15898137365831 -368.8490005907467 46.507114032042836 -368.8490005907467 curveto
46.149794139924616 -368.8490005907467 45.75625940984894 -368.94919501995554 45.326509829080216 -369.1495838694151 curveto
45.326509829080216 -368.52668840036733 lineto
45.749016458274056 -368.38424330823915 46.15945145060342 -368.31302076854286 46.5578148260351 -368.31302076854286 curveto
47.653917738343694 -368.31302076854286 48.201969145498374 -368.72707726515284 48.201969145498374 -369.5551902213532 curveto
48.201969145498374 -370.18532867975085 47.82895615001009 -370.63439284032467 47.0829301923835 -370.90238274743325 curveto
47.94725803953433 -371.1027716058509 48.37942192447129 -371.57597902158994 48.37942192447129 -372.3220049792165 curveto
48.37942192447129 -372.8265986106537 48.212833596389146 -373.22254765774113 47.87965695511901 -373.50985215274943 curveto
47.54648029895473 -373.7971566606013 47.088965992521835 -373.9408089016837 46.507114032042836 -373.9408089016837 curveto
46.17635169947394 -373.9408089016837 45.758673732257115 -373.88286513539424 45.25408012337699 -373.7669776079959 curveto
closepath
fill
newpath
1.0 setlinewidth
10.0 setmiterlimit
0 setlinejoin
0 setlinecap
[ ] 0 setdash
newpath
43.7715685105699 -364.08126480817924 moveto
43.7715685105699 -367.04798555378346 lineto
stroke
newpath
0.0 0.0 0.0 setrgbcolor
1.0 setlinewidth
10.0 setmiterlimit
0 setlinejoin
0 setlinecap
[ ] 0 setdash
newpath
97.54036037348041 -371.8403474362901 moveto
97.54036037348041 -371.3478254375081 lineto
100.4882493956018 -371.3478254375081 lineto
100.4882493956018 -371.8403474362901 lineto
closepath
101.48415784902119 -373.8068139461327 moveto
101.48415784902119 -373.18029699179976 lineto
101.69178967822502 -372.69501794912566 102.1118819745416 -372.1662811034282 102.74443472825735 -371.5940864368991 curveto
103.15366256548059 -371.2283164230978 lineto
103.67998510927634 -370.7526946748053 103.94314635764577 -370.2806944331678 103.94314635764577 -369.81231567659967 curveto
103.94314635764577 -369.51293955077085 103.85321280371737 -369.2775430136032 103.67334570390126 -369.10612604599316 curveto
103.49347859604445 -368.9347090707202 103.24661401645616 -368.8490005907467 102.93275196308575 -368.8490005907467 curveto
102.56094612939516 -368.8490005907467 102.12274641345228 -368.9926528446726 101.61815280457215 -369.27995733968095 curveto
101.61815280457215 -368.6498189000628 lineto
102.09377455286464 -368.42528680569126 102.5657747945021 -368.31302076854286 103.03415355107026 -368.31302076854286 curveto
103.53633285891209 -368.31302076854286 103.93952487689361 -368.4482228898849 104.24372963631417 -368.7186271204809 curveto
104.54793440933373 -368.989031363165 104.70003678224451 -369.34755840499287 104.70003678224451 -369.7942082501738 curveto
104.70003678224451 -370.11531328836116 104.62338200809077 -370.4002034582631 104.47007246663676 -370.64887877747196 curveto
104.31676291832929 -370.8975541077975 104.03126916002749 -371.19934454610495 103.61359119669609 -371.5542500987623 curveto
103.33835831502383 -371.7896466422978 lineto
102.7661636229156 -372.2749256849719 102.4354013159258 -372.73847579359375 102.3460713468896 -373.18029699179976 curveto
104.67468638524838 -373.18029699179976 lineto
104.67468638524838 -373.8068139461327 lineto
closepath
fill
newpath
1.0 setlinewidth
10.0 setmiterlimit
0 setlinejoin
0 setlinecap
[ ] 0 setdash
newpath
100.46448189639669 -364.08126480817924 moveto
100.46448189639669 -367.04798555378346 lineto
stroke
newpath
0.0 0.0 0.0 setrgbcolor
1.0 setlinewidth
10.0 setmiterlimit
0 setlinejoin
0 setlinecap
[ ] 0 setdash
newpath
153.90805453996074 -371.8403474362901 moveto
153.90805453996074 -371.3478254375081 lineto
156.85594356208213 -371.3478254375081 lineto
156.85594356208213 -371.8403474362901 lineto
closepath
158.3516169848538 -373.8068139461327 moveto
158.3516169848538 -373.2708341239288 lineto
159.42357662926156 -373.2708341239288 lineto
159.42357662926156 -369.04093931086027 lineto
158.3516169848538 -369.3089292219622 lineto
158.3516169848538 -368.7584634586177 lineto
160.14063071572352 -368.31302076854286 lineto
160.14063071572352 -373.2708341239288 lineto
161.2125903601313 -373.2708341239288 lineto
161.2125903601313 -373.8068139461327 lineto
closepath
fill
newpath
1.0 setlinewidth
10.0 setmiterlimit
0 setlinejoin
0 setlinecap
[ ] 0 setdash
newpath
157.15739528222346 -364.08126480817924 moveto
157.15739528222346 -367.04798555378346 lineto
stroke
newpath
0.0 0.0 0.0 setrgbcolor
1.0 setlinewidth
10.0 setmiterlimit
0 setlinejoin
0 setlinecap
[ ] 0 setdash
newpath
220.37896835498435 -373.9408089016837 moveto
219.82608825163928 -373.9408089016837 219.3788348303083 -373.68066553428 219.03720805683207 -373.1603788227314 curveto
218.6955812680839 -372.64009208792413 218.52476788898173 -371.96106359997833 218.52476788898173 -371.1232933498281 curveto
218.52476788898173 -370.2782800914404 218.69678844515352 -369.5986480371122 219.04082954211722 -369.0843971342822 curveto
219.38487065446077 -368.5701462084634 219.83815989411605 -368.31302076854286 220.40069726669532 -368.31302076854286 curveto
220.963234664422 -368.31302076854286 221.41652389430973 -368.5701462314522 221.76056499127344 -369.0843971342822 curveto
222.104606103617 -369.598648060101 222.27662664440894 -370.27465864382236 222.27662664440894 -371.1124288939726 curveto
222.27662664440894 -371.97192809393266 222.10460608823715 -372.6581995375006 221.76056499127344 -373.17124327858687 curveto
221.4165238789299 -373.684287042608 220.95599166848842 -373.9408089016837 220.37896835498435 -373.9408089016837 curveto
closepath
220.38621132555468 -373.4048290794798 moveto
221.1418946109128 -373.4048290794798 221.5197362198102 -372.63707417614467 221.5197362198102 -371.1015644381171 curveto
221.5197362198102 -369.59985516178244 221.14672322432193 -368.8490005907467 220.40069726669532 -368.8490005907467 curveto
219.65708559931417 -368.8490005907467 219.28527979886562 -369.6070981997002 219.28527979886562 -371.1232933498281 curveto
219.28527979886562 -372.64431721492593 219.6522569853654 -373.4048290794798 220.38621132555468 -373.4048290794798 curveto
closepath
fill
newpath
1.0 setlinewidth
10.0 setmiterlimit
0 setlinejoin
0 setlinecap
[ ] 0 setdash
newpath
213.85030866805025 -364.08126480817924 moveto
213.85030866805025 -367.04798555378346 lineto
stroke
newpath
0.0 0.0 0.0 setrgbcolor
1.0 setlinewidth
10.0 setmiterlimit
0 setlinejoin
0 setlinecap
[ ] 0 setdash
newpath
270.3453251314134 -373.8068139461327 moveto
270.3453251314134 -373.2708341239288 lineto
271.41728477582114 -373.2708341239288 lineto
271.41728477582114 -369.04093931086027 lineto
270.3453251314134 -369.3089292219622 lineto
270.3453251314134 -368.7584634586177 lineto
272.13433886228313 -368.31302076854286 lineto
272.13433886228313 -373.2708341239288 lineto
273.20629850669087 -373.2708341239288 lineto
273.20629850669087 -373.8068139461327 lineto
closepath
fill
newpath
1.0 setlinewidth
10.0 setmiterlimit
0 setlinejoin
0 setlinecap
[ ] 0 setdash
newpath
270.54322205387706 -364.08126480817924 moveto
270.54322205387706 -367.04798555378346 lineto
stroke
newpath
0.0 0.0 0.0 setrgbcolor
1.0 setlinewidth
10.0 setmiterlimit
0 setlinejoin
0 setlinecap
[ ] 0 setdash
newpath
326.21325432854144 -373.8068139461327 moveto
326.21325432854144 -373.18029699179976 lineto
326.42088615774526 -372.69501794912566 326.8409784540619 -372.1662811034282 327.4735312077776 -371.5940864368991 curveto
327.88275904500085 -371.2283164230978 lineto
328.4090815887966 -370.7526946748053 328.67224283716604 -370.2806944331678 328.67224283716604 -369.81231567659967 curveto
328.67224283716604 -369.51293955077085 328.58230928323763 -369.2775430136032 328.4024421834215 -369.10612604599316 curveto
328.2225750755647 -368.9347090707202 327.9757104959764 -368.8490005907467 327.661848442606 -368.8490005907467 curveto
327.2900426089154 -368.8490005907467 326.8518428929725 -368.9926528446726 326.3472492840924 -369.27995733968095 curveto
326.3472492840924 -368.6498189000628 lineto
326.8228710323849 -368.42528680569126 327.2948712740224 -368.31302076854286 327.76325003059054 -368.31302076854286 curveto
328.26542933843234 -368.31302076854286 328.6686213564139 -368.4482228898849 328.97282611583444 -368.7186271204809 curveto
329.27703088885403 -368.989031363165 329.4291332617648 -369.34755840499287 329.4291332617648 -369.7942082501738 curveto
329.4291332617648 -370.11531328836116 329.352478487611 -370.4002034582631 329.199168946157 -370.64887877747196 curveto
329.04585939784954 -370.8975541077975 328.76036563954773 -371.19934454610495 328.3426876762163 -371.5542500987623 curveto
328.06745479454406 -371.7896466422978 lineto
327.49526010243585 -372.2749256849719 327.16449779544604 -372.73847579359375 327.0751678264098 -373.18029699179976 curveto
329.40378286476863 -373.18029699179976 lineto
329.40378286476863 -373.8068139461327 lineto
closepath
fill
newpath
1.0 setlinewidth
10.0 setmiterlimit
0 setlinejoin
0 setlinecap
[ ] 0 setdash
newpath
327.23613543970384 -364.08126480817924 moveto
327.23613543970384 -367.04798555378346 lineto
stroke
newpath
0.0 0.0 0.0 setrgbcolor
1.0 setlinewidth
10.0 setmiterlimit
0 setlinejoin
0 setlinecap
[ ] 0 setdash
newpath
383.4602451222589 -373.7669776079959 moveto
383.4602451222589 -373.1006243155262 lineto
383.97208172448234 -373.30342749753925 384.37527374203216 -373.4048290794798 384.6698212075029 -373.4048290794798 curveto
385.0102408344533 -373.4048290794798 385.2872844518068 -373.3052382311698 385.5009520804474 -373.106056543454 curveto
385.7146197186397 -372.906874846834 385.8214535281842 -372.6491458119299 385.8214535281842 -372.332869435072 curveto
385.8214535281842 -371.57960047330926 385.2939238225907 -371.20296602610165 384.2388644585686 -371.20296602610165 curveto
383.9563886063261 -371.20296602610165 lineto
383.9563886063261 -370.72130848317516 lineto
384.2062710910022 -370.71768699789 lineto
385.1961437651135 -370.71768699789 385.6910800579184 -370.36881723835563 385.6910800579184 -369.6710777504784 curveto
385.6910800579184 -369.12302629432406 385.36514637254027 -368.8490005907467 384.7132790309248 -368.8490005907467 curveto
384.35595913880655 -368.8490005907467 383.9624244087309 -368.94919501995554 383.5326748279622 -369.1495838694151 curveto
383.5326748279622 -368.52668840036733 lineto
383.955181457156 -368.38424330823915 384.3656164494854 -368.31302076854286 384.76397982491704 -368.31302076854286 curveto
385.86008273722564 -368.31302076854286 386.4081341443803 -368.72707726515284 386.4081341443803 -369.5551902213532 curveto
386.4081341443803 -370.18532867975085 386.035121148892 -370.63439284032467 385.28909519126546 -370.90238274743325 curveto
386.1534230384163 -371.1027716058509 386.5855869233532 -371.57597902158994 386.5855869233532 -372.3220049792165 curveto
386.5855869233532 -372.8265986106537 386.4189985952711 -373.22254765774113 386.08582195400095 -373.50985215274943 curveto
385.75264529783664 -373.7971566606013 385.29513099140377 -373.9408089016837 384.7132790309248 -373.9408089016837 curveto
384.3825166983559 -373.9408089016837 383.964838731139 -373.88286513539424 383.4602451222589 -373.7669776079959 curveto
closepath
fill
newpath
1.0 setlinewidth
10.0 setmiterlimit
0 setlinejoin
0 setlinecap
[ ] 0 setdash
newpath
383.9290488255306 -364.08126480817924 moveto
383.9290488255306 -367.04798555378346 lineto
stroke
newpath
0.0 0.0 0.0 setrgbcolor
1.0 setlinewidth
10.0 setmiterlimit
0 setlinejoin
0 setlinecap
[ ] 0 setdash
newpath
207.77040518616639 -362.07392591926674 moveto
207.2175250828213 -362.07392591926674 206.77027166149034 -361.8137825518631 206.4286448880141 -361.29349584031445 curveto
206.08701809926595 -360.7732091055072 205.91620472016376 -360.09418061756145 205.91620472016376 -359.25641036741115 curveto
205.91620472016376 -358.4113971090235 206.08822527633555 -357.7317650546953 206.43226637329926 -357.2175141518653 curveto
206.7763074856428 -356.7032632260465 207.22959672529808 -356.4461377861259 207.79213409787735 -356.4461377861259 curveto
208.35467149560404 -356.4461377861259 208.80796072549177 -356.70326324903533 209.15200182245547 -357.2175141518653 curveto
209.49604293479902 -357.7317650776841 209.66806347559097 -358.4077756614054 209.66806347559097 -359.24554591155567 curveto
209.66806347559097 -360.1050451115157 209.49604291941918 -360.7913165550837 209.15200182245547 -361.30436029616993 curveto
208.80796071011193 -361.81740406019105 208.34742849967046 -362.07392591926674 207.77040518616639 -362.07392591926674 curveto
closepath
207.77764815673672 -361.53794609706284 moveto
208.53333144209483 -361.53794609706284 208.91117305099223 -360.7701911937277 208.91117305099223 -359.2346814557002 curveto
208.91117305099223 -357.7329721793655 208.53816005550397 -356.9821176083298 207.79213409787735 -356.9821176083298 curveto
207.0485224304962 -356.9821176083298 206.67671663004765 -357.7402152172833 206.67671663004765 -359.25641036741115 curveto
206.67671663004765 -360.777434232509 207.04369381654743 -361.53794609706284 207.77764815673672 -361.53794609706284 curveto
closepath
fill
newpath
1.0 setlinewidth
10.0 setmiterlimit
0 setlinejoin
0 setlinecap
[ ] 0 setdash
newpath
210.883587922446 -364.08126480817924 moveto
213.85030866805022 -364.08126480817924 lineto
stroke
newpath
0.0 0.0 0.0 setrgbcolor
1.0 setlinewidth
10.0 setmiterlimit
0 setlinejoin
0 setlinecap
[ ] 0 setdash
newpath
206.5608291009225 -310.0223179156418 moveto
206.5608291009225 -309.4863380934379 lineto
207.63278874533026 -309.4863380934379 lineto
207.63278874533026 -305.25644328036935 lineto
206.5608291009225 -305.5244331914713 lineto
206.5608291009225 -304.9739674281268 lineto
208.34984283179222 -304.52852473805194 lineto
208.34984283179222 -309.4863380934379 lineto
209.42180247619999 -309.4863380934379 lineto
209.42180247619999 -310.0223179156418 lineto
closepath
fill
newpath
1.0 setlinewidth
10.0 setmiterlimit
0 setlinejoin
0 setlinecap
[ ] 0 setdash
newpath
210.883587922446 -307.3883514223524 moveto
213.85030866805022 -307.3883514223524 lineto
stroke
newpath
0.0 0.0 0.0 setrgbcolor
1.0 setlinewidth
10.0 setmiterlimit
0 setlinejoin
0 setlinecap
[ ] 0 setdash
newpath
206.06106413157022 -253.65462374916146 moveto
206.06106413157022 -253.02810679482855 lineto
206.26869596077404 -252.54282775215447 206.68878825709064 -252.014090906457 207.32134101080638 -251.44189623992784 curveto
207.7305688480296 -251.07612622612655 lineto
208.25689139182538 -250.60050447783405 208.52005264019482 -250.1285042361966 208.52005264019482 -249.66012547962842 curveto
208.52005264019482 -249.36074935379963 208.43011908626642 -249.12535281663193 208.25025198645028 -248.95393584902195 curveto
208.07038487859347 -248.78251887374904 207.8235202990052 -248.6968103937755 207.50965824563477 -248.6968103937755 curveto
207.13785241194418 -248.6968103937755 206.6996526960013 -248.8404626477014 206.1950590871212 -249.1277671427097 curveto
206.1950590871212 -248.4976287030916 lineto
206.6706808354137 -248.27309660872004 207.14268107705112 -248.1608305715716 207.6110598336193 -248.1608305715716 curveto
208.11323914146112 -248.1608305715716 208.51643115944267 -248.29603269291363 208.82063591886322 -248.56643692350968 curveto
209.12484069188275 -248.83684116619375 209.27694306479353 -249.19536820802165 209.27694306479353 -249.64201805320263 curveto
209.27694306479353 -249.96312309138995 209.2002882906398 -250.24801326129185 209.0469787491858 -250.49668858050072 curveto
208.89366920087832 -250.74536391082623 208.6081754425765 -251.04715434913376 208.19049747924512 -251.40205990179106 curveto
207.91526459757284 -251.63745644532656 lineto
207.34306990546463 -252.12273548800064 207.01230759847482 -252.5862855966225 206.92297762943863 -253.02810679482855 curveto
209.2515926677974 -253.02810679482855 lineto
209.2515926677974 -253.65462374916146 lineto
closepath
fill
newpath
1.0 setlinewidth
10.0 setmiterlimit
0 setlinejoin
0 setlinecap
[ ] 0 setdash
newpath
210.883587922446 -250.6954380365256 moveto
213.85030866805022 -250.6954380365256 lineto
stroke
newpath
0.0 0.0 0.0 setrgbcolor
1.0 setlinewidth
10.0 setmiterlimit
0 setlinejoin
0 setlinecap
[ ] 0 setdash
newpath
206.19868057240635 -196.50541305814332 moveto
206.19868057240635 -195.83905976567362 lineto
206.71051717462976 -196.04186294768667 207.11370919217956 -196.14326452962717 207.40825665765024 -196.14326452962717 curveto
207.74867628460072 -196.14326452962717 208.02571990195418 -196.0436736813172 208.2393875305948 -195.84449199360137 curveto
208.4530551687871 -195.6453102969814 208.55988897833157 -195.38758126207728 208.55988897833157 -195.0713048852194 curveto
208.55988897833157 -194.31803592345668 208.03235927273812 -193.94140147624904 206.97729990871605 -193.94140147624904 curveto
206.69482405647346 -193.94140147624904 lineto
206.69482405647346 -193.45974393332256 lineto
206.9447065411496 -193.4561224480374 lineto
207.9345792152609 -193.4561224480374 208.42951550806578 -193.10725268850305 208.42951550806578 -192.40951320062575 curveto
208.42951550806578 -191.86146174447146 208.10358182268766 -191.58743604089412 207.4517144810722 -191.58743604089412 curveto
207.09439458895397 -191.58743604089412 206.7008598588783 -191.68763047010293 206.27111027810957 -191.88801931956252 curveto
206.27111027810957 -191.26512385051475 lineto
206.6936169073034 -191.12267875838654 207.10405189963276 -191.05145621869022 207.50241527506446 -191.05145621869022 curveto
208.59851818737306 -191.05145621869022 209.14656959452773 -191.46551271530018 209.14656959452773 -192.2936256715006 curveto
209.14656959452773 -192.92376412989827 208.77355659903947 -193.37282829047206 208.02753064141285 -193.64081819758064 curveto
208.89185848856368 -193.8412070559983 209.32402237350064 -194.3144144717373 209.32402237350064 -195.0604404293639 curveto
209.32402237350064 -195.5650340608011 209.15743404541848 -195.96098310788855 208.82425740414837 -196.24828760289685 curveto
208.49108074798409 -196.53559211074867 208.0335664415512 -196.67924435183104 207.4517144810722 -196.67924435183104 curveto
207.1209521485033 -196.67924435183104 206.70327418128647 -196.6213005855416 206.19868057240635 -196.50541305814332 curveto
closepath
fill
newpath
1.0 setlinewidth
10.0 setmiterlimit
0 setlinejoin
0 setlinecap
[ ] 0 setdash
newpath
210.883587922446 -194.00252465069877 moveto
213.85030866805022 -194.00252465069877 lineto
stroke
newpath
0.0 0.0 0.0 setrgbcolor
1.0 setlinewidth
10.0 setmiterlimit
0 setlinejoin
0 setlinecap
[ ] 0 setdash
newpath
208.2375767879522 -140.17755522979976 moveto
208.2375767879522 -138.66015289531714 lineto
205.82566758803472 -138.66015289531714 lineto
205.82566758803472 -138.1205515878281 lineto
208.2375767879522 -134.81775700776086 lineto
208.90755156570708 -134.81775700776086 lineto
208.90755156570708 -138.07709376440613 lineto
209.62460565216904 -138.07709376440613 lineto
209.62460565216904 -138.66015289531714 lineto
208.90755156570708 -138.66015289531714 lineto
208.90755156570708 -140.17755522979976 lineto
closepath
206.52461424807086 -138.07709376440613 moveto
208.28465609665932 -138.07709376440613 lineto
208.28465609665932 -135.69415644676994 lineto
closepath
fill
newpath
1.0 setlinewidth
10.0 setmiterlimit
0 setlinejoin
0 setlinecap
[ ] 0 setdash
newpath
210.883587922446 -137.30961126487193 moveto
213.85030866805022 -137.30961126487193 lineto
stroke
newpath
0.0 0.0 0.0 setrgbcolor
1.0 setlinewidth
10.0 setmiterlimit
0 setlinejoin
0 setlinecap
[ ] 0 setdash
newpath
206.34716146909795 -83.08990978862934 moveto
206.34716146909795 -82.45252837844093 lineto
206.70206703762076 -82.59497347056914 207.04007232511034 -82.66619601026547 207.36117734894316 -82.66619601026547 curveto
207.7136685938706 -82.66619601026547 207.9907122106844 -82.56238009566356 208.19230822188769 -82.35474827574158 curveto
208.39390424210305 -82.14711644653775 208.49470224319867 -81.8610191097655 208.49470224319867 -81.49645626315832 curveto
208.49470224319867 -80.69248650589233 207.9406149780559 -80.29050166319958 206.8324404973096 -80.29050166319958 curveto
206.70689567034913 -80.29050166319958 206.5753150400125 -80.29895179578345 206.437698601227 -80.31585206019571 curveto
206.437698601227 -77.70838265487949 lineto
209.15019107981288 -77.70838265487949 lineto
209.15019107981288 -78.33127812392725 lineto
207.0642155555599 -78.33127812392725 lineto
207.0642155555599 -79.7436573851402 lineto
207.75229778024703 -79.7436573851402 208.2894847494624 -79.90179558063846 208.67577650745676 -80.21807195749635 curveto
209.06206828271968 -80.53434834849288 209.25521415308256 -80.97254806691812 209.25521415308256 -81.53267111600994 curveto
209.25521415308256 -82.05416501261492 209.0795721115177 -82.46278925782265 208.72828804409158 -82.75854388503707 curveto
208.37700396096184 -83.05429852547276 207.88991419129485 -83.20217583246935 207.26701873152896 -83.20217583246935 curveto
206.9966144888449 -83.20217583246935 206.68999540431795 -83.16475381674076 206.34716146909795 -83.08990978862934 curveto
closepath
fill
newpath
1.0 setlinewidth
10.0 setmiterlimit
0 setlinejoin
0 setlinecap
[ ] 0 setdash
newpath
210.883587922446 -80.61669787904512 moveto
213.85030866805022 -80.61669787904512 lineto
stroke
newpath
0.0 0.0 0.0 setrgbcolor
1.0 setlinewidth
10.0 setmiterlimit
0 setlinejoin
0 setlinecap
[ ] 0 setdash
newpath
206.72017445346958 -23.922807496719248 moveto
207.06059408042006 -23.480986278762256 207.48913650338443 -23.26007568953471 208.0058017297019 -23.26007568953471 curveto
208.47418050720822 -23.26007568953471 208.85745435703873 -23.415195980538734 209.15562330774063 -23.72543654867795 curveto
209.4537922717717 -24.035677130686 209.60287674045807 -24.433436929158226 209.60287674045807 -24.918715950138637 curveto
209.60287674045807 -25.476424700674507 209.4356848314771 -25.935146158867727 209.1013010284632 -26.29488035849997 curveto
208.76691721050122 -26.654614574213586 208.34259985355897 -26.83448166598902 207.82834895072898 -26.83448166598902 curveto
207.2368396698576 -26.83448166598902 206.77449672778226 -26.596670791842772 206.44132008651215 -26.121049064812222 curveto
206.10814343034787 -25.645427316519726 205.94155511715988 -24.98510983444158 205.94155511715988 -24.14009661382893 curveto
205.94155511715988 -23.210582029602477 206.1328902620948 -22.488699316132394 206.51556053485797 -21.974448413302408 curveto
206.89823082472782 -21.460197487483615 207.4372285502927 -21.203072047563026 208.13255371468253 -21.203072047563026 curveto
208.45124442927445 -21.203072047563026 208.8496078082678 -21.270673108234043 209.3276438587858 -21.405875223532068 curveto
209.3276438587858 -22.02877069257983 lineto
208.82305022734857 -21.83562480494836 208.41020091509338 -21.739051869766918 208.0890958912606 -21.739051869766918 curveto
207.1764815722019 -21.739051869766918 206.72017445346958 -22.466970433778023 206.72017445346958 -23.922807496719248 curveto
closepath
208.88582265399612 -25.078061302685736 moveto
208.88582265399612 -24.672454938659648 208.79468193827 -24.353764242199738 208.61240051496642 -24.121989187403123 curveto
208.43011908351423 -23.890214122245357 208.17721869504538 -23.774326600027628 207.8536993477251 -23.774326600027628 curveto
207.55190889830092 -23.774326600027628 207.29236912528722 -23.875728191034153 207.0750800114154 -24.078531363981188 curveto
206.85779088783 -24.28133454599423 206.74914633575088 -24.525181220062954 206.74914633575088 -24.810071391583794 curveto
206.74914633575088 -25.259135580326962 206.85235866945393 -25.61947335686469 207.05878332763217 -25.891084749204474 curveto
207.2652079950383 -26.16269615368623 207.53863013298871 -26.298501843785132 207.87904974472124 -26.298501843785132 curveto
208.1856688413362 -26.298501843785132 208.43011909166285 -26.188046539295886 208.61240051496642 -25.967135940192865 curveto
208.79468194641862 -25.74622533121437 208.88582265399612 -25.449867119755304 208.88582265399612 -25.078061302685736 curveto
closepath
fill
newpath
1.0 setlinewidth
10.0 setmiterlimit
0 setlinejoin
0 setlinecap
[ ] 0 setdash
newpath
210.883587922446 -23.92378449321831 moveto
213.85030866805022 -23.92378449321831 lineto
stroke
newpath
1.0 0.0 0.0 setrgbcolor
2.0 setlinewidth
10.0 setmiterlimit
1 setlinejoin
1 setlinecap
[ ] 0 setdash
newpath
80.96627081741069 4.082103201027377 moveto
81.8368758799635 0.014203776565054227 lineto
82.7074809425163 -4.026956892383312 lineto
83.5780860050691 -8.041378635894821 lineto
84.44869106762191 -12.029061864271114 lineto
85.3192961301747 -15.990006223851516 lineto
86.18990119272752 -19.924211007314682 lineto
87.06050625528032 -23.831676214660614 lineto
87.93111131783311 -27.712403260532003 lineto
88.80171638038593 -31.566393559571534 lineto
89.67232144293872 -35.39364145320845 lineto
90.54292650549152 -39.19415260001351 lineto
91.41353156804433 -42.96792417070134 lineto
92.28413663059713 -46.714956165271936 lineto
94.02534675570274 -54.12880708463217 lineto
95.76655688080835 -61.43569687023809 lineto
97.50776700591395 -68.63563400994583 lineto
99.24897713101956 -75.72861850375538 lineto
100.99018725612517 -82.714644693096 lineto
102.73139738123078 -89.5937125779677 lineto
104.47260750633637 -96.36583347551195 lineto
106.21381763144198 -103.03098475144574 lineto
107.9550277565476 -109.58918904005213 lineto
109.6962378816532 -116.04044634133109 lineto
111.4374480067588 -122.38473402099959 lineto
113.17865813186441 -128.62207471334065 lineto
114.91986825697002 -134.7524571012128 lineto
116.66107838207562 -140.775881184616 lineto
118.40228850718123 -146.69234696355028 lineto
120.14349863228684 -152.5018657551571 lineto
121.88470875739245 -158.204426242295 lineto
123.62591888249804 -163.80002842496395 lineto
125.36712900760365 -169.288672303164 lineto
127.10833913270926 -174.6703691940366 lineto
128.84954925781486 -179.94509646329874 lineto
130.59075938292048 -185.11288806237496 lineto
132.33196950802608 -190.17369872269924 lineto
134.07317963313167 -195.12757371283757 lineto
135.8143897582373 -199.97450171564853 lineto
137.5555998833429 -204.714460096849 lineto
139.29681000844852 -209.34744885643903 lineto
141.0380201335541 -213.87349062870163 lineto
142.7792302586597 -218.2925854136368 lineto
144.52044038376533 -222.60473321124456 lineto
146.26165050887093 -226.80991138724187 lineto
148.00286063397652 -230.90814257591174 lineto
149.74407075908215 -234.89940414297118 lineto
151.48528088418774 -238.78371872270316 lineto
153.22649100929337 -242.5610636808247 lineto
156.70891125950456 -249.79491263508552 lineto
160.19133150971578 -256.60095100575364 lineto
163.673751759927 -262.97915615854595 lineto
167.1561720101382 -268.9295280934626 lineto
170.6385922603494 -274.4520894447864 lineto
174.12101251056063 -279.54684021251757 lineto
177.60343276077185 -284.2137351280899 lineto
181.08585301098304 -288.45284209435255 lineto
184.56827326119426 -292.26411584273944 lineto
188.05069351140548 -295.6475563732506 lineto
191.5331137616167 -298.603186320169 lineto
195.0155340118279 -301.1309830492117 lineto
198.49795426203912 -303.2309465603786 lineto
201.98037451225034 -304.9031221222358 lineto
205.46279476246156 -306.14744183193426 lineto
208.94521501267275 -306.96395095803996 lineto
212.42763526288397 -307.35264950055296 lineto
215.9100555130952 -307.31351482519017 lineto
219.3924757633064 -306.8465695662347 lineto
222.8748960135176 -305.9517910894034 lineto
226.35731626372882 -304.6291793946964 lineto
229.83973651394004 -302.8787571163966 lineto
233.32215676415123 -300.7005242545042 lineto
236.80457701436245 -298.09445817473596 lineto
240.28699726457367 -295.06055887709203 lineto
243.7694175147849 -291.5988489958553 lineto
247.25183776499608 -287.7093058967429 lineto
250.7342580152073 -283.3919522140377 lineto
254.21667826541852 -278.64676531345674 lineto
257.6990985156297 -273.4737678292831 lineto
261.18151876584096 -267.8729371272337 lineto
264.66393901605215 -261.84429584159153 lineto
268.14635926626335 -255.38782133807365 lineto
271.6287795164746 -248.50353625096304 lineto
275.1111997666858 -241.19141794597667 lineto
276.8524098917914 -237.37493831249236 lineto
278.59362001689703 -233.45148905739757 lineto
280.3348301420026 -229.42109281497537 lineto
282.0760402671082 -225.2837269509427 lineto
283.81725039221385 -221.03941409958264 lineto
285.5584605173194 -216.68815426089515 lineto
287.29967064242504 -212.2299248005972 lineto
289.04088076753067 -207.6647483529718 lineto
290.78209089263623 -202.99260228373598 lineto
292.52330101774186 -198.21350922717272 lineto
294.2645111428475 -193.32746918328203 lineto
296.00572126795305 -188.3344595177809 lineto
297.7469313930587 -183.23450286495236 lineto
299.4881415181643 -178.02758790765486 lineto
301.22935164326987 -172.71372596302993 lineto
302.9705617683755 -167.29289439679457 lineto
304.7117718934811 -161.76511584323177 lineto
306.45298201858674 -156.13037898520002 lineto
308.1941921436923 -150.38868382269936 lineto
309.93540226879793 -144.54004167287127 lineto
311.67661239390355 -138.58444121857423 lineto
313.4178225190091 -132.52188245980824 lineto
315.15903264411475 -126.35236539657333 lineto
316.90024276922037 -120.07589002886948 lineto
318.64145289432594 -113.6924676738382 lineto
320.38266301943156 -107.20208701433799 lineto
322.1238731445372 -100.60474805036883 lineto
323.86508326964275 -93.9004564405015 lineto
325.6062933947484 -87.08921218473598 lineto
327.347503519854 -80.17100396593077 lineto
329.08871364495957 -73.14584875979813 lineto
330.8299237700652 -66.01373524919656 lineto
332.5711338951708 -58.77466343412603 lineto
334.3123440202764 -51.42863897315734 lineto
335.1829490828292 -47.71551313456907 lineto
336.053554145382 -43.97565337843432 lineto
336.9241592079348 -40.209054046182345 lineto
337.79476427048763 -36.41571796709851 lineto
338.6653693330404 -32.59563948261206 lineto
339.53597439559326 -28.748824251293755 lineto
340.40657945814604 -24.875269443858215 lineto
341.2771845206988 -20.97497647494813 lineto
342.14778958325167 -17.04794392992081 lineto
343.01839464580445 -13.094171808776254 lineto
343.88899970835723 -9.113661526157154 lineto
344.7596047709101 -5.106412021081492 lineto
345.63020983346286 -1.072423824040275 lineto
346.50081489601564 2.988303241796831 lineto
347.3714199585685 7.075768999599491 lineto
stroke
newpath
1.0 0.0 0.0 setrgbcolor
2.0 setlinewidth
10.0 setmiterlimit
1 setlinejoin
1 setlinecap
[ ] 0 setdash
newpath
91.62068052635557 -7.04885895903817 moveto
91.62068052635557 -11.125202796015854 lineto
90.76021562260121 -11.125202796015854 lineto
90.76021562260121 -7.04885895903817 lineto
90.09096514190338 -7.04885895903817 lineto
90.09096514190338 -6.405683172393504 lineto
90.76021562260121 -6.405683172393504 lineto
90.76021562260121 -5.8407314679083235 lineto
90.76021562260121 -4.7166224018931615 91.27301795426277 -4.15456791913717 92.29862257173778 -4.15456791913717 curveto
92.58544421487052 -4.15456791913717 92.9113778874267 -4.202371526325959 93.27642359873136 -4.297978736429562 curveto
93.27642359873136 -4.975920781811778 lineto
92.89109755290657 -4.857136060918424 92.58254701464072 -4.797743705781837 92.35077195984411 -4.797743705781837 curveto
92.06974469334031 -4.797743705781837 91.87780598006944 -4.8651033340933125 91.77495579950345 -4.9998225846938436 curveto
91.67210561433969 -5.1345418413167945 91.62068052635557 -5.384424327417591 91.62068052635557 -5.749470038722256 curveto
91.62068052635557 -6.405683172393504 lineto
92.79838754109005 -6.405683172393504 lineto
92.79838754109005 -7.04885895903817 lineto
closepath
fill
newpath
grestore
grestore
showpage

%%EOF