%!PS-Adobe-3.0 EPSF-3.0
%%Creator: EpsGraphics 1.0.0 by Thomas Abeel, http://www.sourceforge.net/epsgraphics/
%%Title: GeoGebra, http://www.geogebra.org/
%%CreationDate: Mon Aug 18 14:10:01 CEST 2014
%%BoundingBox: 0 0 579 559
%%DocumentData: Clean7Bit
%%LanguageLevel: 2
%%DocumentProcessColors: Black
%%ColorUsage: Color
%%Origin: 0 0
%%Pages: 1
%%Page: 1 1
%%EndComments

gsave
0.0 559.0 translate
0.0 0.0 0.0 setrgbcolor
0.0 0.0 0.0 setrgbcolor
gsave
newpath
0.0 -0.0 moveto
579.5029558989698 -0.0 lineto
579.5029558989698 -559.8031387012711 lineto
0.0 -559.8031387012711 lineto
0.0 -0.0 lineto
closepath
clip
newpath
1.0 1.0 1.0 setrgbcolor
newpath
0.0 -0.0 moveto
579.5029558989698 -0.0 lineto
579.5029558989698 -559.8031387012711 lineto
0.0 -559.8031387012711 lineto
0.0 -0.0 lineto
closepath
fill
newpath
0.0 0.0 0.0 setrgbcolor
1.0 setlinewidth
10.0 setmiterlimit
0 setlinejoin
0 setlinecap
[ ] 0 setdash
newpath
77.75394888637908 -3.283302866283115 moveto
77.75394888637908 -559.8031387012711 lineto
stroke
newpath
1.0 setlinewidth
10.0 setmiterlimit
0 setlinejoin
0 setlinecap
[ ] 0 setdash
newpath
78.57477460294986 -1.6416514331415575 moveto
72.8289945869544 -6.56660573256623 lineto
stroke
newpath
1.0 setlinewidth
10.0 setmiterlimit
0 setlinejoin
0 setlinecap
[ ] 0 setdash
newpath
76.9331231698083 -1.6416514331415575 moveto
82.67890318580375 -6.56660573256623 lineto
stroke
newpath
1.0 setlinewidth
10.0 setmiterlimit
0 setlinejoin
0 setlinecap
[ ] 0 setdash
newpath
0.0 -484.817709957686 moveto
576.2196530326867 -484.817709957686 lineto
stroke
newpath
1.0 setlinewidth
10.0 setmiterlimit
0 setlinejoin
0 setlinecap
[ ] 0 setdash
newpath
577.8613044658282 -485.6385356742568 moveto
572.9363501664036 -479.89275565826136 lineto
stroke
newpath
1.0 setlinewidth
10.0 setmiterlimit
0 setlinejoin
0 setlinecap
[ ] 0 setdash
newpath
577.8613044658282 -483.99688424111525 moveto
572.9363501664036 -489.7426642571107 lineto
stroke
newpath
1.0 setlinewidth
10.0 setmiterlimit
0 setlinejoin
0 setlinecap
[ ] 0 setdash
newpath
77.75394888637908 -484.817709957686 moveto
77.75394888637908 -491.38431569025227 lineto
stroke
newpath
1.0 setlinewidth
10.0 setmiterlimit
0 setlinejoin
0 setlinecap
[ ] 0 setdash
newpath
219.48623235094598 -484.817709957686 moveto
219.48623235094598 -491.38431569025227 lineto
stroke
newpath
1.0 setlinewidth
10.0 setmiterlimit
0 setlinejoin
0 setlinecap
[ ] 0 setdash
newpath
361.2185158155129 -484.817709957686 moveto
361.2185158155129 -491.38431569025227 lineto
stroke
newpath
1.0 setlinewidth
10.0 setmiterlimit
0 setlinejoin
0 setlinecap
[ ] 0 setdash
newpath
502.9507992800798 -484.817709957686 moveto
502.9507992800798 -491.38431569025227 lineto
stroke
newpath
1.0 setlinewidth
10.0 setmiterlimit
0 setlinejoin
0 setlinecap
[ ] 0 setdash
newpath
71.18734315381285 -484.817709957686 moveto
77.75394888637908 -484.817709957686 lineto
stroke
newpath
1.0 setlinewidth
10.0 setmiterlimit
0 setlinejoin
0 setlinecap
[ ] 0 setdash
newpath
71.18734315381285 -343.08542649311875 moveto
77.75394888637908 -343.08542649311875 lineto
stroke
newpath
1.0 setlinewidth
10.0 setmiterlimit
0 setlinejoin
0 setlinecap
[ ] 0 setdash
newpath
71.18734315381285 -201.35314302855141 moveto
77.75394888637908 -201.35314302855141 lineto
stroke
newpath
1.0 setlinewidth
10.0 setmiterlimit
0 setlinejoin
0 setlinecap
[ ] 0 setdash
newpath
71.18734315381285 -59.62085956398412 moveto
77.75394888637908 -59.62085956398412 lineto
stroke
newpath
1.0 0.0 0.0 setrgbcolor
2.0 setlinewidth
10.0 setmiterlimit
1 setlinejoin
1 setlinecap
[ ] 0 setdash
newpath
77.75394844312329 -245.29014341766455 moveto
81.07579640130622 -253.84909516442676 lineto
84.3976506218924 -262.25233851720077 lineto
87.71949858007532 -270.49987347598665 lineto
91.0413528006615 -278.5917000407844 lineto
94.36320075884443 -286.52781821159397 lineto
97.68504871702737 -294.3082029388024 lineto
101.00690293761353 -301.9328792720228 lineto
104.32875089579647 -309.40187226086783 lineto
107.6505988539794 -316.71513180611186 lineto
110.97245307456556 -323.8726829573677 lineto
114.29430729515174 -330.8745006650224 lineto
117.61614899093144 -337.72063502830196 lineto
120.93800321151761 -344.4110609975933 lineto
124.25985743210377 -350.9457535232836 lineto
127.58169912788348 -357.3247376549857 lineto
130.90355334846964 -363.5480133926997 lineto
134.22540756905582 -369.6155807364255 lineto
137.54726178964196 -375.5274396861632 lineto
140.86910348542168 -381.28359024191263 lineto
144.19095770600785 -386.884032403674 lineto
147.51281192659403 -392.3287411218342 lineto
150.8346536223737 -397.6177414460063 lineto
154.15650784295988 -402.75105842580314 lineto
157.47836206354606 -407.7286419619989 lineto
160.80020375932574 -412.5505171042065 lineto
164.12205797991192 -417.2166588028131 lineto
167.4439122004981 -421.72711715704435 lineto
170.7657538962778 -426.08184206767453 lineto
174.08760811686395 -430.28090868354246 lineto
177.40946233745012 -434.3242168061963 lineto
180.7313165580363 -438.21181653486207 lineto
184.05315825381598 -441.94370786953965 lineto
187.37501247440215 -445.51989081022907 lineto
190.69686669498833 -448.9403653569303 lineto
194.01870839076804 -452.2050814104175 lineto
197.3405626113542 -455.3141391691425 lineto
200.66241683194036 -458.26748853387926 lineto
203.98425852772007 -461.065079405402 lineto
207.30611274830625 -463.70701198216244 lineto
210.6279669688924 -466.1931860657089 lineto
213.94982118947857 -468.5237018544931 lineto
217.27167541006474 -470.6984591500632 lineto
220.59350458103796 -472.71750805164515 lineto
223.91535880162414 -474.58089865846483 lineto
227.2372130222103 -476.2885307720705 lineto
230.5590672427965 -477.840454491688 lineto
233.88092146338263 -479.2366698173173 lineto
237.2027756839688 -480.47717674895847 lineto
240.52462990455498 -481.5619752866115 lineto
243.8464590755282 -482.4910153310505 lineto
247.16831329611438 -483.2643970807272 lineto
250.49016751670055 -483.88207043641575 lineto
253.81202173728673 -484.3439852988903 lineto
257.1338759578729 -484.6502418666025 lineto
260.4557301784591 -484.8007399411007 lineto
263.7775593494323 -484.7955797208366 lineto
267.09941357001844 -484.6346610073585 lineto
270.42126779060465 -484.31803389989227 lineto
273.7431220111908 -483.84569839843783 lineto
277.06497623177694 -483.2177046022211 lineto
280.38683045236314 -482.4339523127904 lineto
283.7086846729493 -481.49449162937145 lineto
287.0305138439225 -480.3993225519644 lineto
290.3523680645087 -479.1483949813433 lineto
293.67422228509486 -477.74180911595994 lineto
296.996076505681 -476.1795148565884 lineto
300.3179307262672 -474.4615122032287 lineto
303.63978494685335 -472.587751056655 lineto
306.9616141178266 -470.558331615319 lineto
310.2834683384128 -468.373153680769 lineto
313.6053225589989 -466.03231745145666 lineto
316.9271767795851 -463.5357227289303 lineto
320.24903100017127 -460.8834196124158 lineto
323.5708852207574 -458.0754081019132 lineto
326.8927394413436 -455.1117382966482 lineto
330.21456861231684 -451.9923099981692 lineto
333.536422832903 -448.7171733057021 lineto
336.8582770534892 -445.2863282192468 lineto
340.18013127407534 -441.6997246395775 lineto
343.5019854946615 -437.95746276514586 lineto
346.8238397152477 -434.05949249672614 lineto
350.1456688862209 -430.0058138343182 lineto
353.4675231068071 -425.7963766786963 lineto
356.78937732739325 -421.431281228312 lineto
360.1112315479794 -416.91042728471376 lineto
363.4330857685656 -412.23388999674023 lineto
366.75493998915175 -407.4016443147786 lineto
370.0767942097379 -402.41366518921586 lineto
373.3986233807112 -397.2700027192779 lineto
376.7204776012973 -391.97060680573884 lineto
380.04233182188347 -386.5155024982117 lineto
383.36418604246967 -380.9046897966963 lineto
386.6860402630558 -375.13816870119274 lineto
390.007894483642 -369.2159392117011 lineto
393.32974870422817 -363.1379762786083 lineto
396.6515778752014 -356.9043300011403 lineto
399.9734320957876 -350.5149502800712 lineto
403.29528631637373 -343.969862165014 lineto
406.6171405369599 -337.2690656559686 lineto
409.9389947575461 -330.412560752935 lineto
413.26084897813223 -323.4003474559133 lineto
416.58267814910545 -316.2324257649034 lineto
419.90453236969165 -308.9087706302924 lineto
423.2263865902778 -301.42943215130623 lineto
426.548215761251 -293.7943602287189 lineto
429.87009503145015 -286.0035799121435 lineto
433.19192420242337 -278.0570912015799 lineto
436.5138034726225 -269.9548940970281 lineto
439.8356326435957 -261.6969885984882 lineto
443.1575119137948 -253.28334965634718 lineto
446.47934108476807 -244.71402736983094 lineto
449.8011702557413 -235.98897163971364 lineto
453.12304952594036 -227.10820751560814 lineto
456.44487869691363 -218.0717349975145 lineto
459.7667579671127 -208.87955408543272 lineto
463.0885871380859 -199.53166477936276 lineto
466.41046640828506 -190.02805455449817 lineto
469.7322955792583 -180.36873593564542 lineto
473.0541247502315 -170.55370892280453 lineto
476.3760040204306 -160.58296099116902 lineto
479.69783319140384 -150.4565171903518 lineto
483.019712461603 -140.17435247073996 lineto
486.3415416325762 -129.7364668323335 lineto
489.6634209027753 -119.14288532474535 lineto
492.98525007374855 -108.39358289836257 lineto
496.30707924472176 -97.48857207799163 lineto
499.62895851492084 -86.4278466012293 lineto
502.9507876858941 -75.21141273047883 lineto
stroke
newpath
0.0 0.0 0.0 setrgbcolor
1.0 setlinewidth
10.0 setmiterlimit
1 setlinejoin
0 setlinecap
[ 1.0 3.0 ] 0 setdash
newpath
104.57042428720383 -309.939172176866 moveto
104.57042428720383 -484.817709957686 lineto
stroke
newpath
0.0 0.0 0.0 setrgbcolor
1.0 setlinewidth
10.0 setmiterlimit
1 setlinejoin
0 setlinecap
[ 1.0 3.0 ] 0 setdash
newpath
436.91601936022835 -268.96326223919164 moveto
436.91601936022835 -484.817709957686 lineto
stroke
newpath
0.0 0.0 0.0 setrgbcolor
1.0 setlinewidth
10.0 setmiterlimit
1 setlinejoin
1 setlinecap
[ ] 0 setdash
newpath
182.6625586486249 -440.4003872241074 moveto
373.3526541823275 -397.3422562984002 lineto
stroke
newpath
0.0 0.0 0.0 setrgbcolor
1.0 setlinewidth
10.0 setmiterlimit
1 setlinejoin
1 setlinecap
[ ] 0 setdash
newpath
129.99577035836418 -361.8628086930473 moveto
395.1458079576078 -359.7493061546667 lineto
stroke
newpath
0.0 0.0 0.0 setrgbcolor
1.0 setlinewidth
10.0 setmiterlimit
1 setlinejoin
1 setlinecap
[ ] 0 setdash
newpath
109.49537858662849 -484.817709957686 moveto
109.49537858662849 -487.53768711087184 107.29040144038967 -489.7426642571107 104.57042428720383 -489.7426642571107 curveto
101.85044713401798 -489.7426642571107 99.64546998777917 -487.53768711087184 99.64546998777917 -484.817709957686 curveto
99.64546998777917 -482.0977328045002 101.85044713401798 -479.89275565826136 104.57042428720383 -479.89275565826136 curveto
107.29040144038967 -479.89275565826136 109.49537858662849 -482.0977328045002 109.49537858662849 -484.817709957686 curveto
closepath
fill
newpath
0.0 0.0 0.0 setrgbcolor
1.0 setlinewidth
10.0 setmiterlimit
1 setlinejoin
1 setlinecap
[ ] 0 setdash
newpath
109.49537858662849 -484.817709957686 moveto
109.49537858662849 -487.53768711087184 107.29040144038967 -489.7426642571107 104.57042428720383 -489.7426642571107 curveto
101.85044713401798 -489.7426642571107 99.64546998777917 -487.53768711087184 99.64546998777917 -484.817709957686 curveto
99.64546998777917 -482.0977328045002 101.85044713401798 -479.89275565826136 104.57042428720383 -479.89275565826136 curveto
107.29040144038967 -479.89275565826136 109.49537858662849 -482.0977328045002 109.49537858662849 -484.817709957686 curveto
closepath
stroke
newpath
0.0 0.0 0.0 setrgbcolor
1.0 setlinewidth
10.0 setmiterlimit
1 setlinejoin
1 setlinecap
[ ] 0 setdash
newpath
112.34731360516999 -514.1511209179322 moveto
111.21226551014739 -515.1963911975292 110.11890002302724 -515.7190262906006 109.06721708934222 -515.7190262906006 curveto
108.20150244059617 -515.7190262906006 107.4832799558925 -515.4480896690486 106.91254958334393 -514.9062164501682 curveto
106.34181918528172 -514.3643432070643 106.05645401176425 -513.6797873886684 106.05645401176425 -512.8525489835137 curveto
106.05645401176425 -511.71108818738924 106.53580341912549 -510.83415136274226 107.49450219099079 -510.2217384348952 curveto
108.45320100571327 -509.6093254796711 109.82712217392158 -509.30311902943606 111.61626570134914 -509.30311902943606 curveto
112.06836111555414 -509.30311902943606 lineto
112.06836111555414 -508.0430233004817 lineto
112.06836111555414 -506.83102279223726 111.44632910867735 -506.22502259229566 110.20226515053776 -506.22502259229566 curveto
109.20188377865344 -506.22502259229566 108.12134368771686 -506.53283224518316 106.96064484017425 -507.1484515234378 curveto
106.96064484017425 -505.5805461507694 lineto
108.23677235943694 -505.0611173615218 109.43274105787951 -504.8014029901182 110.54855099971606 -504.8014029901182 curveto
111.71566260024777 -504.8014029901182 112.5765676709935 -505.06432373529293 113.13126629150419 -505.59016520213544 curveto
113.68596493681184 -506.11600669248486 113.9633142346687 -506.9336260594603 113.9633142346687 -508.0430233004817 curveto
113.9633142346687 -512.7755965725851 lineto
113.9633142346687 -513.8593430587931 114.29677469196348 -514.4012162534499 114.96369557673934 -514.4012162534499 curveto
115.04706069106304 -514.4012162534499 115.16890200827096 -514.3883908512463 115.32921952864977 -514.3627400479857 curveto
115.46388624777467 -515.4112166468866 lineto
115.03423527395255 -515.6164230821449 114.55969541162457 -515.7190262906006 114.04026664559721 -515.7190262906006 curveto
113.1553138935457 -515.7190262906006 112.59099623614578 -515.196391150802 112.34731360516999 -514.1511209179322 curveto
closepath
112.06836111555414 -513.1218824217634 moveto
112.06836111555414 -510.4189289878995 lineto
111.43350372539392 -510.39969088516733 lineto
110.39464614689867 -510.39969088516733 109.55458234900046 -510.5968814440484 108.91331226748521 -510.9912625441803 curveto
108.27204215730295 -511.38564366194237 107.95140713087882 -511.9034692582843 107.95140713087882 -512.5447393397995 curveto
107.95140713087882 -513.000041118029 108.1117246584244 -513.3848031637848 108.43235969918202 -513.6990255037273 curveto
108.75299475427315 -514.0132478577166 109.14416950715082 -514.1703590206644 109.6058839658418 -514.1703590206644 curveto
110.39464620136599 -514.1703590206644 111.21547190713886 -513.820866810615 112.06836111555414 -513.1218824217634 curveto
closepath
fill
newpath
0.0 0.0 0.0 setrgbcolor
1.0 setlinewidth
10.0 setmiterlimit
1 setlinejoin
1 setlinecap
[ ] 0 setdash
newpath
441.84097365965306 -484.817709957686 moveto
441.84097365965306 -487.53768711087184 439.63599651341417 -489.7426642571107 436.91601936022835 -489.7426642571107 curveto
434.1960422070425 -489.7426642571107 431.9910650608037 -487.53768711087184 431.9910650608037 -484.817709957686 curveto
431.9910650608037 -482.0977328045002 434.1960422070425 -479.89275565826136 436.91601936022835 -479.89275565826136 curveto
439.63599651341417 -479.89275565826136 441.84097365965306 -482.0977328045002 441.84097365965306 -484.817709957686 curveto
closepath
fill
newpath
0.0 0.0 0.0 setrgbcolor
1.0 setlinewidth
10.0 setmiterlimit
1 setlinejoin
1 setlinecap
[ ] 0 setdash
newpath
441.84097365965306 -484.817709957686 moveto
441.84097365965306 -487.53768711087184 439.63599651341417 -489.7426642571107 436.91601936022835 -489.7426642571107 curveto
434.1960422070425 -489.7426642571107 431.9910650608037 -487.53768711087184 431.9910650608037 -484.817709957686 curveto
431.9910650608037 -482.0977328045002 434.1960422070425 -479.89275565826136 436.91601936022835 -479.89275565826136 curveto
439.63599651341417 -479.89275565826136 441.84097365965306 -482.0977328045002 441.84097365965306 -484.817709957686 curveto
closepath
stroke
newpath
0.0 0.0 0.0 setrgbcolor
1.0 setlinewidth
10.0 setmiterlimit
1 setlinejoin
1 setlinecap
[ ] 0 setdash
newpath
443.49918863419356 -513.9523271897002 moveto
443.49918863419356 -498.64841646629276 lineto
445.3941417533081 -498.64841646629276 lineto
445.3941417533081 -505.3528952684392 lineto
446.1700785866286 -503.89079941722366 447.3339838019224 -503.1597515569767 448.88585739918926 -503.1597515569767 curveto
450.1427468151465 -503.1597515569767 451.1319059039153 -503.618259685757 451.85333474562 -504.5352759023238 curveto
452.574763619575 -505.45229215988445 452.93547802430214 -506.7059751842969 452.93547802430214 -508.29632498645475 curveto
452.93547802430214 -510.0277542839469 452.52666832906095 -511.4241198714678 451.709048975129 -512.4854218563755 curveto
450.89142958464663 -513.5467238887271 449.8156990113663 -514.0773748574591 448.48185724181457 -514.0773748574591 curveto
447.24420592916283 -514.0773748574591 446.2149674576476 -513.6028349759242 445.3941417533081 -512.6537552552817 curveto
445.16328452052255 -513.9523271897002 lineto
closepath
445.3941417533081 -511.34556426949695 moveto
446.36887232078516 -512.2176916193448 447.29871393697556 -512.6537552552817 448.1836666494666 -512.6537552552817 curveto
450.0048737623842 -512.6537552552817 450.9154772374287 -511.2654054667371 450.9154772374287 -508.48870601377604 curveto
450.9154772374287 -506.0390541928798 450.1074768985991 -504.81422839193965 448.49147629318065 -504.81422839193965 curveto
447.4333806113799 -504.81422839193965 446.40093578128705 -505.38816514055276 445.3941417533081 -506.53603858646505 curveto
closepath
fill
newpath
grestore
grestore
showpage

%%EOF