%!PS-Adobe-3.0 EPSF-3.0
%%Creator: EpsGraphics 1.0.0 by Thomas Abeel, http://www.sourceforge.net/epsgraphics/
%%Title: GeoGebra, http://www.geogebra.org/
%%CreationDate: Fri Aug 22 15:54:41 CEST 2014
%%BoundingBox: 0 0 232 218
%%DocumentData: Clean7Bit
%%LanguageLevel: 2
%%DocumentProcessColors: Black
%%ColorUsage: Color
%%Origin: 0 0
%%Pages: 1
%%Page: 1 1
%%EndComments

gsave
0.0 218.0 translate
0.0 0.0 0.0 setrgbcolor
0.0 0.0 0.0 setrgbcolor
gsave
newpath
0.0 -0.0 moveto
232.14417167904628 -0.0 lineto
232.14417167904628 -218.30359775780232 lineto
0.0 -218.30359775780232 lineto
0.0 -0.0 lineto
closepath
clip
newpath
1.0 1.0 1.0 setrgbcolor
newpath
0.0 -0.0 moveto
232.14417167904628 -0.0 lineto
232.14417167904628 -218.30359775780232 lineto
0.0 -218.30359775780232 lineto
0.0 -0.0 lineto
closepath
fill
newpath
0.0 0.0 0.0 setrgbcolor
1.0 setlinewidth
10.0 setmiterlimit
0 setlinejoin
0 setlinecap
[ ] 0 setdash
newpath
12.669038075116742 -1.2582339928403592 moveto
12.669038075116742 -218.30359775780232 lineto
stroke
newpath
1.0 setlinewidth
10.0 setmiterlimit
0 setlinejoin
0 setlinecap
[ ] 0 setdash
newpath
12.983596573326832 -0.6291169964201796 moveto
10.781687085856204 -2.5164679856807184 lineto
stroke
newpath
1.0 setlinewidth
10.0 setmiterlimit
0 setlinejoin
0 setlinecap
[ ] 0 setdash
newpath
12.354479576906652 -0.6291169964201796 moveto
14.556389064377282 -2.5164679856807184 lineto
stroke
newpath
1.0 setlinewidth
10.0 setmiterlimit
0 setlinejoin
0 setlinecap
[ ] 0 setdash
newpath
0.0 -208.31456960531946 moveto
230.88593768620592 -208.31456960531946 lineto
stroke
newpath
1.0 setlinewidth
10.0 setmiterlimit
0 setlinejoin
0 setlinecap
[ ] 0 setdash
newpath
231.5150546826261 -208.62912810352955 moveto
229.62770369336556 -206.42721861605892 lineto
stroke
newpath
1.0 setlinewidth
10.0 setmiterlimit
0 setlinejoin
0 setlinecap
[ ] 0 setdash
newpath
231.5150546826261 -208.00001110710937 moveto
229.62770369336556 -210.20192059458 lineto
stroke
newpath
1.0 setlinewidth
10.0 setmiterlimit
0 setlinejoin
0 setlinecap
[ ] 0 setdash
newpath
12.669038075116742 -208.31456960531946 moveto
12.669038075116742 -210.83103759100018 lineto
stroke
newpath
1.0 setlinewidth
10.0 setmiterlimit
0 setlinejoin
0 setlinecap
[ ] 0 setdash
newpath
55.18872311448683 -208.31456960531946 moveto
55.18872311448683 -210.83103759100018 lineto
stroke
newpath
1.0 setlinewidth
10.0 setmiterlimit
0 setlinejoin
0 setlinecap
[ ] 0 setdash
newpath
97.70840815385691 -208.31456960531946 moveto
97.70840815385691 -210.83103759100018 lineto
stroke
newpath
1.0 setlinewidth
10.0 setmiterlimit
0 setlinejoin
0 setlinecap
[ ] 0 setdash
newpath
140.22809319322698 -208.31456960531946 moveto
140.22809319322698 -210.83103759100018 lineto
stroke
newpath
1.0 setlinewidth
10.0 setmiterlimit
0 setlinejoin
0 setlinecap
[ ] 0 setdash
newpath
182.74777823259706 -208.31456960531946 moveto
182.74777823259706 -210.83103759100018 lineto
stroke
newpath
1.0 setlinewidth
10.0 setmiterlimit
0 setlinejoin
0 setlinecap
[ ] 0 setdash
newpath
225.26746327196716 -208.31456960531946 moveto
225.26746327196716 -210.83103759100018 lineto
stroke
newpath
1.0 setlinewidth
10.0 setmiterlimit
0 setlinejoin
0 setlinecap
[ ] 0 setdash
newpath
10.152570089436024 -208.31456960531946 moveto
12.669038075116742 -208.31456960531946 lineto
stroke
newpath
1.0 setlinewidth
10.0 setmiterlimit
0 setlinejoin
0 setlinecap
[ ] 0 setdash
newpath
10.152570089436024 -165.79488456594936 moveto
12.669038075116742 -165.79488456594936 lineto
stroke
newpath
1.0 setlinewidth
10.0 setmiterlimit
0 setlinejoin
0 setlinecap
[ ] 0 setdash
newpath
10.152570089436024 -123.27519952657926 moveto
12.669038075116742 -123.27519952657926 lineto
stroke
newpath
1.0 setlinewidth
10.0 setmiterlimit
0 setlinejoin
0 setlinecap
[ ] 0 setdash
newpath
10.152570089436024 -80.75551448720915 moveto
12.669038075116742 -80.75551448720915 lineto
stroke
newpath
1.0 setlinewidth
10.0 setmiterlimit
0 setlinejoin
0 setlinecap
[ ] 0 setdash
newpath
10.152570089436024 -38.235829447839066 moveto
12.669038075116742 -38.235829447839066 lineto
stroke
newpath
1.0 0.0 0.0 setrgbcolor
2.0 setlinewidth
10.0 setmiterlimit
1 setlinejoin
1 setlinecap
[ ] 0 setdash
newpath
0.0 -204.35737104019302 moveto
1.813626341242549 -204.31770564362915 lineto
3.627252682485098 -204.2772338837276 lineto
5.440879023727647 -204.23593656136129 lineto
7.254505364970196 -204.1937944774031 lineto
9.068131706212744 -204.15075003447174 lineto
10.881758047455294 -204.10682243169435 lineto
12.695384388697843 -204.06193487256257 lineto
14.509010729940393 -204.01610655620348 lineto
16.322637071182942 -203.96926068610873 lineto
18.13626341242549 -203.9213780631512 lineto
19.94988975366804 -203.87243948820384 lineto
21.76351609491059 -203.82238736388538 lineto
23.577142436153135 -203.77120249106872 lineto
25.390768777395685 -203.7188464714997 lineto
27.204395118638235 -203.66526170779704 lineto
29.018021459880785 -203.61040980170657 lineto
30.83164780112333 -203.55425235497412 lineto
32.645274142365885 -203.49673177021842 lineto
34.45890048360843 -203.43780964918528 lineto
36.27252682485098 -203.37742839449348 lineto
38.08615316609353 -203.3155304087617 lineto
39.89977950733608 -203.2520580946087 lineto
41.713405848578624 -203.18695385465324 lineto
43.52703218982118 -203.12016009151404 lineto
45.340658531063724 -203.05160000868273 lineto
47.15428487230627 -202.98119680965095 lineto
48.967911213548824 -202.90889289703748 lineto
50.78153755479137 -202.83461147433394 lineto
52.595163896033924 -202.75825654590489 lineto
54.40879023727647 -202.67973211611488 lineto
56.22241657851902 -202.5989613884556 lineto
58.03604291976157 -202.51584836729157 lineto
59.84966926100412 -202.43027785786026 lineto
61.66329560224666 -202.3421346653992 lineto
63.47692194348922 -202.25132279427285 lineto
65.29054828473177 -202.15768865146458 lineto
67.10417462597431 -202.06113624133894 lineto
68.91780096721686 -201.96151197087923 lineto
70.73142730845942 -201.85864304794163 lineto
72.54505364970196 -201.7523950786365 lineto
74.35867999094451 -201.64259527082015 lineto
76.17230633218706 -201.5290516332216 lineto
77.9859326734296 -201.41159137369712 lineto
79.79955901467216 -201.2899841027216 lineto
81.61318535591471 -201.16399943077002 lineto
83.42681169715725 -201.03342616744442 lineto
85.2404380383998 -200.89801472409263 lineto
87.05406437964236 -200.75743871555414 lineto
88.8676907208849 -200.61144855317687 lineto
90.68131706212745 -200.45969865267318 lineto
92.49494340337 -200.30186262888256 lineto
94.30856974461254 -200.13753730013622 lineto
96.1221960858551 -199.96635788301947 lineto
97.93582242709765 -199.78782520022799 lineto
99.7494487683402 -199.60151687096584 lineto
101.56307510958274 -199.40685692142043 lineto
103.3767014508253 -199.20332697516034 lineto
105.19032779206785 -198.99025506273753 lineto
107.00395413331039 -198.76700761295805 lineto
108.81758047455294 -198.53277826248421 lineto
110.6312068157955 -198.28677984710546 lineto
112.44483315703803 -198.0280908087215 lineto
114.25845949828059 -197.75571279272378 lineto
116.07208583952314 -197.46849385148704 lineto
117.88571218076568 -197.1652244400047 lineto
119.69933852200823 -196.84450302199934 lineto
121.51296486325079 -196.50479366730394 lineto
123.32659120449333 -196.1443492553535 lineto
125.14021754573588 -195.76119227605793 lineto
126.95384388697843 -195.3531340289292 lineto
128.767470228221 -194.91765942831876 lineto
130.58109656946354 -194.45190780429053 lineto
132.39472291070607 -193.95259610611242 lineto
134.20834925194862 -193.41598050400233 lineto
136.02197559319117 -192.83770279611122 lineto
137.83560193443373 -192.21271361201497 lineto
139.64922827567628 -191.53513801882463 lineto
141.46285461691883 -190.79802593253436 lineto
143.27648095816136 -189.99316012675044 lineto
145.0901072994039 -189.1107874449122 lineto
146.90373364064646 -188.1391196229876 lineto
148.71735998188902 -187.06389170955026 lineto
150.53098632313157 -185.86759410069584 lineto
152.34461266437413 -184.52857018106909 lineto
154.15823900561668 -183.01967238496758 lineto
155.9718653468592 -181.3063614827599 lineto
157.78549168810176 -179.34409549960193 lineto
159.5991180293443 -177.07433629700225 lineto
161.41274437058686 -174.41871303818758 lineto
163.22637071182942 -171.26963381495665 lineto
165.03999705307197 -167.47548312069543 lineto
166.8536233943145 -162.81549019301875 lineto
168.66724973555705 -156.95503344590955 lineto
169.57406290617834 -153.41969658435832 lineto
170.4808760767996 -149.36167308739937 lineto
171.38768924742087 -144.65578464641877 lineto
172.29450241804216 -139.13343412689312 lineto
172.7479090033528 -135.9966807432527 lineto
173.20131558866342 -132.56195690720625 lineto
173.65472217397408 -128.784711044346 lineto
174.1081287592847 -124.6110032071182 lineto
174.56153534459534 -119.97497079004737 lineto
175.01494192990597 -114.79526709166157 lineto
175.4683485152166 -108.97032872966521 lineto
175.69505180787192 -105.7769955184964 lineto
175.92175510052726 -102.37155995082273 lineto
176.14845839318258 -98.73214462132738 lineto
176.3751616858379 -94.83380026435947 lineto
176.6018649784932 -90.64785298361303 lineto
176.82856827114853 -86.14126108136962 lineto
177.05527156380384 -81.27573189865215 lineto
177.28197485645916 -76.00657946716329 lineto
177.50867814911447 -70.28142856820689 lineto
177.7353814417698 -64.03839081561476 lineto
177.84873308809745 -60.70020499034864 lineto
177.96208473442513 -57.20388075504028 lineto
178.0754363807528 -53.53791303278219 lineto
178.18878802708045 -49.68964959882337 lineto
178.3021396734081 -45.64515188689792 lineto
178.41549131973576 -41.38900299795416 lineto
178.52884296606342 -36.90415410713792 lineto
178.64219461239108 -32.17166047579511 lineto
178.75554625871874 -27.17042466314687 lineto
178.8688979050464 -21.87688934025622 lineto
178.98224955137405 -16.264659307213456 lineto
179.0956011977017 -10.30405751332227 lineto
179.15227702086554 -7.182820624205308 lineto
179.20895284402937 -3.9616087805729028 lineto
179.2656286671932 -0.6355389544379413 lineto
179.32230449035703 2.8005931675790525 lineto
179.37898031352086 6.3523425829132725 lineto
stroke
newpath
0.0 0.0 0.0 setrgbcolor
1.0 setlinewidth
10.0 setmiterlimit
1 setlinejoin
0 setlinecap
[ 1.0 3.0 ] 0 setdash
newpath
182.74777823259706 -221.44918273990322 moveto
182.74777823259706 3.145584982100898 lineto
stroke
newpath
0.0 0.0 1.0 setrgbcolor
2.0 setlinewidth
10.0 setmiterlimit
1 setlinejoin
0 setlinecap
[ 2.0 3.0 ] 0 setdash
newpath
-3.145584982100898 -38.235829447839095 moveto
235.28975666114718 -38.235829447839095 lineto
stroke
newpath
0.0 0.0 1.0 setrgbcolor
0.0 0.0 1.0 setrgbcolor
2.0 setlinewidth
10.0 setmiterlimit
1 setlinejoin
0 setlinecap
[ 2.0 3.0 ] 0 setdash
newpath
16.720750395469857 -48.82536309467478 moveto
20.112084204297386 -43.22228984530756 lineto
20.112084204297386 -43.12399031168734 20.16123397110749 -43.07484054927157 20.259533500333365 -43.07484054927157 curveto
20.357833033953572 -43.07484054927157 20.406982796369345 -43.123990316081674 20.406982796369345 -43.22228984530756 curveto
20.50528232998955 -43.22228984530756 20.554432092405325 -43.27143961211766 20.554432092405325 -43.36973914134353 curveto
21.144229276549243 -49.26771098278272 lineto
21.144229276549243 -49.36601051640292 21.144229276549243 -49.4643100456288 21.144229276549243 -49.562609574854676 curveto
21.144229276549243 -49.562609574854676 lineto
21.144229276549243 -49.562609574854676 lineto
21.144229276549243 -49.562609574854676 lineto
21.144229276549243 -49.562609574854676 lineto
21.144229276549243 -49.562609574854676 lineto
21.24252881016945 -49.562609574854676 21.439127873015533 -49.562609574854676 21.734026460693162 -49.562609574854676 curveto
21.83232599431337 -49.562609574854676 21.88147575672914 -49.61175934166478 21.88147575672914 -49.710058870890656 curveto
21.88147575672914 -49.80835840451086 21.83232598991904 -49.857508166926635 21.734026460693162 -49.857508166926635 curveto
20.701881388441304 -49.857508166926635 lineto
20.701881388441304 -49.857508166926635 lineto
19.522287020153467 -49.857508166926635 lineto
19.522287020153467 -49.857508166926635 lineto
19.42398748653326 -49.857508166926635 19.374837724117487 -49.80835840011653 19.374837724117487 -49.710058870890656 curveto
19.374837724117487 -49.61175933727045 19.42398749092759 -49.562609574854676 19.522287020153467 -49.562609574854676 curveto
20.013784688254503 -49.562609574854676 20.259533500333365 -49.46431004123447 20.259533500333365 -49.26771098278272 curveto
20.259533500333365 -49.26771098278272 20.210383733523262 -48.72706354787157 20.112084204297386 -47.64576872638694 curveto
17.752895467721714 -47.64576872638694 lineto
17.015648987541816 -48.82536309467478 lineto
16.91734945392161 -49.02196216191519 16.868199691505836 -49.16941145355684 16.868199691505836 -49.26771098278272 curveto
16.868199691505836 -49.46431005002313 17.015648991936146 -49.562609574854676 17.310547579613775 -49.562609574854676 curveto
17.408847113233982 -49.562609574854676 17.457996875649755 -49.61175934166478 17.457996875649755 -49.710058870890656 curveto
17.457996875649755 -49.80835840451086 17.40884710883965 -49.857508166926635 17.310547579613775 -49.857508166926635 curveto
16.425851803397897 -49.857508166926635 lineto
16.425851803397897 -49.857508166926635 lineto
15.54115602718202 -49.857508166926635 lineto
15.54115602718202 -49.857508166926635 lineto
15.442856493561813 -49.857508166926635 15.39370673114604 -49.80835840011653 15.39370673114604 -49.710058870890656 curveto
15.39370673114604 -49.61175933727045 15.442856497956143 -49.562609574854676 15.54115602718202 -49.562609574854676 curveto
15.54115602718202 -49.562609574854676 lineto
15.688605323217999 -49.562609574854676 lineto
16.08180345769883 -49.562609574854676 16.376702040982124 -49.415160274424366 16.573301099433877 -49.12026168674674 curveto
16.671600633054084 -49.02196215312653 16.720750395469857 -48.923662623900654 16.720750395469857 -48.82536309467478 curveto
closepath
17.900344763757694 -47.35087013431498 moveto
20.112084204297386 -47.35087013431498 lineto
19.817185612225426 -44.25443491755941 lineto
17.900344763757694 -47.35087013431498 lineto
closepath
fill
newpath
0.0 0.0 1.0 setrgbcolor
0.0 0.0 0.0 setrgbcolor
2.0 setlinewidth
10.0 setmiterlimit
1 setlinejoin
0 setlinecap
[ 2.0 3.0 ] 0 setdash
newpath
184.6351292218576 -208.31456960531946 moveto
184.6351292218576 -209.3569247742661 183.7901334015437 -210.20192059458 182.74777823259706 -210.20192059458 curveto
181.70542306365041 -210.20192059458 180.86042724333652 -209.3569247742661 180.86042724333652 -208.31456960531946 curveto
180.86042724333652 -207.2722144363728 181.70542306365041 -206.42721861605892 182.74777823259706 -206.42721861605892 curveto
183.7901334015437 -206.42721861605892 184.6351292218576 -207.2722144363728 184.6351292218576 -208.31456960531946 curveto
closepath
fill
newpath
0.0 0.0 0.0 setrgbcolor
1.0 setlinewidth
10.0 setmiterlimit
1 setlinejoin
1 setlinecap
[ ] 0 setdash
newpath
184.6351292218576 -208.31456960531946 moveto
184.6351292218576 -209.3569247742661 183.7901334015437 -210.20192059458 182.74777823259706 -210.20192059458 curveto
181.70542306365041 -210.20192059458 180.86042724333652 -209.3569247742661 180.86042724333652 -208.31456960531946 curveto
180.86042724333652 -207.2722144363728 181.70542306365041 -206.42721861605892 182.74777823259706 -206.42721861605892 curveto
183.7901334015437 -206.42721861605892 184.6351292218576 -207.2722144363728 184.6351292218576 -208.31456960531946 curveto
closepath
stroke
newpath
0.0 0.0 0.0 setrgbcolor
0.0 0.0 0.0 setrgbcolor
0.0 0.0 0.0 setrgbcolor
1.0 setlinewidth
10.0 setmiterlimit
1 setlinejoin
1 setlinecap
[ ] 0 setdash
newpath
191.20240874677117 -203.2080608949956 moveto
190.90751015469922 -204.38765526328345 lineto
190.809210621079 -204.8791529313845 190.76006085866322 -205.17405151027347 190.76006085866322 -205.27235103949934 curveto
190.76006085866322 -205.56724964035996 190.85836039228343 -205.7638486944174 191.0549594507352 -205.86214822364326 curveto
191.1532589843554 -205.86214822364326 191.25155851358127 -205.86214822364326 191.34985804280714 -205.86214822364326 curveto
191.64475664366776 -205.86214822364326 191.8905054645353 -205.71469892321295 192.08710452298706 -205.4198003355353 curveto
192.28370359022747 -205.2232012682949 192.4311528818691 -204.97745244303306 192.52945241109498 -204.68255385535542 curveto
192.52945241109498 -204.58425432173522 192.57860217790508 -204.53510455931945 192.67690170713098 -204.53510455931945 curveto
192.7752012407512 -204.53510455931945 192.82435100316695 -204.58425432612955 192.82435100316695 -204.68255385535542 curveto
192.82435100316695 -204.78085338897563 192.72605146954675 -204.9774524518217 192.52945241109498 -205.27235103949934 curveto
192.13625427661415 -205.86214824122058 191.74305615971065 -206.1570468157152 191.34985804280714 -206.1570468157152 curveto
190.8583603747061 -206.1570468157152 190.51431202900704 -205.9604477484748 190.3177129705553 -205.5672496315713 curveto
190.3177129705553 -205.46895009795108 190.3177129705553 -205.4198003355353 190.3177129705553 -205.4198003355353 curveto
190.1211139033149 -205.71469893639593 189.87536507805302 -205.91129799045336 189.5804664903754 -206.00959751967923 curveto
189.48216695675518 -206.10789705329944 189.3838674275293 -206.1570468157152 189.28556789830344 -206.1570468157152 curveto
188.89236976382261 -206.1570468157152 188.59747118053932 -206.0095975152849 188.40087212208755 -205.7146989276073 curveto
188.40087212208755 -205.7146989276073 188.40087212208755 -205.61639939398708 188.40087212208755 -205.4198003355353 curveto
188.40087212208755 -205.2232012682949 188.49917165570776 -205.07575197665327 188.69577071415952 -204.97745244742737 curveto
188.79407024777973 -204.97745244742737 188.8432200101955 -204.97745244742737 188.8432200101955 -204.97745244742737 curveto
189.0398190774359 -204.97745244742737 189.18726836907757 -205.02660221423747 189.28556789830344 -205.12490174346337 curveto
189.28556789830344 -205.22320127708358 189.28556789830344 -205.27235103949934 189.28556789830344 -205.27235103949934 curveto
189.28556789830344 -205.46895010673975 189.18726836468323 -205.6163993983814 188.99066930623147 -205.7146989276073 curveto
188.89236977261126 -205.7146989276073 188.8432200101955 -205.7146989276073 188.8432200101955 -205.7146989276073 curveto
188.9415195438157 -205.8129984612275 189.08896883985167 -205.86214822364326 189.28556789830344 -205.86214822364326 curveto
189.58046649916406 -205.86214822364326 189.8262153200316 -205.66554915640285 190.02281437848333 -205.27235103949934 curveto
190.12111391210354 -205.17405150587913 190.1702636745193 -205.07575197665327 190.1702636745193 -204.97745244742737 curveto
190.46516227537992 -203.69955851036468 190.61261156262725 -202.91316229852933 190.61261156262725 -202.6182637108517 curveto
190.61261156262725 -202.22506557637087 190.46516226219694 -202.02846652670777 190.1702636745193 -202.02846652670777 curveto
189.87536507365868 -202.02846652670777 189.58046648598108 -202.2250655939482 189.28556789830344 -202.6182637108517 curveto
189.28556789830344 -202.6182637108517 lineto
189.28556789830344 -202.6182637108517 189.28556789830344 -202.6182637108517 189.28556789830344 -202.6182637108517 curveto
189.18726836468323 -202.71656324447193 189.08896883545737 -202.8640125405079 188.99066930623147 -203.06061159895964 curveto
188.99066930623147 -203.06061159895964 188.99066930623147 -203.10976136576974 188.99066930623147 -203.2080608949956 curveto
188.8432200101955 -203.3555101910316 lineto
188.8432200101955 -203.3555101910316 188.8432200101955 -203.3555101910316 188.8432200101955 -203.3555101910316 curveto
188.7449204765753 -203.3555101910316 188.69577071415952 -203.3555101910316 188.69577071415952 -203.3555101910316 curveto
188.69577071415952 -203.1589111237912 188.79407024777973 -202.91316229852933 188.99066930623147 -202.6182637108517 curveto
189.2855679070921 -202.12676604275066 189.67876602838993 -201.8810172306718 190.1702636745193 -201.8810172306718 curveto
190.66176134262037 -201.8810172306718 191.00580968831943 -202.12676606472232 191.20240874677117 -202.6182637108517 curveto
191.39900781401158 -202.22506557637087 191.64475663927345 -201.97931675989767 191.93965522695106 -201.8810172306718 curveto
192.0379547605713 -201.8810172306718 192.13625428979717 -201.8810172306718 192.23455381902303 -201.8810172306718 curveto
192.62775195350386 -201.8810172306718 192.87350076997706 -201.979316764292 192.97180029920293 -202.17591582274378 curveto
193.07009983282313 -202.27421535636398 193.1192495952389 -202.37251488558985 193.1192495952389 -202.47081441481572 curveto
193.1192495952389 -202.76571301567634 192.9718002948086 -202.91316230292367 192.67690170713098 -202.91316230292367 curveto
192.67690170713098 -203.01146183654387 192.62775194032088 -203.06061159895964 192.52945241109498 -203.06061159895964 curveto
192.33285334385457 -203.06061159895964 192.23455381902303 -202.96231206533943 192.23455381902303 -202.7657130068877 curveto
192.23455381902303 -202.7657130068877 192.23455381902303 -202.7165632400776 192.23455381902303 -202.6182637108517 curveto
192.23455381902303 -202.42166464361128 192.33285335264324 -202.27421535196964 192.52945241109498 -202.17591582274378 curveto
192.52945241109498 -202.17591582274378 192.57860217790508 -202.17591582274378 192.67690170713098 -202.17591582274378 curveto
192.57860217351075 -202.07761628912354 192.43115287747477 -202.02846652670777 192.23455381902303 -202.02846652670777 curveto
191.743056150922 -202.02846652670777 191.44815757203304 -202.3725148943785 191.34985804280714 -203.06061159895964 curveto
191.25155850918694 -203.06061159895964 191.20240874677117 -203.10976136576974 191.20240874677117 -203.2080608949956 curveto
closepath
fill
newpath
1.0 setlinewidth
10.0 setmiterlimit
1 setlinejoin
1 setlinecap
[ ] 0 setdash
newpath
196.49255897259286 -205.36081705243924 moveto
196.49255897259286 -205.98010410370017 196.42374930023053 -206.46177178255212 196.28612996165796 -206.80582012898358 curveto
196.01089127220865 -207.28748783551987 195.63243808652 -207.52832166725577 195.15077040151596 -207.52832166725577 curveto
194.73791236734203 -207.52832166725577 194.42826886016778 -207.39070232253113 194.2218398523089 -207.11546364538594 curveto
194.15303017994657 -207.0466539730236 194.0842205106603 -206.97784430373733 194.01541084137398 -206.90903463445105 curveto
193.808981824287 -206.5649862726394 193.70576732497162 -206.04891374530214 193.70576732497162 -205.36081705243924 curveto
193.70576732497162 -204.672720328816 193.8089818335151 -204.1566478168589 194.01541084137398 -203.81259947042744 curveto
194.22183985846095 -203.33093176389116 194.56588821104447 -203.0556930959741 195.04755589604852 -202.98688342668783 curveto
195.15077040151596 -202.98688342668783 lineto
195.5636284356899 -202.98688342668783 195.87327194286416 -203.15890760759362 196.07970095072304 -203.50295595402508 curveto
196.07970095072304 -203.50295595402508 lineto
196.14851062308537 -203.57176562638742 196.21732029237165 -203.67498013185488 196.28612996165796 -203.81259947042744 curveto
196.4237493063826 -204.15664783223906 196.49255897259286 -204.67272035957632 196.49255897259286 -205.36081705243924 curveto
closepath
195.15077040151596 -207.4251071617883 moveto
195.15077040151596 -207.4251071617883 lineto
195.42600909096527 -207.4251071617883 195.6324380957481 -207.28748781706366 195.77005743432068 -207.01224913991848 curveto
195.838867106683 -206.87462979519384 195.87327193978814 -206.73701045662125 195.87327193978814 -206.5993911180487 curveto
195.94208161215047 -206.32415242859938 195.9764864452556 -205.8768895705484 195.9764864452556 -205.25760254697178 curveto
195.9764864452556 -204.63831549571086 195.94208160907445 -204.19105265304006 195.87327193978814 -203.9158139758949 curveto
195.8044622674258 -203.50295594172096 195.63243808959604 -203.26212210690903 195.35719941245088 -203.19331243762272 curveto
195.28838974008855 -203.19331243762272 195.21958007080227 -203.19331243762272 195.15077040151596 -203.19331243762272 curveto
194.80672203970434 -203.19331243762272 194.56588820181636 -203.33093178234736 194.4282688632438 -203.60617045949255 curveto
194.4282688632438 -203.7437898042172 194.39386402706265 -203.88140914278978 194.32505435777634 -204.01902848136234 curveto
194.32505435777634 -204.22545749844932 194.32505435777634 -204.63831552339516 194.32505435777634 -205.25760254697178 curveto
194.32505435777634 -205.8768895982327 194.3594591939575 -206.3241524409035 194.4282688632438 -206.5993911180487 curveto
194.49707853560614 -207.01224915222264 194.6691027134359 -207.28748782321574 194.94434139058106 -207.4251071617883 curveto
195.0131510629434 -207.4251071617883 195.08196073222967 -207.4251071617883 195.15077040151596 -207.4251071617883 curveto
closepath
fill
newpath
0.0 0.0 0.0 setrgbcolor
0.0 0.0 0.0 setrgbcolor
grestore
grestore
showpage

%%EOF