%!PS
%%BoundingBox: -65 -65 192 214 
%%HiResBoundingBox: -64.02953 -64.02953 191.58858 213.59842 
%%Creator: MetaPost 2.00
%%CreationDate: 2019.12.24:1436
%%Pages: 1
%*Font: cmr10 6.97382 9.96265 2d:9f
%%BeginProlog
%%EndProlog
%%Page: 1 1
 1 0 0 setrgbcolor 0 2 dtransform truncate idtransform setlinewidth pop
 [] 0 setdash 1 setlinecap 1 setlinejoin 10 setmiterlimit
newpath 0 212.59842 moveto
1.38182 207.06137 2.79926 201.53326 4.25223 196.01447 curveto
5.63533 190.76102 7.05061 185.51607 8.50446 180.28175 curveto
9.88525 175.31044 11.30081 170.34882 12.75668 165.39896 curveto
14.13582 160.71004 15.55107 156.03178 17.00891 151.36673 curveto
18.38603 146.95995 19.8011 142.5651 21.26114 138.18507 curveto
22.63612 134.0602 24.05092 129.94868 25.51337 125.854 curveto
26.88603 122.01074 28.30058 118.18254 29.7656 114.3735 curveto
31.1357 110.81123 32.54982 107.266 34.01782 103.74294 curveto
35.3851 100.46158 36.799 97.19977 38.27005 93.9636 curveto
39.63441 90.96213 41.04779 87.98311 42.52228 85.03418 curveto
43.8834 82.31195 45.29637 79.61586 46.7745 76.95534 curveto
48.13234 74.51134 49.54486 72.09795 51.02673 69.72707 curveto
52.3813 67.55989 53.7934 65.42897 55.27896 63.34937 curveto
56.6306 61.45724 58.04243 59.60854 59.53119 57.82225 curveto
60.88078 56.20294 62.29263 54.63612 63.78342 53.1457 curveto
65.13284 51.79663 66.54549 50.51166 68.03564 49.31975 curveto
69.3882 48.2379 70.80244 47.23453 72.28787 46.3437 curveto
73.6489 45.52748 75.06633 44.80788 76.5401 44.21889 curveto
77.91702 43.66861 79.33817 43.23445 80.79233 42.944 curveto
82.19258 42.66432 83.61662 42.51935 85.04456 42.51968 curveto
86.47256 42.52002 87.89658 42.66566 89.29678 42.94594 curveto
90.75102 43.23701 92.17218 43.67175 93.54901 44.22278 curveto
95.02286 44.81262 96.44017 45.5333 97.80124 46.35019 curveto
99.28658 47.24165 100.70097 48.24521 102.05347 49.32753 curveto
103.5438 50.52016 104.95628 51.8062 106.3057 53.1561 curveto
107.79636 54.6473 109.20836 56.21465 110.55792 57.83458 curveto
112.04677 59.62169 113.4585 61.47134 114.81015 63.36429 curveto
116.29562 65.44463 117.70776 67.57614 119.06238 69.74393 curveto
120.54428 72.11545 121.95677 74.5295 123.3146 76.97415 curveto
124.79271 79.63535 126.20567 82.33208 127.56683 85.05493 curveto
129.04134 88.00452 130.45474 90.98418 131.81906 93.9863 curveto
133.29013 97.22334 134.70392 100.48605 136.07129 103.76825 curveto
137.5392 107.2918 138.95345 110.8374 140.32352 114.40012 curveto
141.78862 118.20998 143.20308 122.03908 144.57574 125.88321 curveto
146.03812 129.97856 147.45297 134.0907 148.82797 138.21622 curveto
150.28801 142.59688 151.70303 146.9924 153.0802 151.39981 curveto
154.53807 156.06552 155.95346 160.74437 157.33243 165.43399 curveto
158.78812 170.38455 160.20314 175.34697 161.58466 180.31873 curveto
163.0393 185.5537 164.45674 190.79893 165.83688 196.05405 curveto stroke
 0 0 0 setrgbcolor 0.5 0 dtransform exch truncate exch idtransform pop setlinewidth
newpath -42.51968 -4.25223 moveto
-42.51968 4.25223 lineto stroke
-45.42546 -11.74646 moveto
(-1) cmr10 6.97382 fshow
newpath 42.51968 -4.25223 moveto
42.51968 4.25223 lineto stroke
40.77621 -11.74646 moveto
(1) cmr10 6.97382 fshow
newpath 85.03937 -4.25223 moveto
85.03937 4.25223 lineto stroke
83.2959 -11.74646 moveto
(2) cmr10 6.97382 fshow
newpath 127.55905 -4.25223 moveto
127.55905 4.25223 lineto stroke
125.81558 -11.74646 moveto
(3) cmr10 6.97382 fshow
newpath 170.07874 -4.25223 moveto
170.07874 4.25223 lineto stroke
168.33527 -11.74646 moveto
(4) cmr10 6.97382 fshow
 0 0.5 dtransform truncate idtransform setlinewidth pop
newpath -4.25223 -42.51968 moveto
4.25223 -42.51968 lineto stroke
2.09999 -49.1139 moveto
(-1) cmr10 6.97382 fshow
newpath -4.25223 42.51968 moveto
4.25223 42.51968 lineto stroke
-6.48692 40.27257 moveto
(1) cmr10 6.97382 fshow
newpath -4.25223 85.03937 moveto
4.25223 85.03937 lineto stroke
-6.48692 82.79225 moveto
(2) cmr10 6.97382 fshow
newpath -4.25223 127.55905 moveto
4.25223 127.55905 lineto stroke
-6.48692 125.31194 moveto
(3) cmr10 6.97382 fshow
newpath -4.25223 170.07874 moveto
4.25223 170.07874 lineto stroke
-6.48692 167.83162 moveto
(4) cmr10 6.97382 fshow
2.09999 -10.84645 moveto
(0) cmr10 6.97382 fshow
newpath -63.77953 0 moveto
191.33858 0 lineto stroke
newpath 187.64145 -1.53143 moveto
191.33858 0 lineto
187.64145 1.53143 lineto
 closepath
gsave fill grestore stroke
 0.5 0 dtransform exch truncate exch idtransform pop setlinewidth
newpath 0 -63.77953 moveto
0 212.59842 lineto stroke
 0 0.5 dtransform truncate idtransform setlinewidth pop
newpath 1.52995 208.90488 moveto
0 212.59842 lineto
-1.52995 208.90488 lineto
 closepath
gsave fill grestore stroke
 0.5 0 dtransform exch truncate exch idtransform pop setlinewidth
 [0 5 ] 2.5 setdash
newpath -42.51968 -42.51968 moveto
-42.51968 212.59842 lineto stroke
newpath 0 -42.51968 moveto
0 212.59842 lineto stroke
newpath 42.51968 -42.51968 moveto
42.51968 212.59842 lineto stroke
newpath 85.03937 -42.51968 moveto
85.03937 212.59842 lineto stroke
newpath 127.55905 -42.51968 moveto
127.55905 212.59842 lineto stroke
newpath 170.07874 -42.51968 moveto
170.07874 212.59842 lineto stroke
 0 0.5 dtransform truncate idtransform setlinewidth pop
newpath -42.51968 -42.51968 moveto
170.07874 -42.51968 lineto stroke
newpath -42.51968 0 moveto
170.07874 0 lineto stroke
newpath -42.51968 42.51968 moveto
170.07874 42.51968 lineto stroke
newpath -42.51968 85.03937 moveto
170.07874 85.03937 lineto stroke
newpath -42.51968 127.55905 moveto
170.07874 127.55905 lineto stroke
newpath -42.51968 170.07874 moveto
170.07874 170.07874 lineto stroke
newpath -42.51968 212.59842 moveto
170.07874 212.59842 lineto stroke
 0 0 1 setrgbcolor [] 0 setdash
newpath 0 170.07874 moveto
85.03937 0 lineto stroke
showpage
%%EOF
