%!PS-Adobe-3.0 EPSF-3.0
%%Creator: EpsGraphics 1.0.0 by Thomas Abeel, http://www.sourceforge.net/epsgraphics/
%%Title: GeoGebra, http://www.geogebra.org/
%%CreationDate: Tue May 01 12:40:01 CEST 2012
%%BoundingBox: 0 0 253 178
%%DocumentData: Clean7Bit
%%LanguageLevel: 2
%%DocumentProcessColors: Black
%%ColorUsage: Color
%%Origin: 0 0
%%Pages: 1
%%Page: 1 1
%%EndComments

gsave
0.0 178.0 translate
0.0 0.0 0.0 setrgbcolor
0.0 0.0 0.0 setrgbcolor
gsave
newpath
0.0 -0.0 moveto
253.60870356128308 -0.0 lineto
253.60870356128308 -178.73787469421487 lineto
0.0 -178.73787469421487 lineto
0.0 -0.0 lineto
closepath
clip
newpath
1.0 1.0 1.0 setrgbcolor
newpath
0.0 -0.0 moveto
253.60870356128308 -0.0 lineto
253.60870356128308 -178.73787469421487 lineto
0.0 -178.73787469421487 lineto
0.0 -0.0 lineto
closepath
fill
newpath
0.7529412 0.7529412 0.7529412 setrgbcolor
grestore
gsave
1.0 setlinewidth
10.0 setmiterlimit
1 setlinejoin
0 setlinecap
[ 1.0 3.0 ] 0 setdash
newpath
0.0 -0.0 moveto
253.60870356128308 -0.0 lineto
253.60870356128308 -178.73787469421487 lineto
0.0 -178.73787469421487 lineto
0.0 -0.0 lineto
closepath
clip
newpath
1.0 setlinewidth
10.0 setmiterlimit
1 setlinejoin
0 setlinecap
[ 1.0 3.0 ] 0 setdash
newpath
9.77258598173322 -0.0 moveto
9.77258598173322 -178.73787469421487 lineto
stroke
newpath
1.0 setlinewidth
10.0 setmiterlimit
1 setlinejoin
0 setlinecap
[ 1.0 3.0 ] 0 setdash
newpath
9.77258598173322 -0.0 moveto
9.77258598173322 -178.73787469421487 lineto
stroke
newpath
1.0 setlinewidth
10.0 setmiterlimit
1 setlinejoin
0 setlinecap
[ 1.0 3.0 ] 0 setdash
newpath
38.1190426746466 -0.0 moveto
38.1190426746466 -178.73787469421487 lineto
stroke
newpath
1.0 setlinewidth
10.0 setmiterlimit
1 setlinejoin
0 setlinecap
[ 1.0 3.0 ] 0 setdash
newpath
66.46549936755999 -0.0 moveto
66.46549936755999 -178.73787469421487 lineto
stroke
newpath
1.0 setlinewidth
10.0 setmiterlimit
1 setlinejoin
0 setlinecap
[ 1.0 3.0 ] 0 setdash
newpath
94.81195606047336 -0.0 moveto
94.81195606047336 -178.73787469421487 lineto
stroke
newpath
1.0 setlinewidth
10.0 setmiterlimit
1 setlinejoin
0 setlinecap
[ 1.0 3.0 ] 0 setdash
newpath
123.15841275338674 -0.0 moveto
123.15841275338674 -178.73787469421487 lineto
stroke
newpath
1.0 setlinewidth
10.0 setmiterlimit
1 setlinejoin
0 setlinecap
[ 1.0 3.0 ] 0 setdash
newpath
151.50486944630012 -0.0 moveto
151.50486944630012 -178.73787469421487 lineto
stroke
newpath
1.0 setlinewidth
10.0 setmiterlimit
1 setlinejoin
0 setlinecap
[ 1.0 3.0 ] 0 setdash
newpath
179.8513261392135 -0.0 moveto
179.8513261392135 -178.73787469421487 lineto
stroke
newpath
1.0 setlinewidth
10.0 setmiterlimit
1 setlinejoin
0 setlinecap
[ 1.0 3.0 ] 0 setdash
newpath
208.1977828321269 -0.0 moveto
208.1977828321269 -178.73787469421487 lineto
stroke
newpath
1.0 setlinewidth
10.0 setmiterlimit
1 setlinejoin
0 setlinecap
[ 1.0 3.0 ] 0 setdash
newpath
236.5442395250403 -0.0 moveto
236.5442395250403 -178.73787469421487 lineto
stroke
newpath
1.0 setlinewidth
10.0 setmiterlimit
1 setlinejoin
0 setlinecap
[ 1.0 3.0 ] 0 setdash
newpath
0.0 -11.043201728036335 moveto
253.60870356128308 -11.043201728036335 lineto
stroke
newpath
1.0 setlinewidth
10.0 setmiterlimit
1 setlinejoin
0 setlinecap
[ 1.0 3.0 ] 0 setdash
newpath
0.0 -11.043201728036335 moveto
253.60870356128308 -11.043201728036335 lineto
stroke
newpath
1.0 setlinewidth
10.0 setmiterlimit
1 setlinejoin
0 setlinecap
[ 1.0 3.0 ] 0 setdash
newpath
0.0 -39.38965842094969 moveto
253.60870356128308 -39.38965842094969 lineto
stroke
newpath
1.0 setlinewidth
10.0 setmiterlimit
1 setlinejoin
0 setlinecap
[ 1.0 3.0 ] 0 setdash
newpath
0.0 -67.73611511386304 moveto
253.60870356128308 -67.73611511386304 lineto
stroke
newpath
1.0 setlinewidth
10.0 setmiterlimit
1 setlinejoin
0 setlinecap
[ 1.0 3.0 ] 0 setdash
newpath
0.0 -96.0825718067764 moveto
253.60870356128308 -96.0825718067764 lineto
stroke
newpath
1.0 setlinewidth
10.0 setmiterlimit
1 setlinejoin
0 setlinecap
[ 1.0 3.0 ] 0 setdash
newpath
0.0 -124.42902849968976 moveto
253.60870356128308 -124.42902849968976 lineto
stroke
newpath
1.0 setlinewidth
10.0 setmiterlimit
1 setlinejoin
0 setlinecap
[ 1.0 3.0 ] 0 setdash
newpath
0.0 -152.7754851926031 moveto
253.60870356128308 -152.7754851926031 lineto
stroke
newpath
grestore
gsave
1.0 setlinewidth
10.0 setmiterlimit
1 setlinejoin
0 setlinecap
[ 1.0 3.0 ] 0 setdash
newpath
0.0 -0.0 moveto
253.60870356128308 -0.0 lineto
253.60870356128308 -178.73787469421487 lineto
0.0 -178.73787469421487 lineto
0.0 -0.0 lineto
closepath
clip
newpath
0.0 0.0 0.0 setrgbcolor
1.0 setlinewidth
10.0 setmiterlimit
0 setlinejoin
0 setlinecap
[ ] 0 setdash
newpath
9.77258598173322 -96.0825718067764 moveto
9.77258598173322 -97.81368923722884 lineto
stroke
newpath
1.0 setlinewidth
10.0 setmiterlimit
0 setlinejoin
0 setlinecap
[ ] 0 setdash
newpath
38.1190426746466 -96.0825718067764 moveto
38.1190426746466 -97.81368923722884 lineto
stroke
newpath
1.0 setlinewidth
10.0 setmiterlimit
0 setlinejoin
0 setlinecap
[ ] 0 setdash
newpath
66.46549936755999 -96.0825718067764 moveto
66.46549936755999 -97.81368923722884 lineto
stroke
newpath
1.0 setlinewidth
10.0 setmiterlimit
0 setlinejoin
0 setlinecap
[ ] 0 setdash
newpath
94.81195606047338 -96.0825718067764 moveto
94.81195606047338 -97.81368923722884 lineto
stroke
newpath
1.0 setlinewidth
10.0 setmiterlimit
0 setlinejoin
0 setlinecap
[ ] 0 setdash
newpath
123.15841275338677 -96.0825718067764 moveto
123.15841275338677 -97.81368923722884 lineto
stroke
newpath
1.0 setlinewidth
10.0 setmiterlimit
0 setlinejoin
0 setlinecap
[ ] 0 setdash
newpath
151.50486944630015 -96.0825718067764 moveto
151.50486944630015 -97.81368923722884 lineto
stroke
newpath
1.0 setlinewidth
10.0 setmiterlimit
0 setlinejoin
0 setlinecap
[ ] 0 setdash
newpath
179.85132613921354 -96.0825718067764 moveto
179.85132613921354 -97.81368923722884 lineto
stroke
newpath
1.0 setlinewidth
10.0 setmiterlimit
0 setlinejoin
0 setlinecap
[ ] 0 setdash
newpath
208.19778283212693 -96.0825718067764 moveto
208.19778283212693 -97.81368923722884 lineto
stroke
newpath
1.0 setlinewidth
10.0 setmiterlimit
0 setlinejoin
0 setlinecap
[ ] 0 setdash
newpath
236.5442395250403 -96.0825718067764 moveto
236.5442395250403 -97.81368923722884 lineto
stroke
newpath
1.0 setlinewidth
10.0 setmiterlimit
0 setlinejoin
0 setlinecap
[ ] 0 setdash
newpath
0.0 -96.0825718067764 moveto
252.74314484605685 -96.0825718067764 lineto
stroke
newpath
1.0 setlinewidth
10.0 setmiterlimit
0 setlinejoin
0 setlinecap
[ ] 0 setdash
newpath
253.17592420366995 -96.29896148558295 moveto
251.87758613083062 -94.78423373393706 lineto
stroke
newpath
1.0 setlinewidth
10.0 setmiterlimit
0 setlinejoin
0 setlinecap
[ ] 0 setdash
newpath
253.17592420366995 -95.86618212796984 moveto
251.87758613083062 -97.38090987961573 lineto
stroke
newpath
1.0 setlinewidth
10.0 setmiterlimit
0 setlinejoin
0 setlinecap
[ ] 0 setdash
newpath
64.73438193710754 -152.7754851926031 moveto
66.46549936755999 -152.7754851926031 lineto
stroke
newpath
1.0 setlinewidth
10.0 setmiterlimit
0 setlinejoin
0 setlinecap
[ ] 0 setdash
newpath
64.73438193710754 -124.42902849968976 moveto
66.46549936755999 -124.42902849968976 lineto
stroke
newpath
1.0 setlinewidth
10.0 setmiterlimit
0 setlinejoin
0 setlinecap
[ ] 0 setdash
newpath
64.73438193710754 -96.0825718067764 moveto
66.46549936755999 -96.0825718067764 lineto
stroke
newpath
1.0 setlinewidth
10.0 setmiterlimit
0 setlinejoin
0 setlinecap
[ ] 0 setdash
newpath
64.73438193710754 -67.73611511386305 moveto
66.46549936755999 -67.73611511386305 lineto
stroke
newpath
1.0 setlinewidth
10.0 setmiterlimit
0 setlinejoin
0 setlinecap
[ ] 0 setdash
newpath
64.73438193710754 -39.3896584209497 moveto
66.46549936755999 -39.3896584209497 lineto
stroke
newpath
1.0 setlinewidth
10.0 setmiterlimit
0 setlinejoin
0 setlinecap
[ ] 0 setdash
newpath
64.73438193710754 -11.043201728036347 moveto
66.46549936755999 -11.043201728036347 lineto
stroke
newpath
1.0 setlinewidth
10.0 setmiterlimit
0 setlinejoin
0 setlinecap
[ ] 0 setdash
newpath
66.46549936755999 -0.8655587152262221 moveto
66.46549936755999 -178.73787469421487 lineto
stroke
newpath
1.0 setlinewidth
10.0 setmiterlimit
0 setlinejoin
0 setlinecap
[ ] 0 setdash
newpath
66.68188904636655 -0.43277935761311104 moveto
65.16716129472066 -1.7311174304524442 lineto
stroke
newpath
1.0 setlinewidth
10.0 setmiterlimit
0 setlinejoin
0 setlinecap
[ ] 0 setdash
newpath
66.24910968875344 -0.43277935761311104 moveto
67.76383744039931 -1.7311174304524442 lineto
stroke
newpath
0.6 0.2 0.0 setrgbcolor
1.0 setlinewidth
10.0 setmiterlimit
0 setlinejoin
0 setlinecap
[ ] 0 setdash
newpath
38.11904151878228 -96.08257109249945 moveto
66.46550171412642 -96.08257109249945 lineto
66.46550171412642 -11.04320206292265 lineto
38.11904151878228 -67.73611750084424 lineto
closepath
fill
newpath
0.0 0.2 1.0 setrgbcolor
1.0 setlinewidth
10.0 setmiterlimit
0 setlinejoin
0 setlinecap
[ ] 0 setdash
newpath
66.46550171412642 -11.04320206292265 moveto
66.46550171412642 -96.08257109249945 lineto
123.15841550112579 -96.08257109249945 lineto
closepath
fill
newpath
0.6 0.0 0.6 setrgbcolor
1.0 setlinewidth
10.0 setmiterlimit
0 setlinejoin
0 setlinecap
[ ] 0 setdash
newpath
123.15841550112579 -96.08257109249945 moveto
151.504869092781 -152.7754848794988 lineto
151.504869092781 -96.08257109249945 lineto
closepath
fill
newpath
0.2 0.6 0.0 setrgbcolor
1.0 setlinewidth
10.0 setmiterlimit
0 setlinejoin
0 setlinecap
[ ] 0 setdash
newpath
151.504869092781 -96.08257109249945 moveto
151.504869092781 -152.7754848794988 lineto
208.19777627609142 -96.08257109249945 lineto
closepath
fill
newpath
0.0 0.0 0.0 setrgbcolor
1.0 setlinewidth
10.0 setmiterlimit
1 setlinejoin
1 setlinecap
[ ] 0 setdash
newpath
38.1190426746466 -67.73611511386304 moveto
66.46549936755999 -11.043201728036335 lineto
stroke
newpath
0.0 0.0 0.0 setrgbcolor
1.0 setlinewidth
10.0 setmiterlimit
1 setlinejoin
1 setlinecap
[ ] 0 setdash
newpath
66.46549936755999 -11.043201728036335 moveto
123.15841275338674 -96.0825718067764 lineto
stroke
newpath
0.0 0.0 0.0 setrgbcolor
1.0 setlinewidth
10.0 setmiterlimit
1 setlinejoin
1 setlinecap
[ ] 0 setdash
newpath
123.15841275338674 -96.0825718067764 moveto
151.50486944630012 -152.7754851926031 lineto
stroke
newpath
0.0 0.0 0.0 setrgbcolor
1.0 setlinewidth
10.0 setmiterlimit
1 setlinejoin
1 setlinecap
[ ] 0 setdash
newpath
151.50486944630012 -152.7754851926031 moveto
208.1977828321269 -96.0825718067764 lineto
stroke
newpath
0.6 0.2 0.0 setrgbcolor
1.0 setlinewidth
10.0 setmiterlimit
1 setlinejoin
1 setlinecap
[ ] 0 setdash
newpath
38.1190426746466 -67.73611511386304 moveto
38.1190426746466 -96.0825718067764 lineto
stroke
newpath
0.6 0.2 0.0 setrgbcolor
1.0 setlinewidth
10.0 setmiterlimit
1 setlinejoin
1 setlinecap
[ ] 0 setdash
newpath
66.46549936755999 -11.043201728036335 moveto
38.1190426746466 -67.73611511386304 lineto
stroke
newpath
0.6 0.2 0.0 setrgbcolor
1.0 setlinewidth
10.0 setmiterlimit
1 setlinejoin
1 setlinecap
[ ] 0 setdash
newpath
66.46549936755999 -96.0825718067764 moveto
66.46549936755999 -11.043201728036335 lineto
stroke
newpath
0.6 0.2 0.0 setrgbcolor
1.0 setlinewidth
10.0 setmiterlimit
1 setlinejoin
1 setlinecap
[ ] 0 setdash
newpath
38.1190426746466 -96.0825718067764 moveto
66.46549936755999 -96.0825718067764 lineto
stroke
newpath
0.0 0.2 1.0 setrgbcolor
1.0 setlinewidth
10.0 setmiterlimit
1 setlinejoin
1 setlinecap
[ ] 0 setdash
newpath
123.15841275338674 -96.0825718067764 moveto
66.46549936755999 -11.043201728036335 lineto
stroke
newpath
0.0 0.2 1.0 setrgbcolor
1.0 setlinewidth
10.0 setmiterlimit
1 setlinejoin
1 setlinecap
[ ] 0 setdash
newpath
66.46549936755999 -96.0825718067764 moveto
123.15841275338674 -96.0825718067764 lineto
stroke
newpath
0.0 0.2 1.0 setrgbcolor
1.0 setlinewidth
10.0 setmiterlimit
1 setlinejoin
1 setlinecap
[ ] 0 setdash
newpath
66.46549936755999 -11.043201728036335 moveto
66.46549936755999 -96.0825718067764 lineto
stroke
newpath
0.6 0.0 0.6 setrgbcolor
1.0 setlinewidth
10.0 setmiterlimit
1 setlinejoin
1 setlinecap
[ ] 0 setdash
newpath
151.50486944630012 -96.0825718067764 moveto
123.15841275338674 -96.0825718067764 lineto
stroke
newpath
0.6 0.0 0.6 setrgbcolor
1.0 setlinewidth
10.0 setmiterlimit
1 setlinejoin
1 setlinecap
[ ] 0 setdash
newpath
151.50486944630012 -152.7754851926031 moveto
151.50486944630012 -96.0825718067764 lineto
stroke
newpath
0.6 0.0 0.6 setrgbcolor
1.0 setlinewidth
10.0 setmiterlimit
1 setlinejoin
1 setlinecap
[ ] 0 setdash
newpath
123.15841275338674 -96.0825718067764 moveto
151.50486944630012 -152.7754851926031 lineto
stroke
newpath
0.2 0.6 0.0 setrgbcolor
1.0 setlinewidth
10.0 setmiterlimit
1 setlinejoin
1 setlinecap
[ ] 0 setdash
newpath
208.1977828321269 -96.0825718067764 moveto
151.50486944630012 -96.0825718067764 lineto
stroke
newpath
0.2 0.6 0.0 setrgbcolor
1.0 setlinewidth
10.0 setmiterlimit
1 setlinejoin
1 setlinecap
[ ] 0 setdash
newpath
151.50486944630012 -152.7754851926031 moveto
208.1977828321269 -96.0825718067764 lineto
stroke
newpath
0.2 0.6 0.0 setrgbcolor
1.0 setlinewidth
10.0 setmiterlimit
1 setlinejoin
1 setlinecap
[ ] 0 setdash
newpath
151.50486944630012 -96.0825718067764 moveto
151.50486944630012 -152.7754851926031 lineto
stroke
newpath
0.0 0.0 1.0 setrgbcolor
1.0 setlinewidth
10.0 setmiterlimit
1 setlinejoin
1 setlinecap
[ ] 0 setdash
newpath
39.382921542793106 -67.94635914525843 moveto
39.382921542793106 -68.6634114630123 38.80163578770764 -69.24469721809777 38.08458346995377 -69.24469721809777 curveto
37.3675311521999 -69.24469721809777 36.786245397114435 -68.6634114630123 36.786245397114435 -67.94635914525843 curveto
36.786245397114435 -67.22930682750457 37.3675311521999 -66.6480210724191 38.08458346995377 -66.6480210724191 curveto
38.80163578770764 -66.6480210724191 39.382921542793106 -67.22930682750457 39.382921542793106 -67.94635914525843 curveto
closepath
fill
newpath
0.0 0.0 0.0 setrgbcolor
1.0 setlinewidth
10.0 setmiterlimit
1 setlinejoin
1 setlinecap
[ ] 0 setdash
newpath
39.382921542793106 -67.94635914525843 moveto
39.382921542793106 -68.6634114630123 38.80163578770764 -69.24469721809777 38.08458346995377 -69.24469721809777 curveto
37.3675311521999 -69.24469721809777 36.786245397114435 -68.6634114630123 36.786245397114435 -67.94635914525843 curveto
36.786245397114435 -67.22930682750457 37.3675311521999 -66.6480210724191 38.08458346995377 -66.6480210724191 curveto
38.80163578770764 -66.6480210724191 39.382921542793106 -67.22930682750457 39.382921542793106 -67.94635914525843 curveto
closepath
stroke
newpath
0.0 0.0 1.0 setrgbcolor
1.0 setlinewidth
10.0 setmiterlimit
1 setlinejoin
1 setlinecap
[ ] 0 setdash
newpath
42.201904272558195 -63.91441083312066 moveto
41.56287850233258 -62.29655987516852 lineto
40.92131691555846 -63.91441083312066 lineto
closepath
42.76485554632837 -65.34968299957977 moveto
42.356589082017564 -64.30999821468889 lineto
40.76663210609909 -64.30999821468889 lineto
40.35329400869125 -65.34968299957977 lineto
39.85880978173096 -65.34968299957977 lineto
41.34733409570887 -61.596674507778566 lineto
41.87478393779985 -61.596674507778566 lineto
43.340485902841124 -65.34968299957977 lineto
closepath
fill
newpath
0.49019608 0.49019608 1.0 setrgbcolor
1.0 setlinewidth
10.0 setmiterlimit
1 setlinejoin
1 setlinecap
[ ] 0 setdash
newpath
67.94635914525843 -11.252263297940887 moveto
67.94635914525843 -11.969315615694752 67.36507339017297 -12.55060137078022 66.6480210724191 -12.55060137078022 curveto
65.93096875466524 -12.55060137078022 65.34968299957977 -11.969315615694752 65.34968299957977 -11.252263297940887 curveto
65.34968299957977 -10.535210980187022 65.93096875466524 -9.953925225101553 66.6480210724191 -9.953925225101553 curveto
67.36507339017297 -9.953925225101553 67.94635914525843 -10.535210980187022 67.94635914525843 -11.252263297940887 curveto
closepath
fill
newpath
0.0 0.0 0.0 setrgbcolor
1.0 setlinewidth
10.0 setmiterlimit
1 setlinejoin
1 setlinecap
[ ] 0 setdash
newpath
67.94635914525843 -11.252263297940887 moveto
67.94635914525843 -11.969315615694752 67.36507339017297 -12.55060137078022 66.6480210724191 -12.55060137078022 curveto
65.93096875466524 -12.55060137078022 65.34968299957977 -11.969315615694752 65.34968299957977 -11.252263297940887 curveto
65.34968299957977 -10.535210980187022 65.93096875466524 -9.953925225101553 66.6480210724191 -9.953925225101553 curveto
67.36507339017297 -9.953925225101553 67.94635914525843 -10.535210980187022 67.94635914525843 -11.252263297940887 curveto
closepath
stroke
newpath
0.49019608 0.49019608 1.0 setrgbcolor
1.0 setlinewidth
10.0 setmiterlimit
1 setlinejoin
1 setlinecap
[ ] 0 setdash
newpath
68.86347946363777 -8.655587152262221 moveto
68.86347946363777 -4.902578660461024 lineto
69.83723301826728 -4.902578660461024 lineto
70.21253387863224 -4.902578660461024 70.50034904868892 -4.973581525935475 70.70067855303641 -5.115587250536227 curveto
70.90100806633933 -5.2575929814851285 71.00117281403536 -5.46214884948004 71.00117281403536 -5.729254855276692 curveto
71.00117281403536 -6.184011303196392 70.74421006279448 -6.507750538542372 70.230284583287 -6.700472593357678 curveto
70.84395220631619 -6.888123023540157 71.1507859903977 -7.2270771705712304 71.1507859903977 -7.717335029311921 curveto
71.1507859903977 -8.021633024202426 71.0493533254342 -8.254082867807272 70.84648800457597 -8.41468458015336 curveto
70.64362267464897 -8.575286299678904 70.35115849973967 -8.655587152262221 69.96909547879002 -8.655587152262221 curveto
closepath
69.39092930572876 -8.257463954145472 moveto
69.49996941731487 -8.257463954145472 lineto
69.89048517742435 -8.257463954145472 70.14322155016767 -8.232951060112626 70.25817856532066 -8.183925274238558 curveto
70.47794933940824 -8.090945331355346 70.58783471662751 -7.918509805073921 70.58783471662751 -7.666618698341635 curveto
70.58783471662751 -7.4434668354219315 70.48809259608007 -7.257929595735191 70.28860836390282 -7.110006965942741 curveto
70.08912412280795 -6.9620843295376345 69.83976883035697 -6.888123017947738 69.5405424820911 -6.888123017947738 curveto
69.39092930572876 -6.888123017947738 lineto
closepath
69.39092930572876 -6.550859416995333 moveto
69.56082901447922 -6.550859416995333 lineto
69.84484047637703 -6.550859416995333 70.06503387387232 -6.489999818017232 70.2214092253672 -6.368280625502302 curveto
70.3777845838526 -6.2465614275461 70.45597225610477 -6.074971174757447 70.45597225610477 -5.853509866153894 curveto
70.45597225610477 -5.484971183453172 70.1702702497909 -5.3007018585777725 69.59886626270693 -5.3007018585777725 curveto
69.39092930572876 -5.3007018585777725 lineto
closepath
fill
newpath
0.49019608 0.49019608 1.0 setrgbcolor
1.0 setlinewidth
10.0 setmiterlimit
1 setlinejoin
1 setlinecap
[ ] 0 setdash
newpath
124.64045499257598 -96.07701739011065 moveto
124.64045499257598 -96.79406970786451 124.05916923749051 -97.37535546294998 123.34211691973664 -97.37535546294998 curveto
122.62506460198279 -97.37535546294998 122.04377884689731 -96.79406970786451 122.04377884689731 -96.07701739011065 curveto
122.04377884689731 -95.35996507235679 122.62506460198279 -94.77867931727131 123.34211691973664 -94.77867931727131 curveto
124.05916923749051 -94.77867931727131 124.64045499257598 -95.35996507235679 124.64045499257598 -96.07701739011065 curveto
closepath
fill
newpath
0.0 0.0 0.0 setrgbcolor
1.0 setlinewidth
10.0 setmiterlimit
1 setlinejoin
1 setlinecap
[ ] 0 setdash
newpath
124.64045499257598 -96.07701739011065 moveto
124.64045499257598 -96.79406970786451 124.05916923749051 -97.37535546294998 123.34211691973664 -97.37535546294998 curveto
122.62506460198279 -97.37535546294998 122.04377884689731 -96.79406970786451 122.04377884689731 -96.07701739011065 curveto
122.04377884689731 -95.35996507235679 122.62506460198279 -94.77867931727131 123.34211691973664 -94.77867931727131 curveto
124.05916923749051 -94.77867931727131 124.64045499257598 -95.35996507235679 124.64045499257598 -96.07701739011065 curveto
closepath
stroke
newpath
0.49019608 0.49019608 1.0 setrgbcolor
1.0 setlinewidth
10.0 setmiterlimit
1 setlinejoin
1 setlinecap
[ ] 0 setdash
newpath
127.16528300271341 -93.57416645672701 moveto
126.58204517917326 -93.57416645672701 126.13151511836648 -93.4029988346011 125.81369278235528 -93.06066360565286 curveto
125.4958704321363 -92.71832836140105 125.33695927123458 -92.23356476539989 125.33695927123458 -91.6063728150799 curveto
125.33695927123458 -90.9808713811383 125.49882889907217 -90.49568516169165 125.82256814027507 -90.15081411623268 curveto
126.14630739595025 -89.80594305535678 126.60233173770972 -89.63350754033576 127.19064116819855 -89.63350754033576 curveto
127.52705950699416 -89.63350754033576 127.9209563408967 -89.68845023385765 128.37233167980622 -89.79833561598919 curveto
128.37233167980622 -90.29789147604652 lineto
127.85840617732448 -90.12038431236039 127.46197353473305 -90.0316307384525 127.183033718553 -90.0316307384525 curveto
126.77561251428294 -90.0316307384525 126.4603259989012 -90.16941010836126 126.23717414595717 -90.44496883586034 curveto
126.01402228303746 -90.72052757567786 125.90244636155327 -91.10935277905284 125.90244636155327 -91.61144444817693 curveto
125.90244636155327 -92.08986851792145 126.0216297428854 -92.46728253741925 126.2599964948938 -92.74368653708858 curveto
126.49836325755803 -93.02009054911412 126.82379304699343 -93.15829254277067 127.23628586607181 -93.15829254277067 curveto
127.59130019344407 -93.15829254277067 127.97167267118682 -93.0492524279349 128.37740331290325 -92.83117220801232 curveto
128.37740331290325 -93.28761918674489 lineto
128.0071740857865 -93.47865070575949 127.60313398689907 -93.57416645672701 127.16528300271341 -93.57416645672701 curveto
closepath
fill
newpath
0.0 0.0 1.0 setrgbcolor
1.0 setlinewidth
10.0 setmiterlimit
1 setlinejoin
1 setlinecap
[ ] 0 setdash
newpath
152.7711132374282 -152.7711132374282 moveto
152.7711132374282 -153.48816555518206 152.18982748234274 -154.06945131026754 151.47277516458885 -154.06945131026754 curveto
150.755722846835 -154.06945131026754 150.17443709174952 -153.48816555518206 150.17443709174952 -152.7711132374282 curveto
150.17443709174952 -152.05406091967433 150.755722846835 -151.47277516458885 151.47277516458885 -151.47277516458885 curveto
152.18982748234274 -151.47277516458885 152.7711132374282 -152.05406091967433 152.7711132374282 -152.7711132374282 curveto
closepath
fill
newpath
0.0 0.0 0.0 setrgbcolor
1.0 setlinewidth
10.0 setmiterlimit
1 setlinejoin
1 setlinecap
[ ] 0 setdash
newpath
152.7711132374282 -152.7711132374282 moveto
152.7711132374282 -153.48816555518206 152.18982748234274 -154.06945131026754 151.47277516458885 -154.06945131026754 curveto
150.755722846835 -154.06945131026754 150.17443709174952 -153.48816555518206 150.17443709174952 -152.7711132374282 curveto
150.17443709174952 -152.05406091967433 150.755722846835 -151.47277516458885 151.47277516458885 -151.47277516458885 curveto
152.18982748234274 -151.47277516458885 152.7711132374282 -152.05406091967433 152.7711132374282 -152.7711132374282 curveto
closepath
stroke
newpath
0.0 0.0 1.0 setrgbcolor
1.0 setlinewidth
10.0 setmiterlimit
1 setlinejoin
1 setlinecap
[ ] 0 setdash
newpath
153.68823355580756 -150.17443709174952 moveto
153.68823355580756 -146.42142859994834 lineto
154.9358552976766 -146.42142859994834 lineto
155.30777506920944 -146.42142859994834 155.6082693225377 -146.46284693814178 155.83733808067342 -146.54568361082553 curveto
156.06640684904934 -146.62852028721238 156.264623171592 -146.76883547004215 156.43198706130005 -146.9666291578789 curveto
156.6974025346212 -147.28107041926577 156.83011025941678 -147.69525378714346 156.83011025941678 -148.20917926665092 curveto
156.83011025941678 -148.83299015617646 156.6652821788511 -149.31648583128262 156.3356260324565 -149.65966633240112 curveto
156.0059698713251 -150.00284684886097 155.54191544385387 -150.17443709174952 154.94346274732214 -150.17443709174952 curveto
closepath
154.22075503099555 -149.7763138936328 moveto
154.9028896825459 -149.7763138936328 lineto
155.3897664743707 -149.7763138936328 155.73463751348154 -149.64529670138828 155.93750283433974 -149.38326232861306 curveto
156.15558306401127 -149.10432249996342 156.2646231690981 -148.72986692427608 156.2646231690981 -148.2598955976212 curveto
156.2646231690981 -147.81866350502997 156.1572735986784 -147.47210191946263 155.94257446743677 -147.22021081273036 curveto
155.81240254740027 -147.06637127086904 155.65687246694205 -146.96113488784655 155.47598422251014 -146.9045016524403 curveto
155.2950959699919 -146.84786841450236 155.02291832709284 -146.81955179806508 154.65945129388854 -146.81955179806508 curveto
154.22075503099555 -146.81955179806508 lineto
closepath
fill
newpath
0.49019608 0.49019608 1.0 setrgbcolor
1.0 setlinewidth
10.0 setmiterlimit
1 setlinejoin
1 setlinecap
[ ] 0 setdash
newpath
209.46520908474574 -96.07701739011065 moveto
209.46520908474574 -96.79406970786451 208.88392332966026 -97.37535546294998 208.1668710119064 -97.37535546294998 curveto
207.44981869415255 -97.37535546294998 206.86853293906708 -96.79406970786451 206.86853293906708 -96.07701739011065 curveto
206.86853293906708 -95.35996507235679 207.44981869415255 -94.77867931727131 208.1668710119064 -94.77867931727131 curveto
208.88392332966026 -94.77867931727131 209.46520908474574 -95.35996507235679 209.46520908474574 -96.07701739011065 curveto
closepath
fill
newpath
0.0 0.0 0.0 setrgbcolor
1.0 setlinewidth
10.0 setmiterlimit
1 setlinejoin
1 setlinecap
[ ] 0 setdash
newpath
209.46520908474574 -96.07701739011065 moveto
209.46520908474574 -96.79406970786451 208.88392332966026 -97.37535546294998 208.1668710119064 -97.37535546294998 curveto
207.44981869415255 -97.37535546294998 206.86853293906708 -96.79406970786451 206.86853293906708 -96.07701739011065 curveto
206.86853293906708 -95.35996507235679 207.44981869415255 -94.77867931727131 208.1668710119064 -94.77867931727131 curveto
208.88392332966026 -94.77867931727131 209.46520908474574 -95.35996507235679 209.46520908474574 -96.07701739011065 curveto
closepath
stroke
newpath
0.49019608 0.49019608 1.0 setrgbcolor
1.0 setlinewidth
10.0 setmiterlimit
1 setlinejoin
1 setlinecap
[ ] 0 setdash
newpath
210.38232940312508 -93.48034124443198 moveto
210.38232940312508 -89.72733275263079 lineto
212.47944968874643 -89.72733275263079 lineto
212.47944968874643 -90.12545595074754 lineto
210.9148508783131 -90.12545595074754 lineto
210.9148508783131 -91.32996881129183 lineto
212.225868033895 -91.32996881129183 lineto
212.225868033895 -91.72302037631155 lineto
210.9148508783131 -91.72302037631155 lineto
210.9148508783131 -93.08221804631523 lineto
212.58848980033255 -93.08221804631523 lineto
212.58848980033255 -93.48034124443198 lineto
closepath
fill
newpath
0.49019608 0.49019608 1.0 setrgbcolor
1.0 setlinewidth
10.0 setmiterlimit
1 setlinejoin
1 setlinecap
[ ] 0 setdash
newpath
39.382921542793106 -96.07701739011065 moveto
39.382921542793106 -96.79406970786451 38.80163578770764 -97.37535546294998 38.08458346995377 -97.37535546294998 curveto
37.3675311521999 -97.37535546294998 36.786245397114435 -96.79406970786451 36.786245397114435 -96.07701739011065 curveto
36.786245397114435 -95.35996507235679 37.3675311521999 -94.77867931727131 38.08458346995377 -94.77867931727131 curveto
38.80163578770764 -94.77867931727131 39.382921542793106 -95.35996507235679 39.382921542793106 -96.07701739011065 curveto
closepath
fill
newpath
0.0 0.0 0.0 setrgbcolor
1.0 setlinewidth
10.0 setmiterlimit
1 setlinejoin
1 setlinecap
[ ] 0 setdash
newpath
39.382921542793106 -96.07701739011065 moveto
39.382921542793106 -96.79406970786451 38.80163578770764 -97.37535546294998 38.08458346995377 -97.37535546294998 curveto
37.3675311521999 -97.37535546294998 36.786245397114435 -96.79406970786451 36.786245397114435 -96.07701739011065 curveto
36.786245397114435 -95.35996507235679 37.3675311521999 -94.77867931727131 38.08458346995377 -94.77867931727131 curveto
38.80163578770764 -94.77867931727131 39.382921542793106 -95.35996507235679 39.382921542793106 -96.07701739011065 curveto
closepath
stroke
newpath
0.49019608 0.49019608 1.0 setrgbcolor
1.0 setlinewidth
10.0 setmiterlimit
1 setlinejoin
1 setlinecap
[ ] 0 setdash
newpath
40.30004186117245 -93.48034124443198 moveto
40.30004186117245 -89.72733275263079 lineto
42.3971621467938 -89.72733275263079 lineto
42.3971621467938 -90.12545595074754 lineto
40.83256333636046 -90.12545595074754 lineto
40.83256333636046 -91.38322095881064 lineto
42.146116308490875 -91.38322095881064 lineto
42.146116308490875 -91.77627252383036 lineto
40.83256333636046 -91.77627252383036 lineto
40.83256333636046 -93.48034124443198 lineto
closepath
fill
newpath
0.2509804 0.2509804 0.2509804 setrgbcolor
1.0 setlinewidth
10.0 setmiterlimit
1 setlinejoin
1 setlinecap
[ ] 0 setdash
newpath
67.94635914525843 -96.07701739011065 moveto
67.94635914525843 -96.79406970786451 67.36507339017297 -97.37535546294998 66.6480210724191 -97.37535546294998 curveto
65.93096875466524 -97.37535546294998 65.34968299957977 -96.79406970786451 65.34968299957977 -96.07701739011065 curveto
65.34968299957977 -95.35996507235679 65.93096875466524 -94.77867931727131 66.6480210724191 -94.77867931727131 curveto
67.36507339017297 -94.77867931727131 67.94635914525843 -95.35996507235679 67.94635914525843 -96.07701739011065 curveto
closepath
fill
newpath
0.0 0.0 0.0 setrgbcolor
1.0 setlinewidth
10.0 setmiterlimit
1 setlinejoin
1 setlinecap
[ ] 0 setdash
newpath
67.94635914525843 -96.07701739011065 moveto
67.94635914525843 -96.79406970786451 67.36507339017297 -97.37535546294998 66.6480210724191 -97.37535546294998 curveto
65.93096875466524 -97.37535546294998 65.34968299957977 -96.79406970786451 65.34968299957977 -96.07701739011065 curveto
65.34968299957977 -95.35996507235679 65.93096875466524 -94.77867931727131 66.6480210724191 -94.77867931727131 curveto
67.36507339017297 -94.77867931727131 67.94635914525843 -95.35996507235679 67.94635914525843 -96.07701739011065 curveto
closepath
stroke
newpath
0.2509804 0.2509804 0.2509804 setrgbcolor
1.0 setlinewidth
10.0 setmiterlimit
1 setlinejoin
1 setlinecap
[ ] 0 setdash
newpath
71.68330746558571 -93.3789085824914 moveto
71.228551017666 -93.50908050252791 70.83211837242952 -93.57416645672701 70.4940095043325 -93.57416645672701 curveto
69.8972473254639 -93.57416645672701 69.43953245149343 -93.40426674291315 69.12086484331198 -93.06446733047564 curveto
68.80219722088498 -92.72466790284791 68.64286342391703 -92.23779112621332 68.64286342391703 -91.60383699853139 curveto
68.64286342391703 -90.98171665342191 68.8043104156506 -90.49779834213615 69.12720438468327 -90.15208202450694 curveto
69.4500983681504 -89.806365691423 69.90316425721957 -89.63350754033576 70.48640205468695 -89.63350754033576 curveto
70.86846509271614 -89.63350754033576 71.2657430134103 -89.69014077827372 71.67823583248868 -89.80340724908622 curveto
71.67823583248868 -90.295355659498 lineto
71.16092924117481 -90.11953904022793 70.76449659873454 -90.0316307384525 70.48893787123546 -90.0316307384525 curveto
70.08320721138145 -90.0316307384525 69.76834333202815 -90.16941010836126 69.54434620691387 -90.44496883586034 curveto
69.32034907178614 -90.72052757567786 69.20835051423573 -91.10850750684482 69.20835051423573 -91.60890863162841 curveto
69.20835051423573 -92.10423814553351 69.32837916777588 -92.48925961414785 69.56843646412476 -92.76397306947669 curveto
69.80849377120505 -93.03868653708618 70.14491209926926 -93.17604325861026 70.57769145043346 -93.17604325861026 curveto
70.75519861411958 -93.17604325861026 70.94707539740702 -93.14476818691318 71.15332180694621 -93.08221804631523 curveto
71.15332180694621 -91.85995446993134 lineto
71.68330746558571 -91.85995446993134 lineto
closepath
fill
newpath
0.49019608 0.49019608 1.0 setrgbcolor
1.0 setlinewidth
10.0 setmiterlimit
1 setlinejoin
1 setlinecap
[ ] 0 setdash
newpath
152.7711132374282 -96.07701739011065 moveto
152.7711132374282 -96.79406970786451 152.18982748234274 -97.37535546294998 151.47277516458885 -97.37535546294998 curveto
150.755722846835 -97.37535546294998 150.17443709174952 -96.79406970786451 150.17443709174952 -96.07701739011065 curveto
150.17443709174952 -95.35996507235679 150.755722846835 -94.77867931727131 151.47277516458885 -94.77867931727131 curveto
152.18982748234274 -94.77867931727131 152.7711132374282 -95.35996507235679 152.7711132374282 -96.07701739011065 curveto
closepath
fill
newpath
0.0 0.0 0.0 setrgbcolor
1.0 setlinewidth
10.0 setmiterlimit
1 setlinejoin
1 setlinecap
[ ] 0 setdash
newpath
152.7711132374282 -96.07701739011065 moveto
152.7711132374282 -96.79406970786451 152.18982748234274 -97.37535546294998 151.47277516458885 -97.37535546294998 curveto
150.755722846835 -97.37535546294998 150.17443709174952 -96.79406970786451 150.17443709174952 -96.07701739011065 curveto
150.17443709174952 -95.35996507235679 150.755722846835 -94.77867931727131 151.47277516458885 -94.77867931727131 curveto
152.18982748234274 -94.77867931727131 152.7711132374282 -95.35996507235679 152.7711132374282 -96.07701739011065 curveto
closepath
stroke
newpath
0.49019608 0.49019608 1.0 setrgbcolor
1.0 setlinewidth
10.0 setmiterlimit
1 setlinejoin
1 setlinecap
[ ] 0 setdash
newpath
153.68823355580756 -93.48034124443198 moveto
153.68823355580756 -89.72733275263079 lineto
154.22075503099555 -89.72733275263079 lineto
154.22075503099555 -91.30968227890372 lineto
156.00596988114964 -91.30968227890372 lineto
156.00596988114964 -89.72733275263079 lineto
156.53849135633763 -89.72733275263079 lineto
156.53849135633763 -93.48034124443198 lineto
156.00596988114964 -93.48034124443198 lineto
156.00596988114964 -91.70780547702047 lineto
154.22075503099555 -91.70780547702047 lineto
154.22075503099555 -93.48034124443198 lineto
closepath
fill
newpath
grestore
grestore
showpage

%%EOF