%!PS-Adobe-3.0 EPSF-3.0
%%Creator: EpsGraphics 1.0.0 by Thomas Abeel, http://www.sourceforge.net/epsgraphics/
%%Title: GeoGebra, http://www.geogebra.org/
%%CreationDate: Tue May 01 12:08:22 CEST 2012
%%BoundingBox: 0 0 310 193
%%DocumentData: Clean7Bit
%%LanguageLevel: 2
%%DocumentProcessColors: Black
%%ColorUsage: Color
%%Origin: 0 0
%%Pages: 1
%%Page: 1 1
%%EndComments

gsave
0.0 193.0 translate
0.0 0.0 0.0 setrgbcolor
0.0 0.0 0.0 setrgbcolor
gsave
newpath
0.0 -0.0 moveto
310.6547584217295 -0.0 lineto
310.6547584217295 -193.38399662187518 lineto
0.0 -193.38399662187518 lineto
0.0 -0.0 lineto
closepath
clip
newpath
1.0 1.0 1.0 setrgbcolor
newpath
0.0 -0.0 moveto
310.6547584217295 -0.0 lineto
310.6547584217295 -193.38399662187518 lineto
0.0 -193.38399662187518 lineto
0.0 -0.0 lineto
closepath
fill
newpath
0.0 0.0 0.0 setrgbcolor
1.0 setlinewidth
10.0 setmiterlimit
0 setlinejoin
0 setlinecap
[ ] 0 setdash
newpath
22.109535180861222 -125.18032103660646 moveto
22.109535180861222 -127.43552799429597 lineto
stroke
newpath
1.0 setlinewidth
10.0 setmiterlimit
0 setlinejoin
0 setlinecap
[ ] 0 setdash
newpath
50.45599187377461 -125.18032103660646 moveto
50.45599187377461 -127.43552799429597 lineto
stroke
newpath
1.0 setlinewidth
10.0 setmiterlimit
0 setlinejoin
0 setlinecap
[ ] 0 setdash
newpath
78.802448566688 -125.18032103660646 moveto
78.802448566688 -127.43552799429597 lineto
stroke
newpath
1.0 setlinewidth
10.0 setmiterlimit
0 setlinejoin
0 setlinecap
[ ] 0 setdash
newpath
107.14890525960138 -125.18032103660646 moveto
107.14890525960138 -127.43552799429597 lineto
stroke
newpath
1.0 setlinewidth
10.0 setmiterlimit
0 setlinejoin
0 setlinecap
[ ] 0 setdash
newpath
135.49536195251477 -125.18032103660646 moveto
135.49536195251477 -127.43552799429597 lineto
stroke
newpath
1.0 setlinewidth
10.0 setmiterlimit
0 setlinejoin
0 setlinecap
[ ] 0 setdash
newpath
163.84181864542816 -125.18032103660646 moveto
163.84181864542816 -127.43552799429597 lineto
stroke
newpath
1.0 setlinewidth
10.0 setmiterlimit
0 setlinejoin
0 setlinecap
[ ] 0 setdash
newpath
192.18827533834153 -125.18032103660646 moveto
192.18827533834153 -127.43552799429597 lineto
stroke
newpath
1.0 setlinewidth
10.0 setmiterlimit
0 setlinejoin
0 setlinecap
[ ] 0 setdash
newpath
220.53473203125492 -125.18032103660646 moveto
220.53473203125492 -127.43552799429597 lineto
stroke
newpath
1.0 setlinewidth
10.0 setmiterlimit
0 setlinejoin
0 setlinecap
[ ] 0 setdash
newpath
248.8811887241683 -125.18032103660646 moveto
248.8811887241683 -127.43552799429597 lineto
stroke
newpath
1.0 setlinewidth
10.0 setmiterlimit
0 setlinejoin
0 setlinecap
[ ] 0 setdash
newpath
277.2276454170817 -125.18032103660646 moveto
277.2276454170817 -127.43552799429597 lineto
stroke
newpath
1.0 setlinewidth
10.0 setmiterlimit
0 setlinejoin
0 setlinecap
[ ] 0 setdash
newpath
0.0 -125.18032103660646 moveto
309.5271549428848 -125.18032103660646 lineto
stroke
newpath
1.0 setlinewidth
10.0 setmiterlimit
0 setlinejoin
0 setlinecap
[ ] 0 setdash
newpath
310.09095668230714 -125.46222190631765 moveto
308.39955146404003 -123.48891581833932 lineto
stroke
newpath
1.0 setlinewidth
10.0 setmiterlimit
0 setlinejoin
0 setlinecap
[ ] 0 setdash
newpath
310.09095668230714 -124.89842016689526 moveto
308.39955146404003 -126.8717262548736 lineto
stroke
newpath
1.0 setlinewidth
10.0 setmiterlimit
0 setlinejoin
0 setlinecap
[ ] 0 setdash
newpath
19.854328223171713 -181.8732344224334 moveto
22.109535180861222 -181.8732344224334 lineto
stroke
newpath
1.0 setlinewidth
10.0 setmiterlimit
0 setlinejoin
0 setlinecap
[ ] 0 setdash
newpath
19.854328223171713 -153.5267777295199 moveto
22.109535180861222 -153.5267777295199 lineto
stroke
newpath
1.0 setlinewidth
10.0 setmiterlimit
0 setlinejoin
0 setlinecap
[ ] 0 setdash
newpath
19.854328223171713 -125.18032103660644 moveto
22.109535180861222 -125.18032103660644 lineto
stroke
newpath
1.0 setlinewidth
10.0 setmiterlimit
0 setlinejoin
0 setlinecap
[ ] 0 setdash
newpath
19.854328223171713 -96.83386434369298 moveto
22.109535180861222 -96.83386434369298 lineto
stroke
newpath
1.0 setlinewidth
10.0 setmiterlimit
0 setlinejoin
0 setlinecap
[ ] 0 setdash
newpath
19.854328223171713 -68.48740765077952 moveto
22.109535180861222 -68.48740765077952 lineto
stroke
newpath
1.0 setlinewidth
10.0 setmiterlimit
0 setlinejoin
0 setlinecap
[ ] 0 setdash
newpath
19.854328223171713 -40.140950957866046 moveto
22.109535180861222 -40.140950957866046 lineto
stroke
newpath
1.0 setlinewidth
10.0 setmiterlimit
0 setlinejoin
0 setlinecap
[ ] 0 setdash
newpath
19.854328223171713 -11.794494264952576 moveto
22.109535180861222 -11.794494264952576 lineto
stroke
newpath
1.0 setlinewidth
10.0 setmiterlimit
0 setlinejoin
0 setlinecap
[ ] 0 setdash
newpath
22.109535180861222 -1.1276034788447533 moveto
22.109535180861222 -193.38399662187518 lineto
stroke
newpath
1.0 setlinewidth
10.0 setmiterlimit
0 setlinejoin
0 setlinecap
[ ] 0 setdash
newpath
22.39143605057241 -0.5638017394223767 moveto
20.41812996259409 -2.2552069576895066 lineto
stroke
newpath
1.0 setlinewidth
10.0 setmiterlimit
0 setlinejoin
0 setlinecap
[ ] 0 setdash
newpath
21.82763431115003 -0.5638017394223767 moveto
23.80094039912835 -2.2552069576895066 lineto
stroke
newpath
0.6 0.2 0.0 setrgbcolor
1.0 setlinewidth
10.0 setmiterlimit
0 setlinejoin
0 setlinecap
[ ] 0 setdash
newpath
50.45599292558842 -125.18032311928414 moveto
78.80245108684109 -125.18032311928414 lineto
78.80245108684109 -96.83386065656558 lineto
50.45599292558842 -96.83386065656558 lineto
closepath
fill
newpath
0.6 0.2 0.0 setrgbcolor
1.0 setlinewidth
10.0 setmiterlimit
0 setlinejoin
0 setlinecap
[ ] 0 setdash
newpath
78.80245108684109 -125.18032311928414 moveto
135.4953588064146 -125.18032311928414 lineto
135.4953588064146 -40.14095293699206 lineto
78.80245108684109 -40.14095293699206 lineto
closepath
fill
newpath
0.0 0.0 1.0 setrgbcolor
1.0 setlinewidth
10.0 setmiterlimit
0 setlinejoin
0 setlinecap
[ ] 0 setdash
newpath
135.4953588064146 -125.18032311928414 moveto
135.4953588064146 -153.52678558200273 lineto
192.18827512891994 -153.52678558200273 lineto
192.18827512891994 -125.18032311928414 lineto
closepath
fill
newpath
0.6 0.2 0.0 setrgbcolor
1.0 setlinewidth
10.0 setmiterlimit
0 setlinejoin
0 setlinecap
[ ] 0 setdash
newpath
192.18827512891994 -125.18032311928414 moveto
277.22765391414384 -125.18032311928414 lineto
277.22765391414384 -68.48740679677881 lineto
192.18827512891994 -68.48740679677881 lineto
closepath
fill
newpath
0.0 0.0 0.0 setrgbcolor
2.5 setlinewidth
10.0 setmiterlimit
1 setlinejoin
1 setlinecap
[ ] 0 setdash
newpath
50.45599187377461 -96.833864343693 moveto
78.802448566688 -96.833864343693 lineto
stroke
newpath
0.0 0.0 0.0 setrgbcolor
2.5 setlinewidth
10.0 setmiterlimit
1 setlinejoin
1 setlinecap
[ ] 0 setdash
newpath
78.802448566688 -40.140950957866046 moveto
135.49536195251477 -40.140950957866046 lineto
stroke
newpath
0.0 0.0 0.0 setrgbcolor
2.5 setlinewidth
10.0 setmiterlimit
1 setlinejoin
1 setlinecap
[ ] 0 setdash
newpath
135.49536195251477 -153.52677772951995 moveto
192.18827533834153 -153.52677772951995 lineto
stroke
newpath
0.0 0.0 0.0 setrgbcolor
2.5 setlinewidth
10.0 setmiterlimit
1 setlinejoin
1 setlinecap
[ ] 0 setdash
newpath
192.18827533834153 -68.48740765077952 moveto
277.2276454170817 -68.48740765077952 lineto
stroke
newpath
0.0 0.0 0.0 setrgbcolor
1.0 setlinewidth
10.0 setmiterlimit
1 setlinejoin
0 setlinecap
[ 1.0 3.0 ] 0 setdash
newpath
50.45599187377461 -96.833864343693 moveto
50.45599187377461 -125.18032103660646 lineto
stroke
newpath
0.0 0.0 0.0 setrgbcolor
1.0 setlinewidth
10.0 setmiterlimit
1 setlinejoin
0 setlinecap
[ 1.0 3.0 ] 0 setdash
newpath
78.802448566688 -96.833864343693 moveto
78.802448566688 -125.18032103660646 lineto
stroke
newpath
0.0 0.0 0.0 setrgbcolor
1.0 setlinewidth
10.0 setmiterlimit
1 setlinejoin
0 setlinecap
[ 1.0 3.0 ] 0 setdash
newpath
78.802448566688 -40.140950957866046 moveto
78.802448566688 -96.833864343693 lineto
stroke
newpath
0.0 0.0 0.0 setrgbcolor
1.0 setlinewidth
10.0 setmiterlimit
1 setlinejoin
0 setlinecap
[ 1.0 3.0 ] 0 setdash
newpath
135.49536195251477 -40.140950957866046 moveto
135.49536195251477 -125.18032103660646 lineto
stroke
newpath
0.0 0.0 0.0 setrgbcolor
1.0 setlinewidth
10.0 setmiterlimit
1 setlinejoin
0 setlinecap
[ 1.0 3.0 ] 0 setdash
newpath
135.49536195251477 -125.18032103660646 moveto
135.49536195251477 -153.52677772951995 lineto
stroke
newpath
0.0 0.0 0.0 setrgbcolor
1.0 setlinewidth
10.0 setmiterlimit
1 setlinejoin
0 setlinecap
[ 1.0 3.0 ] 0 setdash
newpath
192.18827533834153 -153.52677772951995 moveto
192.18827533834153 -125.18032103660646 lineto
stroke
newpath
0.0 0.0 0.0 setrgbcolor
1.0 setlinewidth
10.0 setmiterlimit
1 setlinejoin
0 setlinecap
[ 1.0 3.0 ] 0 setdash
newpath
192.18827533834153 -125.18032103660646 moveto
192.18827533834153 -68.48740765077952 lineto
stroke
newpath
0.0 0.0 0.0 setrgbcolor
1.0 setlinewidth
10.0 setmiterlimit
1 setlinejoin
0 setlinecap
[ 1.0 3.0 ] 0 setdash
newpath
277.2276454170817 -68.48740765077952 moveto
277.2276454170817 -125.18032103660646 lineto
stroke
newpath
0.6 0.2 0.0 setrgbcolor
1.0 setlinewidth
10.0 setmiterlimit
1 setlinejoin
0 setlinecap
[ 1.0 3.0 ] 0 setdash
newpath
50.45599187377461 -96.833864343693 moveto
50.45599187377461 -125.18032103660646 lineto
stroke
newpath
0.6 0.2 0.0 setrgbcolor
1.0 setlinewidth
10.0 setmiterlimit
1 setlinejoin
0 setlinecap
[ 1.0 3.0 ] 0 setdash
newpath
78.802448566688 -96.833864343693 moveto
50.45599187377461 -96.833864343693 lineto
stroke
newpath
0.6 0.2 0.0 setrgbcolor
1.0 setlinewidth
10.0 setmiterlimit
1 setlinejoin
0 setlinecap
[ 1.0 3.0 ] 0 setdash
newpath
78.802448566688 -125.18032103660646 moveto
78.802448566688 -96.833864343693 lineto
stroke
newpath
0.6 0.2 0.0 setrgbcolor
1.0 setlinewidth
10.0 setmiterlimit
1 setlinejoin
0 setlinecap
[ 1.0 3.0 ] 0 setdash
newpath
50.45599187377461 -125.18032103660646 moveto
78.802448566688 -125.18032103660646 lineto
stroke
newpath
0.6 0.2 0.0 setrgbcolor
1.0 setlinewidth
10.0 setmiterlimit
1 setlinejoin
0 setlinecap
[ 1.0 3.0 ] 0 setdash
newpath
78.802448566688 -40.140950957866046 moveto
78.802448566688 -125.18032103660646 lineto
stroke
newpath
0.6 0.2 0.0 setrgbcolor
1.0 setlinewidth
10.0 setmiterlimit
1 setlinejoin
0 setlinecap
[ 1.0 3.0 ] 0 setdash
newpath
135.49536195251477 -40.140950957866046 moveto
78.802448566688 -40.140950957866046 lineto
stroke
newpath
0.6 0.2 0.0 setrgbcolor
1.0 setlinewidth
10.0 setmiterlimit
1 setlinejoin
0 setlinecap
[ 1.0 3.0 ] 0 setdash
newpath
135.49536195251477 -125.18032103660646 moveto
135.49536195251477 -40.140950957866046 lineto
stroke
newpath
0.6 0.2 0.0 setrgbcolor
1.0 setlinewidth
10.0 setmiterlimit
1 setlinejoin
0 setlinecap
[ 1.0 3.0 ] 0 setdash
newpath
78.802448566688 -125.18032103660646 moveto
135.49536195251477 -125.18032103660646 lineto
stroke
newpath
0.0 0.0 1.0 setrgbcolor
1.0 setlinewidth
10.0 setmiterlimit
1 setlinejoin
0 setlinecap
[ 1.0 3.0 ] 0 setdash
newpath
192.18827533834153 -125.18032103660646 moveto
135.49536195251477 -125.18032103660646 lineto
stroke
newpath
0.0 0.0 1.0 setrgbcolor
1.0 setlinewidth
10.0 setmiterlimit
1 setlinejoin
0 setlinecap
[ 1.0 3.0 ] 0 setdash
newpath
192.18827533834153 -153.52677772951995 moveto
192.18827533834153 -125.18032103660646 lineto
stroke
newpath
0.0 0.0 1.0 setrgbcolor
1.0 setlinewidth
10.0 setmiterlimit
1 setlinejoin
0 setlinecap
[ 1.0 3.0 ] 0 setdash
newpath
135.49536195251477 -153.52677772951995 moveto
192.18827533834153 -153.52677772951995 lineto
stroke
newpath
0.0 0.0 1.0 setrgbcolor
1.0 setlinewidth
10.0 setmiterlimit
1 setlinejoin
0 setlinecap
[ 1.0 3.0 ] 0 setdash
newpath
135.49536195251477 -125.18032103660646 moveto
135.49536195251477 -153.52677772951995 lineto
stroke
newpath
0.6 0.2 0.0 setrgbcolor
1.0 setlinewidth
10.0 setmiterlimit
1 setlinejoin
0 setlinecap
[ 1.0 3.0 ] 0 setdash
newpath
192.18827533834153 -68.48740765077952 moveto
192.18827533834153 -125.18032103660646 lineto
stroke
newpath
0.6 0.2 0.0 setrgbcolor
1.0 setlinewidth
10.0 setmiterlimit
1 setlinejoin
0 setlinecap
[ 1.0 3.0 ] 0 setdash
newpath
277.2276454170817 -68.48740765077952 moveto
192.18827533834153 -68.48740765077952 lineto
stroke
newpath
0.6 0.2 0.0 setrgbcolor
1.0 setlinewidth
10.0 setmiterlimit
1 setlinejoin
0 setlinecap
[ 1.0 3.0 ] 0 setdash
newpath
277.2276454170817 -125.18032103660646 moveto
277.2276454170817 -68.48740765077952 lineto
stroke
newpath
0.6 0.2 0.0 setrgbcolor
1.0 setlinewidth
10.0 setmiterlimit
1 setlinejoin
0 setlinecap
[ 1.0 3.0 ] 0 setdash
newpath
192.18827533834153 -125.18032103660646 moveto
277.2276454170817 -125.18032103660646 lineto
stroke
newpath
0.0 0.0 0.0 setrgbcolor
1.0 setlinewidth
10.0 setmiterlimit
1 setlinejoin
0 setlinecap
[ 1.0 3.0 ] 0 setdash
newpath
51.86976002685865 -125.16398615176762 moveto
51.86976002685865 -126.09812345960077 51.11249211642468 -126.85539137003475 50.17835480859152 -126.85539137003475 curveto
49.24421750075836 -126.85539137003475 48.48694959032439 -126.09812345960077 48.48694959032439 -125.16398615176762 curveto
48.48694959032439 -124.22984884393446 49.24421750075836 -123.47258093350048 50.17835480859152 -123.47258093350048 curveto
51.11249211642468 -123.47258093350048 51.86976002685865 -124.22984884393446 51.86976002685865 -125.16398615176762 curveto
closepath
fill
newpath
0.0 0.0 0.0 setrgbcolor
1.0 setlinewidth
10.0 setmiterlimit
1 setlinejoin
1 setlinecap
[ ] 0 setdash
newpath
51.86976002685865 -125.16398615176762 moveto
51.86976002685865 -126.09812345960077 51.11249211642468 -126.85539137003475 50.17835480859152 -126.85539137003475 curveto
49.24421750075836 -126.85539137003475 48.48694959032439 -126.09812345960077 48.48694959032439 -125.16398615176762 curveto
48.48694959032439 -124.22984884393446 49.24421750075836 -123.47258093350048 50.17835480859152 -123.47258093350048 curveto
51.11249211642468 -123.47258093350048 51.86976002685865 -124.22984884393446 51.86976002685865 -125.16398615176762 curveto
closepath
stroke
newpath
0.0 0.0 0.0 setrgbcolor
1.0 setlinewidth
10.0 setmiterlimit
1 setlinejoin
1 setlinecap
[ ] 0 setdash
newpath
43.658296021247985 -134.85653089863433 moveto
43.268479963233055 -135.21551404810572 42.89297920161091 -135.3950056067936 42.53179371767554 -135.3950056067936 curveto
42.23447638529127 -135.3950056067936 41.98781313023397 -135.3019562935104 41.79180393468367 -135.1158576752632 curveto
41.59579473037108 -134.92975904869672 41.49779013697708 -134.6946581293714 41.49779013697708 -134.41055491334905 curveto
41.49779013697708 -134.01853650472387 41.662415845093555 -133.71736507629626 41.99166724660781 -133.50704060241927 curveto
42.32091866284076 -133.29671611914 42.79277226636896 -133.19155388690262 43.407228059161454 -133.19155388690262 curveto
43.56249377255707 -133.19155388690262 lineto
43.56249377255707 -132.75879200488507 lineto
43.56249377255707 -132.3425477395471 43.34886576336245 -132.13442562548568 42.92160976407304 -132.13442562548568 curveto
42.57804306887345 -132.13442562548568 42.206947006404306 -132.24013845477785 41.80832156376831 -132.45156410391075 curveto
41.80832156376831 -131.91308939575148 lineto
42.24658933520882 -131.73469899632093 42.657327704429065 -131.64550380458033 43.04053669348245 -131.64550380458033 curveto
43.441364504548645 -131.64550380458033 43.737030056056824 -131.73580017960074 43.92753337532761 -131.91639292156842 curveto
44.11803670311457 -132.09698567160925 44.21328835849189 -132.3777853663435 44.21328835849189 -132.75879200488507 curveto
44.21328835849189 -134.38412670681365 lineto
44.21328835849189 -134.7563239599465 44.327810590225084 -134.94242256987445 44.556855043452394 -134.94242256987445 curveto
44.5854856013857 -134.94242256987445 44.627330261700635 -134.93801786865396 44.68238902449566 -134.92920846660675 curveto
44.72863838593265 -135.2892927806519 lineto
44.581080895045645 -135.35976800018003 44.4181069564832 -135.3950056067936 44.23971656502731 -135.3950056067936 curveto
43.93579218081228 -135.3950056067936 43.741985340696424 -135.2155140320579 43.658296021247985 -134.85653089863433 curveto
closepath
43.56249377255707 -134.50305363622303 moveto
43.56249377255707 -133.5747628816663 lineto
43.34446106863982 -133.56815583003242 lineto
42.98768026977871 -133.56815583003242 42.6991723557848 -133.63587811129773 42.47893730460469 -133.7713226677735 curveto
42.25870224357931 -133.9067672303041 42.14858472291189 -134.08460703602725 42.14858472291189 -134.30484208720736 curveto
42.14858472291189 -134.4612089805354 42.20364348816824 -134.59335001016046 42.313761013758295 -134.70126518523873 curveto
42.423878544270984 -134.80918036514117 42.55822192657383 -134.8631379502682 42.71679116342351 -134.8631379502682 curveto
42.987680288484725 -134.8631379502682 43.269581154487526 -134.74310984200935 43.56249377255707 -134.50305363622303 curveto
closepath
45.627197408137064 -134.21234336433338 moveto
45.627197408137064 -133.72342154342803 lineto
49.5385719753798 -133.72342154342803 lineto
49.5385719753798 -134.21234336433338 lineto
closepath
45.627197408137064 -132.99003881207003 moveto
45.627197408137064 -132.50111699116468 lineto
49.5385719753798 -132.50111699116468 lineto
49.5385719753798 -132.99003881207003 lineto
closepath
50.56266497862748 -135.3124174613704 moveto
51.927021141018734 -133.4591394780738 lineto
50.602307288430616 -131.7247884241866 lineto
51.375332329591764 -131.7247884241866 lineto
52.42255001355794 -133.1056622156625 lineto
53.37066192301627 -131.7247884241866 lineto
54.004938879866444 -131.7247884241866 lineto
52.76281317270152 -133.54503114931393 lineto
54.11395523182507 -135.3124174613704 lineto
53.34093019066392 -135.3124174613704 lineto
52.26067724852847 -133.89190136009137 lineto
51.21676309037922 -135.3124174613704 lineto
closepath
fill
newpath
1.0 setlinewidth
10.0 setmiterlimit
1 setlinejoin
1 setlinecap
[ ] 0 setdash
newpath
56.188569444855844 -138.2332848711709 moveto
55.76828753673241 -138.2332848711709 55.42829968006254 -138.03553213929186 55.168605848879324 -137.64002669321425 curveto
54.908912006086894 -137.24452122945615 54.7790650962999 -136.7283453228584 54.7790650962999 -136.09149896652926 curveto
54.7790650962999 -135.4491467052052 54.909829663783725 -134.93251198659854 55.1713587870601 -134.54159477075387 curveto
55.43288792202774 -134.1506775374338 55.77746401623244 -133.95521893824915 56.20508707394048 -133.95521893824915 curveto
56.632710150764765 -133.95521893824915 56.97728623754449 -134.15067755490918 57.238815360820865 -134.54159477075387 curveto
57.500344495788504 -134.9325120040739 57.63110905158106 -135.44639379565777 57.63110905158106 -136.08324015198693 curveto
57.63110905158106 -136.73660416636224 57.50034448409724 -137.25828593795845 57.238815360820865 -137.64828550775655 curveto
56.97728622585323 -138.03828509498902 56.62720425512289 -138.2332848711709 56.188569444855844 -138.2332848711709 curveto
closepath
56.19407532121739 -137.82585002041645 moveto
56.7685217720586 -137.82585002041645 57.05574497179944 -137.24222710869918 57.05574497179944 -136.0749813374446 curveto
57.05574497179944 -134.93342960446304 56.77219233072926 -134.3626537890036 56.20508707394048 -134.3626537890036 curveto
55.63981708397534 -134.3626537890036 55.3571821142623 -134.93893553202003 55.3571821142623 -136.09149896652926 curveto
55.3571821142623 -137.2477330369125 55.63614652489445 -137.82585002041645 56.19407532121739 -137.82585002041645 curveto
closepath
fill
newpath
0.0 0.0 0.0 setrgbcolor
1.0 setlinewidth
10.0 setmiterlimit
1 setlinejoin
1 setlinecap
[ ] 0 setdash
newpath
80.62364873739986 -125.16398615176762 moveto
80.62364873739986 -126.09812345960077 79.86638082696588 -126.85539137003475 78.93224351913273 -126.85539137003475 curveto
77.99810621129957 -126.85539137003475 77.2408383008656 -126.09812345960077 77.2408383008656 -125.16398615176762 curveto
77.2408383008656 -124.22984884393446 77.99810621129957 -123.47258093350048 78.93224351913273 -123.47258093350048 curveto
79.86638082696588 -123.47258093350048 80.62364873739986 -124.22984884393446 80.62364873739986 -125.16398615176762 curveto
closepath
fill
newpath
0.0 0.0 0.0 setrgbcolor
1.0 setlinewidth
10.0 setmiterlimit
1 setlinejoin
1 setlinecap
[ ] 0 setdash
newpath
80.62364873739986 -125.16398615176762 moveto
80.62364873739986 -126.09812345960077 79.86638082696588 -126.85539137003475 78.93224351913273 -126.85539137003475 curveto
77.99810621129957 -126.85539137003475 77.2408383008656 -126.09812345960077 77.2408383008656 -125.16398615176762 curveto
77.2408383008656 -124.22984884393446 77.99810621129957 -123.47258093350048 78.93224351913273 -123.47258093350048 curveto
79.86638082696588 -123.47258093350048 80.62364873739986 -124.22984884393446 80.62364873739986 -125.16398615176762 curveto
closepath
stroke
newpath
0.0 0.0 0.0 setrgbcolor
1.0 setlinewidth
10.0 setmiterlimit
1 setlinejoin
1 setlinecap
[ ] 0 setdash
newpath
75.27634161506576 -136.44002094021516 moveto
76.64069777745702 -134.58674295691856 lineto
75.31598392486889 -132.85239190303136 lineto
76.08900896603005 -132.85239190303136 lineto
77.13622664999622 -134.23326569450725 lineto
78.08433855945455 -132.85239190303136 lineto
78.71861551630472 -132.85239190303136 lineto
77.47648980913979 -134.67263462815868 lineto
78.82763186826334 -136.44002094021516 lineto
78.05460682710219 -136.44002094021516 lineto
76.97435388496675 -135.01950483893611 lineto
75.9304397268175 -136.44002094021516 lineto
closepath
fill
newpath
1.0 setlinewidth
10.0 setmiterlimit
1 setlinejoin
1 setlinecap
[ ] 0 setdash
newpath
79.98276472891584 -139.25902963732705 moveto
79.98276472891584 -138.85159478657258 lineto
80.79763443042474 -138.85159478657258 lineto
80.79763443042474 -135.63616299142933 lineto
79.98276472891584 -135.83988041680658 lineto
79.98276472891584 -135.42143381332903 lineto
81.34271619021786 -135.0828224170939 lineto
81.34271619021786 -138.85159478657258 lineto
82.15758589172675 -138.85159478657258 lineto
82.15758589172675 -139.25902963732705 lineto
closepath
fill
newpath
0.0 0.0 0.0 setrgbcolor
1.0 setlinewidth
10.0 setmiterlimit
1 setlinejoin
1 setlinecap
[ ] 0 setdash
newpath
137.00382267963752 -125.16398615176762 moveto
137.00382267963752 -126.09812345960077 136.24655476920356 -126.85539137003475 135.3124174613704 -126.85539137003475 curveto
134.37828015353725 -126.85539137003475 133.62101224310328 -126.09812345960077 133.62101224310328 -125.16398615176762 curveto
133.62101224310328 -124.22984884393446 134.37828015353725 -123.47258093350048 135.3124174613704 -123.47258093350048 curveto
136.24655476920356 -123.47258093350048 137.00382267963752 -124.22984884393446 137.00382267963752 -125.16398615176762 curveto
closepath
fill
newpath
0.0 0.0 0.0 setrgbcolor
1.0 setlinewidth
10.0 setmiterlimit
1 setlinejoin
1 setlinecap
[ ] 0 setdash
newpath
137.00382267963752 -125.16398615176762 moveto
137.00382267963752 -126.09812345960077 136.24655476920356 -126.85539137003475 135.3124174613704 -126.85539137003475 curveto
134.37828015353725 -126.85539137003475 133.62101224310328 -126.09812345960077 133.62101224310328 -125.16398615176762 curveto
133.62101224310328 -124.22984884393446 134.37828015353725 -123.47258093350048 135.3124174613704 -123.47258093350048 curveto
136.24655476920356 -123.47258093350048 137.00382267963752 -124.22984884393446 137.00382267963752 -125.16398615176762 curveto
closepath
stroke
newpath
0.0 0.0 0.0 setrgbcolor
1.0 setlinewidth
10.0 setmiterlimit
1 setlinejoin
1 setlinecap
[ ] 0 setdash
newpath
131.65651555730344 -135.87621920079278 moveto
133.0208717196947 -134.02294121749617 lineto
131.69615786710656 -132.28859016360897 lineto
132.4691829082677 -132.28859016360897 lineto
133.51640059223388 -133.66946395508486 lineto
134.4645125016922 -132.28859016360897 lineto
135.0987894585424 -132.28859016360897 lineto
133.85666375137745 -134.1088328887363 lineto
135.20780581050101 -135.87621920079278 lineto
134.43478076933985 -135.87621920079278 lineto
133.3545278272044 -134.45570309951373 lineto
132.31061366905516 -135.87621920079278 lineto
closepath
fill
newpath
1.0 setlinewidth
10.0 setmiterlimit
1 setlinejoin
1 setlinecap
[ ] 0 setdash
newpath
135.98303320220677 -138.69522789790466 moveto
135.98303320220677 -138.21896959263088 lineto
136.14086832927495 -137.85007586541337 136.460209160706 -137.4481468955329 136.9410556891159 -137.01318266945216 curveto
137.25213770354327 -136.73513591319406 lineto
137.65223139773937 -136.37358335467738 137.85227822695185 -136.0147837505862 137.85227822695185 -135.65873708451167 curveto
137.85227822695185 -135.43116085478545 137.7839135934252 -135.25221987787577 137.64718433248424 -135.1219141392609 curveto
137.510455065431 -134.99160839482087 137.3227964466279 -134.92645552842598 137.08420847451612 -134.92645552842598 curveto
136.80157347953354 -134.92645552842598 136.4684679623674 -135.03565541285107 136.0848919148954 -135.254055171938 curveto
136.0848919148954 -134.77504392848346 lineto
136.44644447341204 -134.60436175618878 136.80524407750323 -134.51902067767153 137.16129074357775 -134.51902067767153 curveto
137.54303151602176 -134.51902067767153 137.84952529221695 -134.62179703948337 138.08077209595606 -134.82734975391813 curveto
138.31201891003272 -135.03290247754182 138.4276423067335 -135.30544335637182 138.4276423067335 -135.64497239360782 curveto
138.4276423067335 -135.88906625291094 138.36937178017052 -136.10563071867406 138.25283073225438 -136.29466580427032 curveto
138.13628967912845 -136.48370089831712 137.91926638461948 -136.71311241176804 137.60176085250149 -136.98290034946365 curveto
137.3925375507627 -137.1618413312139 lineto
136.9575733052376 -137.53073505843142 136.70613829667803 -137.88311113958122 136.63823248923083 -138.21896959263088 curveto
138.40837173946807 -138.21896959263088 lineto
138.40837173946807 -138.69522789790466 lineto
closepath
fill
newpath
0.0 0.0 0.0 setrgbcolor
1.0 setlinewidth
10.0 setmiterlimit
1 setlinejoin
1 setlinecap
[ ] 0 setdash
newpath
193.94779836129757 -125.16398615176762 moveto
193.94779836129757 -126.09812345960077 193.1905304508636 -126.85539137003475 192.25639314303044 -126.85539137003475 curveto
191.3222558351973 -126.85539137003475 190.5649879247633 -126.09812345960077 190.5649879247633 -125.16398615176762 curveto
190.5649879247633 -124.22984884393446 191.3222558351973 -123.47258093350048 192.25639314303044 -123.47258093350048 curveto
193.1905304508636 -123.47258093350048 193.94779836129757 -124.22984884393446 193.94779836129757 -125.16398615176762 curveto
closepath
fill
newpath
0.0 0.0 0.0 setrgbcolor
1.0 setlinewidth
10.0 setmiterlimit
1 setlinejoin
1 setlinecap
[ ] 0 setdash
newpath
193.94779836129757 -125.16398615176762 moveto
193.94779836129757 -126.09812345960077 193.1905304508636 -126.85539137003475 192.25639314303044 -126.85539137003475 curveto
191.3222558351973 -126.85539137003475 190.5649879247633 -126.09812345960077 190.5649879247633 -125.16398615176762 curveto
190.5649879247633 -124.22984884393446 191.3222558351973 -123.47258093350048 192.25639314303044 -123.47258093350048 curveto
193.1905304508636 -123.47258093350048 193.94779836129757 -124.22984884393446 193.94779836129757 -125.16398615176762 curveto
closepath
stroke
newpath
0.0 0.0 0.0 setrgbcolor
1.0 setlinewidth
10.0 setmiterlimit
1 setlinejoin
1 setlinecap
[ ] 0 setdash
newpath
187.4728877601187 -134.18481398252564 moveto
188.83724392250997 -132.33153599922903 lineto
187.51253006992184 -130.59718494534184 lineto
188.285555111083 -130.59718494534184 lineto
189.33277279504918 -131.97805873681776 lineto
190.2808847045075 -130.59718494534184 lineto
190.91516166135767 -130.59718494534184 lineto
189.67303595419276 -132.41742767046918 lineto
191.0241780133163 -134.18481398252564 lineto
190.25115297215515 -134.18481398252564 lineto
189.1709000300197 -132.76429788124662 lineto
188.12698587187046 -134.18481398252564 lineto
closepath
fill
newpath
1.0 setlinewidth
10.0 setmiterlimit
1 setlinejoin
1 setlinecap
[ ] 0 setdash
newpath
191.90401705589144 -136.973540359649 moveto
191.90401705589144 -136.46699973438672 lineto
192.29309899703628 -136.6211642771045 192.5995927729033 -136.69824654157168 192.82349840826976 -136.69824654157168 curveto
193.08227460497457 -136.69824654157168 193.2928743705119 -136.6225407393442 193.45529772075722 -136.47112914165788 curveto
193.61772107826346 -136.31971753720293 193.69893274975567 -136.12380010426773 193.69893274975567 -135.8833768400628 curveto
193.69893274975567 -135.3107656813968 193.29792140947194 -135.0244601276615 192.49589876475773 -135.0244601276615 curveto
192.2811695866574 -135.0244601276615 lineto
192.2811695866574 -134.65831934961867 lineto
192.47112232113076 -134.6555664114379 lineto
193.22359211296748 -134.6555664114379 193.59982697524782 -134.3903666921198 193.59982697524782 -133.8599672771944 curveto
193.59982697524782 -133.44335595342136 193.35206253159427 -133.23505031015884 192.85653366643902 -133.23505031015884 curveto
192.5849104245077 -133.23505031015884 192.28575781209076 -133.31121493543012 191.95907581950692 -133.46354417916302 curveto
191.95907581950692 -132.99003881207003 lineto
192.28025195016895 -132.88175657373256 192.5922516055972 -132.8276154594044 192.89507480096984 -132.8276154594044 curveto
193.72829744851586 -132.8276154594044 194.14490873504093 -133.14236806745316 194.14490873504093 -133.77187325540964 curveto
194.14490873504093 -134.25088451313985 193.86135609397076 -134.59224883631572 193.29425083718198 -134.79596625865733 curveto
193.95128543590772 -134.94829550919988 194.27980270589885 -135.3080127687317 194.27980270589885 -135.87511802552046 curveto
194.27980270589885 -136.25869409013967 194.15316754580925 -136.55968198972718 193.8998972369521 -136.77808174881412 curveto
193.6466269167729 -136.99648151766428 193.2988390608924 -137.10568139232615 192.85653366643902 -137.10568139232615 curveto
192.60509863843504 -137.10568139232615 192.28759310336346 -137.06163438012106 191.90401705589144 -136.973540359649 curveto
closepath
fill
newpath
0.0 0.0 0.0 setrgbcolor
1.0 setlinewidth
10.0 setmiterlimit
1 setlinejoin
1 setlinecap
[ ] 0 setdash
newpath
279.0818610140764 -125.16398615176762 moveto
279.0818610140764 -126.09812345960077 278.3245931036425 -126.85539137003475 277.3904557958093 -126.85539137003475 curveto
276.45631848797615 -126.85539137003475 275.6990505775422 -126.09812345960077 275.6990505775422 -125.16398615176762 curveto
275.6990505775422 -124.22984884393446 276.45631848797615 -123.47258093350048 277.3904557958093 -123.47258093350048 curveto
278.3245931036425 -123.47258093350048 279.0818610140764 -124.22984884393446 279.0818610140764 -125.16398615176762 curveto
closepath
fill
newpath
0.0 0.0 0.0 setrgbcolor
1.0 setlinewidth
10.0 setmiterlimit
1 setlinejoin
1 setlinecap
[ ] 0 setdash
newpath
279.0818610140764 -125.16398615176762 moveto
279.0818610140764 -126.09812345960077 278.3245931036425 -126.85539137003475 277.3904557958093 -126.85539137003475 curveto
276.45631848797615 -126.85539137003475 275.6990505775422 -126.09812345960077 275.6990505775422 -125.16398615176762 curveto
275.6990505775422 -124.22984884393446 276.45631848797615 -123.47258093350048 277.3904557958093 -123.47258093350048 curveto
278.3245931036425 -123.47258093350048 279.0818610140764 -124.22984884393446 279.0818610140764 -125.16398615176762 curveto
closepath
stroke
newpath
0.0 0.0 0.0 setrgbcolor
1.0 setlinewidth
10.0 setmiterlimit
1 setlinejoin
1 setlinecap
[ ] 0 setdash
newpath
270.35174345520807 -136.44002094021516 moveto
271.71609961759935 -134.58674295691856 lineto
270.3913857650112 -132.85239190303136 lineto
271.1644108061724 -132.85239190303136 lineto
272.21162849013854 -134.23326569450725 lineto
273.1597403995969 -132.85239190303136 lineto
273.79401735644706 -132.85239190303136 lineto
272.55189164928214 -134.67263462815868 lineto
273.90303370840564 -136.44002094021516 lineto
273.1300086672445 -136.44002094021516 lineto
272.0497557251091 -135.01950483893611 lineto
271.0058415669598 -136.44002094021516 lineto
closepath
fill
newpath
1.0 setlinewidth
10.0 setmiterlimit
1 setlinejoin
1 setlinecap
[ ] 0 setdash
newpath
276.3327769467562 -139.25902963732705 moveto
276.3327769467562 -138.10554853958303 lineto
274.4993201183612 -138.10554853958303 lineto
274.4993201183612 -137.69536075064778 lineto
276.3327769467562 -135.18468112978252 lineto
276.8420705101993 -135.18468112978252 lineto
276.8420705101993 -137.66232549247852 lineto
277.3871522699924 -137.66232549247852 lineto
277.3871522699924 -138.10554853958303 lineto
276.8420705101993 -138.10554853958303 lineto
276.8420705101993 -139.25902963732705 lineto
closepath
275.0306371872504 -137.66232549247852 moveto
276.36856514310625 -137.66232549247852 lineto
276.36856514310625 -135.85089216952966 lineto
closepath
fill
newpath
1.0 setlinewidth
10.0 setmiterlimit
1 setlinejoin
1 setlinecap
[ ] 0 setdash
newpath
278.50869928483945 -135.33994684317813 moveto
278.50869928483945 -134.85102502227278 lineto
282.42007385208217 -134.85102502227278 lineto
282.42007385208217 -135.33994684317813 lineto
closepath
278.50869928483945 -134.11764229091477 moveto
278.50869928483945 -133.62872047000943 lineto
282.42007385208217 -133.62872047000943 lineto
282.42007385208217 -134.11764229091477 lineto
closepath
283.804251169375 -136.4796632500183 moveto
283.804251169375 -131.22375367528585 lineto
284.4550457553098 -131.22375367528585 lineto
284.4550457553098 -133.52631116968467 lineto
284.72153017915053 -133.0241752305468 285.1212568029988 -132.77310728342508 285.65422562685467 -132.77310728342508 curveto
286.0858863464644 -132.77310728342508 286.4255989087993 -132.93057535205824 286.67336334137696 -133.2455114752458 curveto
286.92112778503054 -133.56044761251206 287.04500999578136 -133.99100714273794 287.04500999578136 -134.53719006966463 curveto
287.04500999578136 -135.13182473443317 286.90461014437767 -135.6113865532337 286.62381045412303 -135.97587556293678 curveto
286.34301075131566 -136.34036458893377 285.9735664489983 -136.52260908563835 285.5154775425437 -136.52260908563835 curveto
285.0904238747647 -136.52260908563835 284.73694662082033 -136.35963514047955 284.4550457553098 -136.033687264733 curveto
284.37576113570356 -136.4796632500183 lineto
closepath
284.4550457553098 -135.5844077536308 moveto
284.7898030480684 -135.88392743662533 285.1091438715904 -136.033687264733 285.4130682422189 -136.033687264733 curveto
286.038535815531 -136.033687264733 286.3512695742265 -135.55687835761304 286.3512695742265 -134.6032605860032 curveto
286.3512695742265 -133.76196265288624 286.0737733973345 -133.3413137239367 285.5187810683606 -133.3413137239367 curveto
285.15539321766875 -133.3413137239367 284.80081478566257 -133.53842410355443 284.4550457553098 -133.9326448451668 curveto
closepath
fill
newpath
0.0 0.0 0.0 setrgbcolor
1.0 setlinewidth
10.0 setmiterlimit
1 setlinejoin
1 setlinecap
[ ] 0 setdash
newpath
23.67967305573982 -96.97389918064879 moveto
23.67967305573982 -97.90803648848194 22.922405145305852 -98.66530439891592 21.98826783747269 -98.66530439891592 curveto
21.054130529639526 -98.66530439891592 20.29686261920556 -97.90803648848194 20.29686261920556 -96.97389918064879 curveto
20.29686261920556 -96.03976187281563 21.054130529639526 -95.28249396238165 21.98826783747269 -95.28249396238165 curveto
22.922405145305852 -95.28249396238165 23.67967305573982 -96.03976187281563 23.67967305573982 -96.97389918064879 curveto
closepath
fill
newpath
0.0 0.0 0.0 setrgbcolor
1.0 setlinewidth
10.0 setmiterlimit
1 setlinejoin
1 setlinecap
[ ] 0 setdash
newpath
23.67967305573982 -96.97389918064879 moveto
23.67967305573982 -97.90803648848194 22.922405145305852 -98.66530439891592 21.98826783747269 -98.66530439891592 curveto
21.054130529639526 -98.66530439891592 20.29686261920556 -97.90803648848194 20.29686261920556 -96.97389918064879 curveto
20.29686261920556 -96.03976187281563 21.054130529639526 -95.28249396238165 21.98826783747269 -95.28249396238165 curveto
22.922405145305852 -95.28249396238165 23.67967305573982 -96.03976187281563 23.67967305573982 -96.97389918064879 curveto
closepath
stroke
newpath
0.0 0.0 0.0 setrgbcolor
1.0 setlinewidth
10.0 setmiterlimit
1 setlinejoin
1 setlinecap
[ ] 0 setdash
newpath
11.072317363070308 -96.49268558664961 moveto
10.587800228814467 -96.49268558664961 10.185871264102747 -96.31319401191392 9.86653043989159 -95.95421087849034 curveto
9.547189601404787 -95.59522772901897 9.387519196437033 -95.14264469465961 9.387519196437033 -94.59646176773295 curveto
9.387519196437033 -94.01283885601568 9.545537852722745 -93.55805348108824 9.8615751511662 -93.23210560534169 curveto
10.177612463737622 -92.90615771502412 10.618633159312981 -92.74318378443634 11.18463724084586 -92.74318378443634 curveto
11.464335768348093 -92.74318378443634 11.777069542500637 -92.78172492011578 12.122838572853407 -92.85880718802882 curveto
12.122838572853407 -93.40388894782194 lineto
11.75504602094102 -93.2959737679195 11.455526354388107 -93.24201618279247 11.224279550648994 -93.24201618279247 curveto
10.891724608500668 -93.24201618279247 10.624689611873757 -93.36699957992437 10.423174540043957 -93.61696636301379 curveto
10.221659459205732 -93.8669331572776 10.120901927795046 -94.20003867590411 10.120901927795046 -94.61628292263451 curveto
10.120901927795046 -95.01931308431097 10.224412406476976 -95.34526095661168 10.431433354586277 -95.59412656444519 curveto
10.638454311950136 -95.84299218340388 10.909343427756799 -95.96742498175806 11.244100705550563 -95.96742498175806 curveto
11.541418037934829 -95.96742498175806 11.84754475946899 -95.8914438857043 12.162480882656544 -95.73948170039003 curveto
12.162480882656544 -96.30108108926778 lineto
11.741831916098064 -96.42881742466251 11.378444084210658 -96.49268558664961 11.072317363070308 -96.49268558664961 curveto
closepath
fill
newpath
1.0 setlinewidth
10.0 setmiterlimit
1 setlinejoin
1 setlinecap
[ ] 0 setdash
newpath
14.25361272477196 -99.3309648510269 moveto
13.833330816648523 -99.3309648510269 13.493342959978653 -99.13321211914786 13.233649128795443 -98.73770667307025 curveto
12.973955286003013 -98.34220120931218 12.844108376216019 -97.82602530271441 12.844108376216019 -97.18917894638525 curveto
12.844108376216019 -96.54682668506123 12.97487294369984 -96.03019196645457 13.236402066976217 -95.63927475060987 curveto
13.497931201943858 -95.24835751728982 13.842507296148558 -95.05289891810516 14.2701303538566 -95.05289891810516 curveto
14.697753430680883 -95.05289891810516 15.042329517460605 -95.24835753476518 15.303858640736983 -95.63927475060987 curveto
15.565387775704624 -96.03019198392994 15.696152331497181 -96.5440737755138 15.696152331497181 -97.18092013184294 curveto
15.696152331497181 -97.83428414621824 15.56538776401336 -98.35596591781447 15.303858640736983 -98.74596548761258 curveto
15.042329505769342 -99.13596507484502 14.692247535039007 -99.3309648510269 14.25361272477196 -99.3309648510269 curveto
closepath
14.259118601133506 -98.92353000027245 moveto
14.83356505197471 -98.92353000027245 15.120788251715556 -98.3399070885552 15.120788251715556 -97.17266131730062 curveto
15.120788251715556 -96.03110958431905 14.837235610645378 -95.46033376885961 14.2701303538566 -95.46033376885961 curveto
13.704860363891452 -95.46033376885961 13.422225394178415 -96.03661551187602 13.422225394178415 -97.18917894638525 curveto
13.422225394178415 -98.34541301676852 13.701189804810566 -98.92353000027245 14.259118601133506 -98.92353000027245 curveto
closepath
fill
newpath
0.0 0.0 0.0 setrgbcolor
1.0 setlinewidth
10.0 setmiterlimit
1 setlinejoin
1 setlinecap
[ ] 0 setdash
newpath
23.67967305573982 -40.029923498988744 moveto
23.67967305573982 -40.964060806821905 22.922405145305852 -41.72132871725587 21.98826783747269 -41.72132871725587 curveto
21.054130529639526 -41.72132871725587 20.29686261920556 -40.964060806821905 20.29686261920556 -40.029923498988744 curveto
20.29686261920556 -39.09578619115558 21.054130529639526 -38.338518280721615 21.98826783747269 -38.338518280721615 curveto
22.922405145305852 -38.338518280721615 23.67967305573982 -39.09578619115558 23.67967305573982 -40.029923498988744 curveto
closepath
fill
newpath
0.0 0.0 0.0 setrgbcolor
1.0 setlinewidth
10.0 setmiterlimit
1 setlinejoin
1 setlinecap
[ ] 0 setdash
newpath
23.67967305573982 -40.029923498988744 moveto
23.67967305573982 -40.964060806821905 22.922405145305852 -41.72132871725587 21.98826783747269 -41.72132871725587 curveto
21.054130529639526 -41.72132871725587 20.29686261920556 -40.964060806821905 20.29686261920556 -40.029923498988744 curveto
20.29686261920556 -39.09578619115558 21.054130529639526 -38.338518280721615 21.98826783747269 -38.338518280721615 curveto
22.922405145305852 -38.338518280721615 23.67967305573982 -39.09578619115558 23.67967305573982 -40.029923498988744 curveto
closepath
stroke
newpath
0.0 0.0 0.0 setrgbcolor
1.0 setlinewidth
10.0 setmiterlimit
1 setlinejoin
1 setlinecap
[ ] 0 setdash
newpath
11.636119102492684 -41.24011512325669 moveto
11.151601968236843 -41.24011512325669 10.749673003525125 -41.06062354852101 10.430332179313968 -40.70164041509744 curveto
10.110991340827164 -40.342657265626066 9.95132093585941 -39.8900742312667 9.95132093585941 -39.34389130434003 curveto
9.95132093585941 -38.76026839262277 10.10933959214512 -38.30548301769533 10.425376890588575 -37.97953514194877 curveto
10.741414203159998 -37.65358725163121 11.182434898735357 -37.490613321043426 11.748438980268235 -37.490613321043426 curveto
12.02813750777047 -37.490613321043426 12.340871281923015 -37.52915445672287 12.686640312275784 -37.606236724635906 curveto
12.686640312275784 -38.15131848442903 lineto
12.318847760363397 -38.04340330452659 12.019328093810485 -37.989445719399555 11.788081290071371 -37.989445719399555 curveto
11.455526347923044 -37.989445719399555 11.188491351296133 -38.11442911653146 10.986976279466335 -38.36439589962088 curveto
10.78546119862811 -38.61436269388469 10.684703667217423 -38.94746821251119 10.684703667217423 -39.3637124592416 curveto
10.684703667217423 -39.76674262091805 10.788214145899353 -40.09269049321876 10.995235094008654 -40.341556101052284 curveto
11.202256051372514 -40.590421720010966 11.473145167179176 -40.714854518365144 11.807902444972939 -40.714854518365144 curveto
12.105219777357204 -40.714854518365144 12.411346498891366 -40.63887342231139 12.72628262207892 -40.486911236997116 curveto
12.72628262207892 -41.048510625874876 lineto
12.30563365552044 -41.17624696126959 11.942245823633034 -41.24011512325669 11.636119102492684 -41.24011512325669 curveto
closepath
fill
newpath
1.0 setlinewidth
10.0 setmiterlimit
1 setlinejoin
1 setlinecap
[ ] 0 setdash
newpath
13.897933111816046 -43.97653567494538 moveto
13.897933111816046 -43.569100824190926 lineto
14.71280281332495 -43.569100824190926 lineto
14.71280281332495 -40.35366902904769 lineto
13.897933111816046 -40.557386454424915 lineto
13.897933111816046 -40.13893985094737 lineto
15.257884573118067 -39.80032845471225 lineto
15.257884573118067 -43.569100824190926 lineto
16.072754274626973 -43.569100824190926 lineto
16.072754274626973 -43.97653567494538 lineto
closepath
fill
newpath
0.0 0.0 0.0 setrgbcolor
1.0 setlinewidth
10.0 setmiterlimit
1 setlinejoin
1 setlinecap
[ ] 0 setdash
newpath
23.67967305573982 -153.35407312288646 moveto
23.67967305573982 -154.2882104307196 22.922405145305852 -155.04547834115357 21.98826783747269 -155.04547834115357 curveto
21.054130529639526 -155.04547834115357 20.29686261920556 -154.2882104307196 20.29686261920556 -153.35407312288646 curveto
20.29686261920556 -152.4199358150533 21.054130529639526 -151.66266790461933 21.98826783747269 -151.66266790461933 curveto
22.922405145305852 -151.66266790461933 23.67967305573982 -152.4199358150533 23.67967305573982 -153.35407312288646 curveto
closepath
fill
newpath
0.0 0.0 0.0 setrgbcolor
1.0 setlinewidth
10.0 setmiterlimit
1 setlinejoin
1 setlinecap
[ ] 0 setdash
newpath
23.67967305573982 -153.35407312288646 moveto
23.67967305573982 -154.2882104307196 22.922405145305852 -155.04547834115357 21.98826783747269 -155.04547834115357 curveto
21.054130529639526 -155.04547834115357 20.29686261920556 -154.2882104307196 20.29686261920556 -153.35407312288646 curveto
20.29686261920556 -152.4199358150533 21.054130529639526 -151.66266790461933 21.98826783747269 -151.66266790461933 curveto
22.922405145305852 -151.66266790461933 23.67967305573982 -152.4199358150533 23.67967305573982 -153.35407312288646 curveto
closepath
stroke
newpath
0.0 0.0 0.0 setrgbcolor
1.0 setlinewidth
10.0 setmiterlimit
1 setlinejoin
1 setlinecap
[ ] 0 setdash
newpath
11.072317363070308 -153.43666126830965 moveto
10.587800228814467 -153.43666126830965 10.185871264102747 -153.25716969357396 9.86653043989159 -152.89818656015038 curveto
9.547189601404787 -152.53920341067902 9.387519196437033 -152.08662037631967 9.387519196437033 -151.54043744939298 curveto
9.387519196437033 -150.9568145376757 9.545537852722745 -150.50202916274827 9.8615751511662 -150.17608128700172 curveto
10.177612463737622 -149.85013339668416 10.618633159312981 -149.68715946609638 11.18463724084586 -149.68715946609638 curveto
11.464335768348093 -149.68715946609638 11.777069542500637 -149.72570060177583 12.122838572853407 -149.80278286968885 curveto
12.122838572853407 -150.347864629482 lineto
11.75504602094102 -150.23994944957954 11.455526354388107 -150.18599186445252 11.224279550648994 -150.18599186445252 curveto
10.891724608500668 -150.18599186445252 10.624689611873757 -150.31097526158442 10.423174540043957 -150.56094204467382 curveto
10.221659459205732 -150.81090883893765 10.120901927795046 -151.14401435756415 10.120901927795046 -151.56025860429455 curveto
10.120901927795046 -151.963288765971 10.224412406476976 -152.28923663827172 10.431433354586277 -152.53810224610524 curveto
10.638454311950136 -152.78696786506393 10.909343427756799 -152.9114006634181 11.244100705550563 -152.9114006634181 curveto
11.541418037934829 -152.9114006634181 11.84754475946899 -152.83541956736434 12.162480882656544 -152.68345738205008 curveto
12.162480882656544 -153.24505677092782 lineto
11.741831916098064 -153.37279310632255 11.378444084210658 -153.43666126830965 11.072317363070308 -153.43666126830965 curveto
closepath
fill
newpath
1.0 setlinewidth
10.0 setmiterlimit
1 setlinejoin
1 setlinecap
[ ] 0 setdash
newpath
12.954225903446952 -156.17308181999834 moveto
12.954225903446952 -155.69682351472454 lineto
13.112061030515143 -155.32792978750703 13.431401861946165 -154.92600081762654 13.912248390356067 -154.49103659154582 curveto
14.223330404783454 -154.21298983528771 lineto
14.623424098979564 -153.85143727677107 14.823470928192037 -153.49263767267988 14.823470928192037 -153.13659100660536 curveto
14.823470928192037 -152.90901477687913 14.755106294665408 -152.73007379996946 14.618377033724425 -152.59976806135455 curveto
14.481647766671166 -152.46946231691456 14.293989147868064 -152.40430945051966 14.05540117575628 -152.40430945051966 curveto
13.772766180773708 -152.40430945051966 13.439660663607587 -152.51350933494476 13.056084616135564 -152.7319090940317 curveto
13.056084616135564 -152.2528978505771 lineto
13.417637174652233 -152.08221567828244 13.776436778743426 -151.9968745997652 14.132483444817934 -151.9968745997652 curveto
14.51422421726193 -151.9968745997652 14.82071799345711 -152.09965096157703 15.051964797196224 -152.3052036760118 curveto
15.283211611272876 -152.5107563996355 15.398835007973663 -152.7832972784655 15.398835007973663 -153.1228263157015 curveto
15.398835007973663 -153.36692017500462 15.340564481410697 -153.58348464076775 15.224023433494557 -153.772519726364 curveto
15.107482380368625 -153.96155482041078 14.890459085859655 -154.1909663338617 14.572953553741666 -154.46075427155733 curveto
14.363730252002894 -154.6396952533076 lineto
13.928766006477764 -155.0085889805251 13.677330997918201 -155.36096506167488 13.609425190471002 -155.69682351472454 curveto
15.379564440708249 -155.69682351472454 lineto
15.379564440708249 -156.17308181999834 lineto
closepath
fill
newpath
0.0 0.0 0.0 setrgbcolor
1.0 setlinewidth
10.0 setmiterlimit
1 setlinejoin
1 setlinecap
[ ] 0 setdash
newpath
23.67967305573982 -68.22001047010758 moveto
23.67967305573982 -69.15414777794074 22.922405145305852 -69.9114156883747 21.98826783747269 -69.9114156883747 curveto
21.054130529639526 -69.9114156883747 20.29686261920556 -69.15414777794074 20.29686261920556 -68.22001047010758 curveto
20.29686261920556 -67.28587316227441 21.054130529639526 -66.52860525184045 21.98826783747269 -66.52860525184045 curveto
22.922405145305852 -66.52860525184045 23.67967305573982 -67.28587316227441 23.67967305573982 -68.22001047010758 curveto
closepath
fill
newpath
0.0 0.0 0.0 setrgbcolor
1.0 setlinewidth
10.0 setmiterlimit
1 setlinejoin
1 setlinecap
[ ] 0 setdash
newpath
23.67967305573982 -68.22001047010758 moveto
23.67967305573982 -69.15414777794074 22.922405145305852 -69.9114156883747 21.98826783747269 -69.9114156883747 curveto
21.054130529639526 -69.9114156883747 20.29686261920556 -69.15414777794074 20.29686261920556 -68.22001047010758 curveto
20.29686261920556 -67.28587316227441 21.054130529639526 -66.52860525184045 21.98826783747269 -66.52860525184045 curveto
22.922405145305852 -66.52860525184045 23.67967305573982 -67.28587316227441 23.67967305573982 -68.22001047010758 curveto
closepath
stroke
newpath
0.0 0.0 0.0 setrgbcolor
1.0 setlinewidth
10.0 setmiterlimit
1 setlinejoin
1 setlinecap
[ ] 0 setdash
newpath
12.19992084191506 -68.30259861553077 moveto
11.71540370765922 -68.30259861553077 11.313474742947502 -68.12310704079509 10.994133918736345 -67.76412390737151 curveto
10.674793080249541 -67.40514075790014 10.515122675281786 -66.95255772354078 10.515122675281786 -66.40637479661412 curveto
10.515122675281786 -65.82275188489685 10.673141331567498 -65.3679665099694 10.989178630010953 -65.04201863422286 curveto
11.305215942582375 -64.71607074390529 11.746236638157734 -64.55309681331751 12.312240719690612 -64.55309681331751 curveto
12.591939247192848 -64.55309681331751 12.904673021345392 -64.59163794899695 13.25044205169816 -64.66872021690999 curveto
13.25044205169816 -65.21380197670311 lineto
12.882649499785773 -65.10588679680068 12.583129833232862 -65.05192921167364 12.351883029493749 -65.05192921167364 curveto
12.019328087345421 -65.05192921167364 11.75229309071851 -65.17691260880554 11.55077801888871 -65.42687939189496 curveto
11.349262938050487 -65.67684618615877 11.2485054066398 -66.00995170478528 11.2485054066398 -66.42619595151568 curveto
11.2485054066398 -66.82922611319214 11.35201588532173 -67.15517398549285 11.559036833431032 -67.40403959332636 curveto
11.766057790794891 -67.65290521228505 12.036946906601553 -67.77733801063923 12.371704184395316 -67.77733801063923 curveto
12.669021516779582 -67.77733801063923 12.975148238313743 -67.70135691458547 13.290084361501297 -67.5493947292712 curveto
13.290084361501297 -68.11099411814895 lineto
12.869435394942817 -68.23873045354367 12.50604756305541 -68.30259861553077 12.19992084191506 -68.30259861553077 curveto
closepath
fill
newpath
1.0 setlinewidth
10.0 setmiterlimit
1 setlinejoin
1 setlinecap
[ ] 0 setdash
newpath
14.18644103316109 -71.00873684723095 moveto
14.18644103316109 -70.50219622196866 lineto
14.575522974305931 -70.65636076468643 14.882016750172937 -70.73344302915362 15.105922385539381 -70.73344302915362 curveto
15.364698582244205 -70.73344302915362 15.57529834778153 -70.65773722692614 15.737721698026858 -70.50632562923983 curveto
15.900145055533079 -70.35491402478488 15.981356727025299 -70.15899659184967 15.981356727025299 -69.91857332764472 curveto
15.981356727025299 -69.34596216897873 15.580345386741582 -69.05965661524344 14.778322742027356 -69.05965661524344 curveto
14.563593563927036 -69.05965661524344 lineto
14.563593563927036 -68.6935158372006 lineto
14.753546298400396 -68.69076289901982 lineto
15.506016090237118 -68.69076289901982 15.882250952517458 -68.42556317970175 15.882250952517458 -67.89516376477633 curveto
15.882250952517458 -67.47855244100332 15.634486508863903 -67.27024679774078 15.138957643708661 -67.27024679774078 curveto
14.867334401777356 -67.27024679774078 14.568181789360384 -67.34641142301206 14.241499796776557 -67.49874066674496 curveto
14.241499796776557 -67.02523529965195 lineto
14.562675927438573 -66.91695306131447 14.874675582866839 -66.86281194698633 15.177498778239487 -66.86281194698633 curveto
16.010721425785515 -66.86281194698633 16.427332712310577 -67.1775645550351 16.427332712310577 -67.80706974299157 curveto
16.427332712310577 -68.28608100072178 16.143780071240396 -68.62744532389766 15.57667481445162 -68.83116274623926 curveto
16.23370941317734 -68.98349199678181 16.56222668316847 -69.34320925631361 16.56222668316847 -69.91031451310239 curveto
16.56222668316847 -70.2938905777216 16.435591523078873 -70.5948784773091 16.18232121422175 -70.81327823639604 curveto
15.929050894042561 -71.03167800524622 15.581263038162044 -71.14087787990807 15.138957643708661 -71.14087787990807 curveto
14.887522615704682 -71.14087787990807 14.570017080633113 -71.09683086770299 14.18644103316109 -71.00873684723095 curveto
closepath
fill
newpath
0.2509804 0.2509804 0.2509804 setrgbcolor
1.0 setlinewidth
10.0 setmiterlimit
1 setlinejoin
1 setlinecap
[ ] 0 setdash
newpath
80.62364873739986 -96.97389918064879 moveto
80.62364873739986 -97.90803648848194 79.86638082696588 -98.66530439891592 78.93224351913273 -98.66530439891592 curveto
77.99810621129957 -98.66530439891592 77.2408383008656 -97.90803648848194 77.2408383008656 -96.97389918064879 curveto
77.2408383008656 -96.03976187281563 77.99810621129957 -95.28249396238165 78.93224351913273 -95.28249396238165 curveto
79.86638082696588 -95.28249396238165 80.62364873739986 -96.03976187281563 80.62364873739986 -96.97389918064879 curveto
closepath
fill
newpath
0.0 0.0 0.0 setrgbcolor
1.0 setlinewidth
10.0 setmiterlimit
1 setlinejoin
1 setlinecap
[ ] 0 setdash
newpath
80.62364873739986 -96.97389918064879 moveto
80.62364873739986 -97.90803648848194 79.86638082696588 -98.66530439891592 78.93224351913273 -98.66530439891592 curveto
77.99810621129957 -98.66530439891592 77.2408383008656 -97.90803648848194 77.2408383008656 -96.97389918064879 curveto
77.2408383008656 -96.03976187281563 77.99810621129957 -95.28249396238165 78.93224351913273 -95.28249396238165 curveto
79.86638082696588 -95.28249396238165 80.62364873739986 -96.03976187281563 80.62364873739986 -96.97389918064879 curveto
closepath
stroke
newpath
0.2509804 0.2509804 0.2509804 setrgbcolor
1.0 setlinewidth
10.0 setmiterlimit
1 setlinejoin
1 setlinecap
[ ] 0 setdash
newpath
81.81842390785549 -93.59108874411453 moveto
81.81842390785549 -88.7018705350611 lineto
83.29840347383923 -88.7018705350611 lineto
83.7675041538233 -88.7018705350611 84.12703786997679 -88.80538101374303 84.37700465306621 -89.01240196185233 curveto
84.62697144733002 -89.21942291921619 84.75195483328754 -89.52004376826127 84.75195483328754 -89.91426450987368 curveto
84.75195483328754 -90.5661602905088 84.42270341705459 -91.02865388952009 83.76420061402607 -91.30174535298343 curveto
85.3961423675885 -93.59108874411453 lineto
84.54383270682108 -93.59108874411453 lineto
83.15304833789439 -91.52308158271761 lineto
82.5055572777765 -91.52308158271761 lineto
82.5055572777765 -93.59108874411453 lineto
closepath
82.5055572777765 -91.00442802945992 moveto
82.73019703332761 -91.00442802945992 lineto
83.60232787498813 -91.00442802945992 84.0383932568311 -90.66196250956544 84.0383932568311 -89.97703150039531 curveto
84.0383932568311 -89.47269321064718 83.67280305552896 -89.2205240883188 82.941622685611 -89.2205240883188 curveto
82.5055572777765 -89.2205240883188 lineto
closepath
fill
newpath
0.2509804 0.2509804 0.2509804 setrgbcolor
1.0 setlinewidth
10.0 setmiterlimit
1 setlinejoin
1 setlinecap
[ ] 0 setdash
newpath
51.86976002685865 -96.97389918064879 moveto
51.86976002685865 -97.90803648848194 51.11249211642468 -98.66530439891592 50.17835480859152 -98.66530439891592 curveto
49.24421750075836 -98.66530439891592 48.48694959032439 -97.90803648848194 48.48694959032439 -96.97389918064879 curveto
48.48694959032439 -96.03976187281563 49.24421750075836 -95.28249396238165 50.17835480859152 -95.28249396238165 curveto
51.11249211642468 -95.28249396238165 51.86976002685865 -96.03976187281563 51.86976002685865 -96.97389918064879 curveto
closepath
fill
newpath
0.0 0.0 0.0 setrgbcolor
1.0 setlinewidth
10.0 setmiterlimit
1 setlinejoin
1 setlinecap
[ ] 0 setdash
newpath
51.86976002685865 -96.97389918064879 moveto
51.86976002685865 -97.90803648848194 51.11249211642468 -98.66530439891592 50.17835480859152 -98.66530439891592 curveto
49.24421750075836 -98.66530439891592 48.48694959032439 -97.90803648848194 48.48694959032439 -96.97389918064879 curveto
48.48694959032439 -96.03976187281563 49.24421750075836 -95.28249396238165 50.17835480859152 -95.28249396238165 curveto
51.11249211642468 -95.28249396238165 51.86976002685865 -96.03976187281563 51.86976002685865 -96.97389918064879 curveto
closepath
stroke
newpath
0.2509804 0.2509804 0.2509804 setrgbcolor
1.0 setlinewidth
10.0 setmiterlimit
1 setlinejoin
1 setlinecap
[ ] 0 setdash
newpath
54.02255768422339 -93.71331919934086 moveto
53.694407443295574 -93.71331919934086 53.27485966671168 -93.64174280450762 52.76391434797383 -93.49859002124055 curveto
52.76391434797383 -92.81145665131952 lineto
53.31450200053729 -93.06692932210896 53.76708502633126 -93.19466564608317 54.121663458731234 -93.19466564608317 curveto
54.394754934402705 -93.19466564608317 54.61443939556738 -93.12308925124992 54.78071685920836 -92.97993646798285 curveto
54.94699433028253 -92.83678367831635 55.030133058386426 -92.64848270753907 55.030133058386426 -92.41503355328817 curveto
55.030133058386426 -92.22342905019607 54.97562488078265 -92.06045511360269 54.866608530448495 -91.92611173238282 curveto
54.75759217524093 -91.79176834515734 54.55662768692868 -91.64200850966569 54.263715068859135 -91.47683222128062 curveto
53.92675543553248 -91.28192419808187 lineto
53.510511170194505 -91.04407033217444 53.21704796998576 -90.81998116821401 53.04636580532117 -90.60965669433702 curveto
52.8756836330265 -90.39933221105778 52.79034255450925 -90.15432071506928 52.79034255450925 -89.87462220007053 curveto
52.79034255450925 -89.49802024571713 52.92688829234499 -89.18803941415932 53.19997975580832 -88.94467968260531 curveto
53.47307123147979 -88.70131994017225 53.82104261569176 -88.57964007983476 54.243893913957564 -88.57964007983476 curveto
54.62049586831097 -88.57964007983476 55.01802013662637 -88.642407072227 55.43646673386857 -88.76794105139966 curveto
55.43646673386857 -89.40221800824983 lineto
54.92111669106918 -89.19960175210649 54.53680653261783 -89.09829363309247 54.283536223760706 -89.09829363309247 curveto
54.04348000724304 -89.09829363309247 53.84526846305154 -89.16216180078983 53.68890157671366 -89.28989813047428 curveto
53.53253468338564 -89.417634465869 53.45435124371178 -89.57840605470727 53.45435124371178 -89.77221289974577 curveto
53.45435124371178 -89.93518684490455 53.51161235957838 -90.07944080259068 53.62613458619203 -90.20497478176334 curveto
53.740656817925235 -90.33050876654781 53.9498801207798 -90.48026860243326 54.25380449140835 -90.65425429286555 curveto
54.60397822800272 -90.85246584188123 lineto
55.02682954517145 -91.0925220583989 55.321944508042534 -91.31936416052369 55.48932314693942 -91.53299216016839 curveto
55.65670179331871 -91.74662016936301 55.74039110902594 -92.00319400590766 55.74039110902594 -92.3027136755126 curveto
55.74039110902594 -92.72776734329159 55.58347362804536 -93.06913166887956 55.26963868011371 -93.32680667876029 curveto
54.95580371815254 -93.58448170015998 54.540110054496644 -93.71331919934086 54.02255768422339 -93.71331919934086 curveto
closepath
fill
newpath
0.2509804 0.2509804 0.2509804 setrgbcolor
1.0 setlinewidth
10.0 setmiterlimit
1 setlinejoin
1 setlinecap
[ ] 0 setdash
newpath
137.00382267963752 -40.029923498988744 moveto
137.00382267963752 -40.964060806821905 136.24655476920356 -41.72132871725587 135.3124174613704 -41.72132871725587 curveto
134.37828015353725 -41.72132871725587 133.62101224310328 -40.964060806821905 133.62101224310328 -40.029923498988744 curveto
133.62101224310328 -39.09578619115558 134.37828015353725 -38.338518280721615 135.3124174613704 -38.338518280721615 curveto
136.24655476920356 -38.338518280721615 137.00382267963752 -39.09578619115558 137.00382267963752 -40.029923498988744 curveto
closepath
fill
newpath
0.0 0.0 0.0 setrgbcolor
1.0 setlinewidth
10.0 setmiterlimit
1 setlinejoin
1 setlinecap
[ ] 0 setdash
newpath
137.00382267963752 -40.029923498988744 moveto
137.00382267963752 -40.964060806821905 136.24655476920356 -41.72132871725587 135.3124174613704 -41.72132871725587 curveto
134.37828015353725 -41.72132871725587 133.62101224310328 -40.964060806821905 133.62101224310328 -40.029923498988744 curveto
133.62101224310328 -39.09578619115558 134.37828015353725 -38.338518280721615 135.3124174613704 -38.338518280721615 curveto
136.24655476920356 -38.338518280721615 137.00382267963752 -39.09578619115558 137.00382267963752 -40.029923498988744 curveto
closepath
stroke
newpath
0.2509804 0.2509804 0.2509804 setrgbcolor
1.0 setlinewidth
10.0 setmiterlimit
1 setlinejoin
1 setlinecap
[ ] 0 setdash
newpath
139.3614389376518 -36.64711306245448 moveto
139.3614389376518 -32.276548406658755 lineto
137.6270878837646 -32.276548406658755 lineto
137.6270878837646 -31.75789485340106 lineto
141.78953041309387 -31.75789485340106 lineto
141.78953041309387 -32.276548406658755 lineto
140.05517935920668 -32.276548406658755 lineto
140.05517935920668 -36.64711306245448 lineto
closepath
fill
newpath
0.2509804 0.2509804 0.2509804 setrgbcolor
1.0 setlinewidth
10.0 setmiterlimit
1 setlinejoin
1 setlinecap
[ ] 0 setdash
newpath
80.62364873739986 -40.029923498988744 moveto
80.62364873739986 -40.964060806821905 79.86638082696588 -41.72132871725587 78.93224351913273 -41.72132871725587 curveto
77.99810621129957 -41.72132871725587 77.2408383008656 -40.964060806821905 77.2408383008656 -40.029923498988744 curveto
77.2408383008656 -39.09578619115558 77.99810621129957 -38.338518280721615 78.93224351913273 -38.338518280721615 curveto
79.86638082696588 -38.338518280721615 80.62364873739986 -39.09578619115558 80.62364873739986 -40.029923498988744 curveto
closepath
fill
newpath
0.0 0.0 0.0 setrgbcolor
1.0 setlinewidth
10.0 setmiterlimit
1 setlinejoin
1 setlinecap
[ ] 0 setdash
newpath
80.62364873739986 -40.029923498988744 moveto
80.62364873739986 -40.964060806821905 79.86638082696588 -41.72132871725587 78.93224351913273 -41.72132871725587 curveto
77.99810621129957 -41.72132871725587 77.2408383008656 -40.964060806821905 77.2408383008656 -40.029923498988744 curveto
77.2408383008656 -39.09578619115558 77.99810621129957 -38.338518280721615 78.93224351913273 -38.338518280721615 curveto
79.86638082696588 -38.338518280721615 80.62364873739986 -39.09578619115558 80.62364873739986 -40.029923498988744 curveto
closepath
stroke
newpath
0.2509804 0.2509804 0.2509804 setrgbcolor
1.0 setlinewidth
10.0 setmiterlimit
1 setlinejoin
1 setlinecap
[ ] 0 setdash
newpath
81.77878159805235 -31.75789485340106 moveto
82.47252201960723 -31.75789485340106 lineto
82.47252201960723 -34.843387966411804 lineto
82.47252201960723 -35.334512152498405 82.5633689822802 -35.69184351705712 82.74506289950378 -35.91538209400493 curveto
82.92675682484972 -36.138920680945695 83.21581533432318 -36.250689964423124 83.61223842644738 -36.250689964423124 curveto
83.99985213385206 -36.250689964423124 84.27459535515354 -36.145527722783505 84.43646811777091 -35.935203248906504 curveto
84.59834088762457 -35.72487876562726 84.67927726531512 -35.36864856382094 84.67927726531512 -34.8665126471303 curveto
84.67927726531512 -31.75789485340106 lineto
85.28712601562987 -31.75789485340106 lineto
85.28712601562987 -34.85660206967951 lineto
85.28712601562987 -35.52391430458642 85.15002969014157 -36.009532584316204 84.87583705142234 -36.313456954944755 curveto
84.60164440044574 -36.617381339159785 84.16502840422028 -36.76934351768082 83.56598906501038 -36.76934351768082 curveto
82.95593794597008 -36.76934351768082 82.5055572734446 -36.611875449047666 82.21484700588684 -36.296939325860116 curveto
81.92413672533334 -35.98200318859382 81.77878159805235 -35.49528371780647 81.77878159805235 -34.83678091477795 curveto
closepath
fill
newpath
0.2509804 0.2509804 0.2509804 setrgbcolor
1.0 setlinewidth
10.0 setmiterlimit
1 setlinejoin
1 setlinecap
[ ] 0 setdash
newpath
137.00382267963752 -153.35407312288646 moveto
137.00382267963752 -154.2882104307196 136.24655476920356 -155.04547834115357 135.3124174613704 -155.04547834115357 curveto
134.37828015353725 -155.04547834115357 133.62101224310328 -154.2882104307196 133.62101224310328 -153.35407312288646 curveto
133.62101224310328 -152.4199358150533 134.37828015353725 -151.66266790461933 135.3124174613704 -151.66266790461933 curveto
136.24655476920356 -151.66266790461933 137.00382267963752 -152.4199358150533 137.00382267963752 -153.35407312288646 curveto
closepath
fill
newpath
0.0 0.0 0.0 setrgbcolor
1.0 setlinewidth
10.0 setmiterlimit
1 setlinejoin
1 setlinecap
[ ] 0 setdash
newpath
137.00382267963752 -153.35407312288646 moveto
137.00382267963752 -154.2882104307196 136.24655476920356 -155.04547834115357 135.3124174613704 -155.04547834115357 curveto
134.37828015353725 -155.04547834115357 133.62101224310328 -154.2882104307196 133.62101224310328 -153.35407312288646 curveto
133.62101224310328 -152.4199358150533 134.37828015353725 -151.66266790461933 135.3124174613704 -151.66266790461933 curveto
136.24655476920356 -151.66266790461933 137.00382267963752 -152.4199358150533 137.00382267963752 -153.35407312288646 curveto
closepath
stroke
newpath
0.2509804 0.2509804 0.2509804 setrgbcolor
1.0 setlinewidth
10.0 setmiterlimit
1 setlinejoin
1 setlinecap
[ ] 0 setdash
newpath
139.53322228013207 -149.9712626863522 moveto
137.68655134846932 -145.08204447729878 lineto
138.3802917700242 -145.08204447729878 lineto
139.8933065941772 -149.08591776741548 lineto
141.35346500525938 -145.08204447729878 lineto
141.96131375557414 -145.08204447729878 lineto
140.1873203918838 -149.9712626863522 lineto
closepath
fill
newpath
0.2509804 0.2509804 0.2509804 setrgbcolor
1.0 setlinewidth
10.0 setmiterlimit
1 setlinejoin
1 setlinecap
[ ] 0 setdash
newpath
193.94779836129757 -153.35407312288646 moveto
193.94779836129757 -154.2882104307196 193.1905304508636 -155.04547834115357 192.25639314303044 -155.04547834115357 curveto
191.3222558351973 -155.04547834115357 190.5649879247633 -154.2882104307196 190.5649879247633 -153.35407312288646 curveto
190.5649879247633 -152.4199358150533 191.3222558351973 -151.66266790461933 192.25639314303044 -151.66266790461933 curveto
193.1905304508636 -151.66266790461933 193.94779836129757 -152.4199358150533 193.94779836129757 -153.35407312288646 curveto
closepath
fill
newpath
0.0 0.0 0.0 setrgbcolor
1.0 setlinewidth
10.0 setmiterlimit
1 setlinejoin
1 setlinecap
[ ] 0 setdash
newpath
193.94779836129757 -153.35407312288646 moveto
193.94779836129757 -154.2882104307196 193.1905304508636 -155.04547834115357 192.25639314303044 -155.04547834115357 curveto
191.3222558351973 -155.04547834115357 190.5649879247633 -154.2882104307196 190.5649879247633 -153.35407312288646 curveto
190.5649879247633 -152.4199358150533 191.3222558351973 -151.66266790461933 192.25639314303044 -151.66266790461933 curveto
193.1905304508636 -151.66266790461933 193.94779836129757 -152.4199358150533 193.94779836129757 -153.35407312288646 curveto
closepath
stroke
newpath
0.2509804 0.2509804 0.2509804 setrgbcolor
1.0 setlinewidth
10.0 setmiterlimit
1 setlinejoin
1 setlinecap
[ ] 0 setdash
newpath
195.77685048860337 -149.9712626863522 moveto
194.5182071523538 -145.08204447729878 lineto
195.18551936737325 -145.08204447729878 lineto
196.18648768990244 -148.94386615728757 lineto
197.10817139282534 -145.08204447729878 lineto
197.7754836078448 -145.08204447729878 lineto
198.6476144235138 -148.89100974421675 lineto
199.7245638398323 -145.08204447729878 lineto
200.289466754527 -145.08204447729878 lineto
198.9185035405019 -149.9712626863522 lineto
198.22806664476394 -149.9712626863522 lineto
197.36584640654573 -146.20193972923735 lineto
196.4639838585244 -149.9712626863522 lineto
closepath
fill
newpath
0.2509804 0.2509804 0.2509804 setrgbcolor
1.0 setlinewidth
10.0 setmiterlimit
1 setlinejoin
1 setlinecap
[ ] 0 setdash
newpath
279.0818610140764 -68.22001047010758 moveto
279.0818610140764 -69.15414777794074 278.3245931036425 -69.9114156883747 277.3904557958093 -69.9114156883747 curveto
276.45631848797615 -69.9114156883747 275.6990505775422 -69.15414777794074 275.6990505775422 -68.22001047010758 curveto
275.6990505775422 -67.28587316227441 276.45631848797615 -66.52860525184045 277.3904557958093 -66.52860525184045 curveto
278.3245931036425 -66.52860525184045 279.0818610140764 -67.28587316227441 279.0818610140764 -68.22001047010758 curveto
closepath
fill
newpath
0.0 0.0 0.0 setrgbcolor
1.0 setlinewidth
10.0 setmiterlimit
1 setlinejoin
1 setlinecap
[ ] 0 setdash
newpath
279.0818610140764 -68.22001047010758 moveto
279.0818610140764 -69.15414777794074 278.3245931036425 -69.9114156883747 277.3904557958093 -69.9114156883747 curveto
276.45631848797615 -69.9114156883747 275.6990505775422 -69.15414777794074 275.6990505775422 -68.22001047010758 curveto
275.6990505775422 -67.28587316227441 276.45631848797615 -66.52860525184045 277.3904557958093 -66.52860525184045 curveto
278.3245931036425 -66.52860525184045 279.0818610140764 -67.28587316227441 279.0818610140764 -68.22001047010758 curveto
closepath
stroke
newpath
0.2509804 0.2509804 0.2509804 setrgbcolor
1.0 setlinewidth
10.0 setmiterlimit
1 setlinejoin
1 setlinecap
[ ] 0 setdash
newpath
279.95949770610696 -64.83720003357331 moveto
279.95949770610696 -64.28220769632941 lineto
282.58580073056476 -60.466635377777585 lineto
280.12137047113646 -60.466635377777585 lineto
280.12137047113646 -59.94798182451989 lineto
283.4182892364306 -59.94798182451989 lineto
283.4182892364306 -60.466635377777585 lineto
280.7919862119728 -64.28220769632941 lineto
283.4182892364306 -64.28220769632941 lineto
283.4182892364306 -64.83720003357331 lineto
closepath
fill
newpath
0.2509804 0.2509804 0.2509804 setrgbcolor
1.0 setlinewidth
10.0 setmiterlimit
1 setlinejoin
1 setlinecap
[ ] 0 setdash
newpath
193.94779836129757 -68.22001047010758 moveto
193.94779836129757 -69.15414777794074 193.1905304508636 -69.9114156883747 192.25639314303044 -69.9114156883747 curveto
191.3222558351973 -69.9114156883747 190.5649879247633 -69.15414777794074 190.5649879247633 -68.22001047010758 curveto
190.5649879247633 -67.28587316227441 191.3222558351973 -66.52860525184045 192.25639314303044 -66.52860525184045 curveto
193.1905304508636 -66.52860525184045 193.94779836129757 -67.28587316227441 193.94779836129757 -68.22001047010758 curveto
closepath
fill
newpath
0.0 0.0 0.0 setrgbcolor
1.0 setlinewidth
10.0 setmiterlimit
1 setlinejoin
1 setlinecap
[ ] 0 setdash
newpath
193.94779836129757 -68.22001047010758 moveto
193.94779836129757 -69.15414777794074 193.1905304508636 -69.9114156883747 192.25639314303044 -69.9114156883747 curveto
191.3222558351973 -69.9114156883747 190.5649879247633 -69.15414777794074 190.5649879247633 -68.22001047010758 curveto
190.5649879247633 -67.28587316227441 191.3222558351973 -66.52860525184045 192.25639314303044 -66.52860525184045 curveto
193.1905304508636 -66.52860525184045 193.94779836129757 -67.28587316227441 193.94779836129757 -68.22001047010758 curveto
closepath
stroke
newpath
0.2509804 0.2509804 0.2509804 setrgbcolor
1.0 setlinewidth
10.0 setmiterlimit
1 setlinejoin
1 setlinecap
[ ] 0 setdash
newpath
197.62021789444918 -62.96740442119207 moveto
196.78772938858333 -60.859754949992016 lineto
195.95193735690054 -62.96740442119207 lineto
closepath
198.3536006258072 -64.83720003357331 moveto
197.82173296928178 -63.48275444863284 lineto
195.75042228206794 -63.48275444863284 lineto
195.21194757390867 -64.83720003357331 lineto
194.56776003960772 -64.83720003357331 lineto
196.50692969414445 -59.94798182451989 lineto
197.19406306406546 -59.94798182451989 lineto
199.10350098624986 -64.83720003357331 lineto
closepath
fill
newpath
1.0 setlinewidth
10.0 setmiterlimit
1 setlinejoin
1 setlinecap
[ ] 0 setdash
newpath
200.02738703971738 -67.6562087306852 moveto
200.02738703971738 -67.24877387993075 lineto
200.8422567412263 -67.24877387993075 lineto
200.8422567412263 -64.0333420847875 lineto
200.02738703971738 -64.23705951016473 lineto
200.02738703971738 -63.818612906687186 lineto
201.3873385010194 -63.48000151045207 lineto
201.3873385010194 -67.24877387993075 lineto
202.2022082025283 -67.24877387993075 lineto
202.2022082025283 -67.6562087306852 lineto
closepath
fill
newpath
0.0 0.0 0.0 setrgbcolor
1.0 setlinewidth
10.0 setmiterlimit
1 setlinejoin
1 setlinecap
[ ] 0 setdash
newpath
159.9468094782024 -141.2752815609254 moveto
159.9468094782024 -139.84925958328483 lineto
166.98442064353134 -139.84925958328483 lineto
166.98442064353134 -141.2752815609254 lineto
closepath
fill
newpath
0.0 0.0 0.0 setrgbcolor
1.0 setlinewidth
10.0 setmiterlimit
1 setlinejoin
1 setlinecap
[ ] 0 setdash
newpath
61.99176312992601 -116.1431583210096 moveto
61.99176312992601 -112.24279550648994 lineto
58.09140031540636 -112.24279550648994 lineto
58.09140031540636 -110.90927225172335 lineto
61.99176312992601 -110.90927225172335 lineto
61.99176312992601 -107.01661766410987 lineto
63.3252863846926 -107.01661766410987 lineto
63.3252863846926 -110.90927225172335 lineto
67.21794097230608 -110.90927225172335 lineto
67.21794097230608 -112.24279550648994 lineto
63.3252863846926 -112.24279550648994 lineto
63.3252863846926 -116.1431583210096 lineto
closepath
fill
newpath
0.0 0.0 0.0 setrgbcolor
1.0 setlinewidth
10.0 setmiterlimit
1 setlinejoin
1 setlinecap
[ ] 0 setdash
newpath
105.40449706544901 -86.825467871046 moveto
105.40449706544901 -82.92510505652636 lineto
101.50413425092937 -82.92510505652636 lineto
101.50413425092937 -81.59158180175976 lineto
105.40449706544901 -81.59158180175976 lineto
105.40449706544901 -77.69892721414628 lineto
106.73802032021561 -77.69892721414628 lineto
106.73802032021561 -81.59158180175976 lineto
110.63067490782909 -81.59158180175976 lineto
110.63067490782909 -82.92510505652636 lineto
106.73802032021561 -82.92510505652636 lineto
106.73802032021561 -86.825467871046 lineto
closepath
fill
newpath
0.0 0.0 0.0 setrgbcolor
1.0 setlinewidth
10.0 setmiterlimit
1 setlinejoin
1 setlinecap
[ ] 0 setdash
newpath
233.9512936537509 -102.04811483545018 moveto
233.9512936537509 -98.14775202093053 lineto
230.05093083923126 -98.14775202093053 lineto
230.05093083923126 -96.81422876616394 lineto
233.9512936537509 -96.81422876616394 lineto
233.9512936537509 -92.92157417855046 lineto
235.28481690851748 -92.92157417855046 lineto
235.28481690851748 -96.81422876616394 lineto
239.17747149613098 -96.81422876616394 lineto
239.17747149613098 -98.14775202093053 lineto
235.28481690851748 -98.14775202093053 lineto
235.28481690851748 -102.04811483545018 lineto
closepath
fill
newpath
grestore
grestore
showpage

%%EOF