%!PS-Adobe-3.0 EPSF-3.0
%%Creator: EpsGraphics 1.0.0 by Thomas Abeel, http://www.sourceforge.net/epsgraphics/
%%Title: GeoGebra, http://www.geogebra.org/
%%CreationDate: Wed Jun 27 15:20:30 CEST 2012
%%BoundingBox: 0 0 251 201
%%DocumentData: Clean7Bit
%%LanguageLevel: 2
%%DocumentProcessColors: Black
%%ColorUsage: Color
%%Origin: 0 0
%%Pages: 1
%%Page: 1 1
%%EndComments

gsave
0.0 201.0 translate
0.0 0.0 0.0 setrgbcolor
0.0 0.0 0.0 setrgbcolor
gsave
newpath
0.0 -0.0 moveto
251.73186935404664 -0.0 lineto
251.73186935404664 -201.04474168377328 lineto
0.0 -201.04474168377328 lineto
0.0 -0.0 lineto
closepath
clip
newpath
1.0 1.0 1.0 setrgbcolor
newpath
0.0 -0.0 moveto
251.73186935404664 -0.0 lineto
251.73186935404664 -201.04474168377328 lineto
0.0 -201.04474168377328 lineto
0.0 -0.0 lineto
closepath
fill
newpath
0.0 0.0 0.0 setrgbcolor
1.0 setlinewidth
10.0 setmiterlimit
0 setlinejoin
0 setlinecap
[ ] 0 setdash
newpath
13.284712814354245 -148.14356620148249 moveto
13.284712814354245 -149.8473351988026 lineto
stroke
newpath
1.0 setlinewidth
10.0 setmiterlimit
0 setlinejoin
0 setlinecap
[ ] 0 setdash
newpath
41.63116950726763 -148.14356620148249 moveto
41.63116950726763 -149.8473351988026 lineto
stroke
newpath
1.0 setlinewidth
10.0 setmiterlimit
0 setlinejoin
0 setlinecap
[ ] 0 setdash
newpath
69.97762620018102 -148.14356620148249 moveto
69.97762620018102 -149.8473351988026 lineto
stroke
newpath
1.0 setlinewidth
10.0 setmiterlimit
0 setlinejoin
0 setlinecap
[ ] 0 setdash
newpath
98.3240828930944 -148.14356620148249 moveto
98.3240828930944 -149.8473351988026 lineto
stroke
newpath
1.0 setlinewidth
10.0 setmiterlimit
0 setlinejoin
0 setlinecap
[ ] 0 setdash
newpath
126.67053958600778 -148.14356620148249 moveto
126.67053958600778 -149.8473351988026 lineto
stroke
newpath
1.0 setlinewidth
10.0 setmiterlimit
0 setlinejoin
0 setlinecap
[ ] 0 setdash
newpath
155.01699627892114 -148.14356620148249 moveto
155.01699627892114 -149.8473351988026 lineto
stroke
newpath
1.0 setlinewidth
10.0 setmiterlimit
0 setlinejoin
0 setlinecap
[ ] 0 setdash
newpath
183.36345297183453 -148.14356620148249 moveto
183.36345297183453 -149.8473351988026 lineto
stroke
newpath
1.0 setlinewidth
10.0 setmiterlimit
0 setlinejoin
0 setlinecap
[ ] 0 setdash
newpath
211.70990966474793 -148.14356620148249 moveto
211.70990966474793 -149.8473351988026 lineto
stroke
newpath
1.0 setlinewidth
10.0 setmiterlimit
0 setlinejoin
0 setlinecap
[ ] 0 setdash
newpath
240.05636635766132 -148.14356620148249 moveto
240.05636635766132 -149.8473351988026 lineto
stroke
newpath
1.0 setlinewidth
10.0 setmiterlimit
0 setlinejoin
0 setlinecap
[ ] 0 setdash
newpath
0.0 -148.14356620148249 moveto
250.8799848553866 -148.14356620148249 lineto
stroke
newpath
1.0 setlinewidth
10.0 setmiterlimit
0 setlinejoin
0 setlinecap
[ ] 0 setdash
newpath
251.30592710471663 -148.3565373261475 moveto
250.02810035672653 -146.8657394534924 lineto
stroke
newpath
1.0 setlinewidth
10.0 setmiterlimit
0 setlinejoin
0 setlinecap
[ ] 0 setdash
newpath
251.30592710471663 -147.93059507681747 moveto
250.02810035672653 -149.42139294947256 lineto
stroke
newpath
1.0 setlinewidth
10.0 setmiterlimit
0 setlinejoin
0 setlinecap
[ ] 0 setdash
newpath
68.27385720286091 -176.49002289439588 moveto
69.97762620018102 -176.49002289439588 lineto
stroke
newpath
1.0 setlinewidth
10.0 setmiterlimit
0 setlinejoin
0 setlinecap
[ ] 0 setdash
newpath
68.27385720286091 -148.14356620148246 moveto
69.97762620018102 -148.14356620148246 lineto
stroke
newpath
1.0 setlinewidth
10.0 setmiterlimit
0 setlinejoin
0 setlinecap
[ ] 0 setdash
newpath
68.27385720286091 -119.79710950856906 moveto
69.97762620018102 -119.79710950856906 lineto
stroke
newpath
1.0 setlinewidth
10.0 setmiterlimit
0 setlinejoin
0 setlinecap
[ ] 0 setdash
newpath
68.27385720286091 -91.45065281565567 moveto
69.97762620018102 -91.45065281565567 lineto
stroke
newpath
1.0 setlinewidth
10.0 setmiterlimit
0 setlinejoin
0 setlinecap
[ ] 0 setdash
newpath
68.27385720286091 -63.10419612274228 moveto
69.97762620018102 -63.10419612274228 lineto
stroke
newpath
1.0 setlinewidth
10.0 setmiterlimit
0 setlinejoin
0 setlinecap
[ ] 0 setdash
newpath
68.27385720286091 -34.75773942982889 moveto
69.97762620018102 -34.75773942982889 lineto
stroke
newpath
1.0 setlinewidth
10.0 setmiterlimit
0 setlinejoin
0 setlinecap
[ ] 0 setdash
newpath
68.27385720286091 -6.411282736915496 moveto
69.97762620018102 -6.411282736915496 lineto
stroke
newpath
1.0 setlinewidth
10.0 setmiterlimit
0 setlinejoin
0 setlinecap
[ ] 0 setdash
newpath
69.97762620018102 -0.8518844986600563 moveto
69.97762620018102 -201.04474168377328 lineto
stroke
newpath
1.0 setlinewidth
10.0 setmiterlimit
0 setlinejoin
0 setlinecap
[ ] 0 setdash
newpath
70.19059732484602 -0.42594224933002817 moveto
68.69979945219093 -1.7037689973201127 lineto
stroke
newpath
1.0 setlinewidth
10.0 setmiterlimit
0 setlinejoin
0 setlinecap
[ ] 0 setdash
newpath
69.764655075516 -0.42594224933002817 moveto
71.2554529481711 -1.7037689973201127 lineto
stroke
newpath
0.0 0.0 0.0 setrgbcolor
1.0 setlinewidth
10.0 setmiterlimit
1 setlinejoin
1 setlinecap
[ ] 0 setdash
newpath
126.67054280969177 -140.58450896891281 moveto
127.33490768894157 -140.31563032427806 lineto
127.99928556691725 -140.0404602963219 lineto
128.66365044616705 -139.75890789396325 lineto
129.32801532541686 -139.47090812357274 lineto
129.99239320339254 -139.17639599152102 lineto
130.65675808264237 -138.87528050672702 lineto
131.32113596061805 -138.56750967428724 lineto
131.98550083986785 -138.25299250312057 lineto
132.64986571911766 -137.93166399959767 lineto
133.31424359709334 -137.60344617136332 lineto
133.97860847634314 -137.26827402478816 lineto
134.64298635431882 -136.92606956751698 lineto
135.30735123356862 -136.57675480719453 lineto
135.97171611281843 -136.22026475019146 lineto
136.6360939907941 -135.85653440287845 lineto
137.30045887004394 -135.48547277417438 lineto
137.96483674801962 -135.10701487044992 lineto
138.62920162726942 -134.72108269934978 lineto
139.29356650651923 -134.32762426597057 lineto
139.9579443844949 -133.92653558050526 lineto
140.6223092637447 -133.51776464805036 lineto
141.2866871417204 -133.1012334762507 lineto
141.9510520209702 -132.67686407275104 lineto
142.61541690022003 -132.244591443922 lineto
143.27979477819568 -131.80433759740836 lineto
143.9441596574455 -131.35602454085492 lineto
144.6085375354212 -130.89960027935817 lineto
145.272902414671 -130.43496082311117 lineto
145.9372672939208 -129.9620541772104 lineto
146.60164517189648 -129.4808023493007 lineto
147.26601005114628 -128.99114034575265 lineto
147.93038792912196 -128.4929771754852 lineto
148.59475280837177 -127.98624784486897 lineto
149.2591176876216 -127.47088736027462 lineto
149.92349556559728 -126.94681772934693 lineto
150.58786044484708 -126.41396095973066 lineto
151.25223832282276 -125.87225205779647 lineto
151.91660320207257 -125.32161303118913 lineto
152.58096808132237 -124.76197888627928 lineto
153.24534595929805 -124.19325863198584 lineto
153.90971083854785 -123.61538727467946 lineto
154.57408871652353 -123.02829982073077 lineto
155.23845359577334 -122.43191827778455 lineto
155.90281847502317 -121.82617765221146 lineto
156.56719635299885 -121.21098695293037 lineto
157.23156123224865 -120.58629418503784 lineto
157.89593911022433 -119.95200835745275 lineto
158.56030398947414 -119.30806447654577 lineto
159.22466886872394 -118.65438454996165 lineto
159.88904674669962 -117.99090358407105 lineto
160.55341162594942 -117.31754358651874 lineto
161.2177895039251 -116.63422656494949 lineto
161.8821543831749 -115.94090052445983 lineto
162.54651926242474 -115.2374614752428 lineto
163.21089714040042 -114.5238574223949 lineto
163.87526201965022 -113.80001037356092 lineto
164.5396398976259 -113.0658553351115 lineto
165.2040047768757 -112.32130131596554 lineto
165.8683696561255 -111.56629632121957 lineto
166.5327475341012 -110.80074935979249 lineto
167.197112413351 -110.02459543805494 lineto
167.86149029132667 -109.2377565636517 lineto
168.5258551705765 -108.44016774295342 lineto
169.1902200498263 -107.63175748296781 lineto
169.854597927802 -106.81244129197671 lineto
170.5189628070518 -105.98215417635078 lineto
171.18334068502747 -105.14081814373476 lineto
171.84770556427728 -104.2883617011364 lineto
172.51207044352708 -103.42471985492632 lineto
173.17644832150276 -102.54980811338638 lineto
173.84081320075256 -101.66356148288722 lineto
174.50519107872825 -100.76590847043654 lineto
175.16955595797808 -99.8567645843162 lineto
175.83392083722788 -98.93606483089683 lineto
176.49829871520356 -98.00373771718614 lineto
177.16266359445336 -97.05970525082893 lineto
177.82704147242904 -96.10390243819582 lineto
178.49140635167885 -95.13624478756866 lineto
179.15577123092865 -94.15666730531811 lineto
179.82014910890433 -93.16509849845185 lineto
180.48451398815413 -92.16146037461469 lineto
181.14889186612982 -91.14567494145139 lineto
181.81325674537965 -90.11768370469554 lineto
182.47762162462945 -89.07740217262896 lineto
183.14199950260513 -88.02476535162232 lineto
183.80636438185493 -86.95969524932038 lineto
184.47074225983062 -85.88211387336793 lineto
185.13510713908042 -84.7919562301356 lineto
185.79947201833022 -83.68915082663112 lineto
186.4638498963059 -82.57361967049926 lineto
187.12821477555573 -81.44528476938477 lineto
187.7925926535314 -80.30408762902128 lineto
188.45695753278122 -79.1499437576906 lineto
189.12132241203102 -77.98278166240044 lineto
189.7857002900067 -76.80252985015852 lineto
190.4500651692565 -75.60911682797254 lineto
191.1144430472322 -74.40247110285023 lineto
191.778807926482 -73.18251468243636 lineto
192.4431728057318 -71.94917607373864 lineto
193.10755068370747 -70.70238378376477 lineto
193.7719155629573 -69.44205982015954 lineto
194.43629344093299 -68.16813918929358 lineto
195.1006583201828 -66.8805438988117 lineto
195.7650231994326 -65.57920245572157 lineto
196.42940107740827 -64.26404336703094 lineto
197.09376595665807 -62.934995139747485 lineto
197.75814383463376 -61.59197328215307 lineto
198.42250871388356 -60.234919299981264 lineto
199.0868735931334 -58.86374870151392 lineto
199.75125147110904 -57.47839649312168 lineto
200.41561635035887 -56.07879118181224 lineto
201.07999422833456 -54.66484827586746 lineto
201.74435910758436 -53.23650928102092 lineto
202.40872398683416 -51.793689705554456 lineto
203.07310186480984 -50.336321306157245 lineto
203.73746674405965 -48.864329340155535 lineto
204.40184462203533 -47.377642314557036 lineto
205.06620950128513 -45.87618873636946 lineto
205.73057438053496 -44.359893862919044 lineto
206.39495225851064 -42.828682951532045 lineto
207.05931713776044 -41.28248450921616 lineto
207.72369501573613 -39.72122704297911 lineto
208.38805989498593 -38.144835810147136 lineto
209.05242477423573 -36.55323931772794 lineto
209.7168026522114 -34.946362823047785 lineto
210.38116753146122 -33.32413483311437 lineto
211.0455454094369 -31.68648060525394 lineto
211.7099102886867 -30.033328646474207 lineto
stroke
newpath
0.6 0.2 0.0 setrgbcolor
2.0 setlinewidth
10.0 setmiterlimit
1 setlinejoin
1 setlinecap
[ ] 0 setdash
newpath
155.01699627892117 -122.63175517786044 moveto
155.01699627892117 -148.14356620148249 lineto
stroke
newpath
0.6 0.2 0.0 setrgbcolor
2.0 setlinewidth
10.0 setmiterlimit
1 setlinejoin
1 setlinecap
[ ] 0 setdash
newpath
183.36345297183456 -122.63175517786044 moveto
155.01699627892117 -122.63175517786044 lineto
stroke
newpath
0.6 0.2 0.0 setrgbcolor
2.0 setlinewidth
10.0 setmiterlimit
1 setlinejoin
1 setlinecap
[ ] 0 setdash
newpath
183.36345297183456 -148.14356620148249 moveto
183.36345297183456 -122.63175517786044 lineto
stroke
newpath
0.6 0.2 0.0 setrgbcolor
2.0 setlinewidth
10.0 setmiterlimit
1 setlinejoin
1 setlinecap
[ ] 0 setdash
newpath
155.01699627892117 -148.14356620148249 moveto
183.36345297183456 -148.14356620148249 lineto
stroke
newpath
0.6 0.2 0.0 setrgbcolor
2.0 setlinewidth
10.0 setmiterlimit
1 setlinejoin
1 setlinecap
[ ] 0 setdash
newpath
155.01699627892117 -87.67112525660059 moveto
155.01699627892117 -148.14356620148249 lineto
stroke
newpath
0.6 0.2 0.0 setrgbcolor
2.0 setlinewidth
10.0 setmiterlimit
1 setlinejoin
1 setlinecap
[ ] 0 setdash
newpath
183.36345297183456 -87.67112525660059 moveto
155.01699627892117 -87.67112525660059 lineto
stroke
newpath
0.6 0.2 0.0 setrgbcolor
2.0 setlinewidth
10.0 setmiterlimit
1 setlinejoin
1 setlinecap
[ ] 0 setdash
newpath
183.36345297183456 -148.14356620148249 moveto
183.36345297183456 -87.67112525660059 lineto
stroke
newpath
0.6 0.2 0.0 setrgbcolor
2.0 setlinewidth
10.0 setmiterlimit
1 setlinejoin
1 setlinecap
[ ] 0 setdash
newpath
155.01699627892117 -148.14356620148249 moveto
183.36345297183456 -148.14356620148249 lineto
stroke
newpath
0.0 0.0 0.0 setrgbcolor
1.0 setlinewidth
10.0 setmiterlimit
1 setlinejoin
0 setlinecap
[ 5.0 4.0 ] 0 setdash
newpath
155.01699627892117 -122.63175517786044 moveto
69.97762620018102 -122.63175517786044 lineto
stroke
newpath
0.0 0.0 0.0 setrgbcolor
1.0 setlinewidth
10.0 setmiterlimit
1 setlinejoin
0 setlinecap
[ 5.0 4.0 ] 0 setdash
newpath
155.01699627892117 -87.67112525660059 moveto
69.97762620018102 -87.67112525660059 lineto
stroke
newpath
0.2509804 0.2509804 0.2509804 setrgbcolor
1.0 setlinewidth
10.0 setmiterlimit
1 setlinejoin
0 setlinecap
[ 5.0 4.0 ] 0 setdash
newpath
156.32080550412033 -122.67136780704811 moveto
156.32080550412033 -123.37709203288891 155.74870298197104 -123.94919455503819 155.04297875613025 -123.94919455503819 curveto
154.33725453028947 -123.94919455503819 153.76515200814018 -123.37709203288891 153.76515200814018 -122.67136780704811 curveto
153.76515200814018 -121.96564358120732 154.33725453028947 -121.39354105905802 155.04297875613025 -121.39354105905802 curveto
155.74870298197104 -121.39354105905802 156.32080550412033 -121.96564358120732 156.32080550412033 -122.67136780704811 curveto
closepath
fill
newpath
0.0 0.0 0.0 setrgbcolor
1.0 setlinewidth
10.0 setmiterlimit
1 setlinejoin
1 setlinecap
[ ] 0 setdash
newpath
156.32080550412033 -122.67136780704811 moveto
156.32080550412033 -123.37709203288891 155.74870298197104 -123.94919455503819 155.04297875613025 -123.94919455503819 curveto
154.33725453028947 -123.94919455503819 153.76515200814018 -123.37709203288891 153.76515200814018 -122.67136780704811 curveto
153.76515200814018 -121.96564358120732 154.33725453028947 -121.39354105905802 155.04297875613025 -121.39354105905802 curveto
155.74870298197104 -121.39354105905802 156.32080550412033 -121.96564358120732 156.32080550412033 -122.67136780704811 curveto
closepath
stroke
newpath
0.2509804 0.2509804 0.2509804 setrgbcolor
1.0 setlinewidth
10.0 setmiterlimit
1 setlinejoin
1 setlinecap
[ ] 0 setdash
newpath
184.4329939599022 -87.74410336198581 moveto
184.4329939599022 -88.4498275878266 183.8608914377529 -89.02193010997588 183.1551672119121 -89.02193010997588 curveto
182.44944298607132 -89.02193010997588 181.87734046392202 -88.4498275878266 181.87734046392202 -87.74410336198581 curveto
181.87734046392202 -87.03837913614501 182.44944298607132 -86.46627661399572 183.1551672119121 -86.46627661399572 curveto
183.8608914377529 -86.46627661399572 184.4329939599022 -87.03837913614501 184.4329939599022 -87.74410336198581 curveto
closepath
fill
newpath
0.0 0.0 0.0 setrgbcolor
1.0 setlinewidth
10.0 setmiterlimit
1 setlinejoin
1 setlinecap
[ ] 0 setdash
newpath
184.4329939599022 -87.74410336198581 moveto
184.4329939599022 -88.4498275878266 183.8608914377529 -89.02193010997588 183.1551672119121 -89.02193010997588 curveto
182.44944298607132 -89.02193010997588 181.87734046392202 -88.4498275878266 181.87734046392202 -87.74410336198581 curveto
181.87734046392202 -87.03837913614501 182.44944298607132 -86.46627661399572 183.1551672119121 -86.46627661399572 curveto
183.8608914377529 -86.46627661399572 184.4329939599022 -87.03837913614501 184.4329939599022 -87.74410336198581 curveto
closepath
stroke
newpath
0.2509804 0.2509804 0.2509804 setrgbcolor
1.0 setlinewidth
10.0 setmiterlimit
1 setlinejoin
1 setlinecap
[ ] 0 setdash
newpath
156.32080550412033 -87.74410336198581 moveto
156.32080550412033 -88.4498275878266 155.74870298197104 -89.02193010997588 155.04297875613025 -89.02193010997588 curveto
154.33725453028947 -89.02193010997588 153.76515200814018 -88.4498275878266 153.76515200814018 -87.74410336198581 curveto
153.76515200814018 -87.03837913614501 154.33725453028947 -86.46627661399572 155.04297875613025 -86.46627661399572 curveto
155.74870298197104 -86.46627661399572 156.32080550412033 -87.03837913614501 156.32080550412033 -87.74410336198581 curveto
closepath
fill
newpath
0.0 0.0 0.0 setrgbcolor
1.0 setlinewidth
10.0 setmiterlimit
1 setlinejoin
1 setlinecap
[ ] 0 setdash
newpath
156.32080550412033 -87.74410336198581 moveto
156.32080550412033 -88.4498275878266 155.74870298197104 -89.02193010997588 155.04297875613025 -89.02193010997588 curveto
154.33725453028947 -89.02193010997588 153.76515200814018 -88.4498275878266 153.76515200814018 -87.74410336198581 curveto
153.76515200814018 -87.03837913614501 154.33725453028947 -86.46627661399572 155.04297875613025 -86.46627661399572 curveto
155.74870298197104 -86.46627661399572 156.32080550412033 -87.03837913614501 156.32080550412033 -87.74410336198581 curveto
closepath
stroke
newpath
0.2509804 0.2509804 0.2509804 setrgbcolor
1.0 setlinewidth
10.0 setmiterlimit
1 setlinejoin
1 setlinecap
[ ] 0 setdash
newpath
184.4329939599022 -122.67136780704811 moveto
184.4329939599022 -123.37709203288891 183.8608914377529 -123.94919455503819 183.1551672119121 -123.94919455503819 curveto
182.44944298607132 -123.94919455503819 181.87734046392202 -123.37709203288891 181.87734046392202 -122.67136780704811 curveto
181.87734046392202 -121.96564358120732 182.44944298607132 -121.39354105905802 183.1551672119121 -121.39354105905802 curveto
183.8608914377529 -121.39354105905802 184.4329939599022 -121.96564358120732 184.4329939599022 -122.67136780704811 curveto
closepath
fill
newpath
0.0 0.0 0.0 setrgbcolor
1.0 setlinewidth
10.0 setmiterlimit
1 setlinejoin
1 setlinecap
[ ] 0 setdash
newpath
184.4329939599022 -122.67136780704811 moveto
184.4329939599022 -123.37709203288891 183.8608914377529 -123.94919455503819 183.1551672119121 -123.94919455503819 curveto
182.44944298607132 -123.94919455503819 181.87734046392202 -123.37709203288891 181.87734046392202 -122.67136780704811 curveto
181.87734046392202 -121.96564358120732 182.44944298607132 -121.39354105905802 183.1551672119121 -121.39354105905802 curveto
183.8608914377529 -121.39354105905802 184.4329939599022 -121.96564358120732 184.4329939599022 -122.67136780704811 curveto
closepath
stroke
newpath
0.0 0.0 0.0 setrgbcolor
1.0 setlinewidth
10.0 setmiterlimit
1 setlinejoin
1 setlinecap
[ ] 0 setdash
newpath
151.8550672338008 -160.58022799742062 moveto
152.88581420044127 -159.1801092364393 lineto
151.88501629820684 -157.869837668676 lineto
152.4690230541242 -157.869837668676 lineto
153.26017750551648 -158.9130634121523 lineto
153.97645929589373 -157.869837668676 lineto
154.45564432639003 -157.869837668676 lineto
153.5172403083348 -159.24499887598566 lineto
154.53800425350656 -160.58022799742062 lineto
153.95399749758923 -160.58022799742062 lineto
153.13788549252524 -159.5070531895383 lineto
152.34922679650012 -160.58022799742062 lineto
closepath
fill
newpath
1.0 setlinewidth
10.0 setmiterlimit
1 setlinejoin
1 setlinecap
[ ] 0 setdash
newpath
155.17982934209664 -162.70993924407077 moveto
155.17982934209664 -159.42594114010535 lineto
155.58954918154006 -159.42594114010535 lineto
155.58954918154006 -161.54733320219827 lineto
156.5462554056212 -160.4512806367836 lineto
156.98717218715421 -160.4512806367836 lineto
156.07414168199855 -161.50573727941213 lineto
157.17643363583116 -162.70993924407077 lineto
156.65232500872582 -162.70993924407077 lineto
155.58954918154006 -161.55149279447687 lineto
155.58954918154006 -162.70993924407077 lineto
closepath
fill
newpath
0.0 0.0 0.0 setrgbcolor
1.0 setlinewidth
10.0 setmiterlimit
1 setlinejoin
1 setlinecap
[ ] 0 setdash
newpath
177.4116021936025 -161.00617024675066 moveto
178.44234916024294 -159.6060514857693 lineto
177.44155125800853 -158.29577991800605 lineto
178.02555801392586 -158.29577991800605 lineto
178.81671246531818 -159.33900566148233 lineto
179.53299425569543 -158.29577991800605 lineto
180.0121792861917 -158.29577991800605 lineto
179.0737752681365 -159.6709411253157 lineto
180.09453921330825 -161.00617024675066 lineto
179.51053245739092 -161.00617024675066 lineto
178.69442045232694 -159.93299543886835 lineto
177.9057617563018 -161.00617024675066 lineto
closepath
fill
newpath
1.0 setlinewidth
10.0 setmiterlimit
1 setlinejoin
1 setlinecap
[ ] 0 setdash
newpath
180.73636430189833 -163.13588149340077 moveto
180.73636430189833 -159.8518833894354 lineto
181.14608414134176 -159.8518833894354 lineto
181.14608414134176 -161.9732754515283 lineto
182.1027903654229 -160.87722288611363 lineto
182.5437071469559 -160.87722288611363 lineto
181.63067664180025 -161.93167952874217 lineto
182.73296859563283 -163.13588149340077 lineto
182.20885996852752 -163.13588149340077 lineto
181.14608414134176 -161.9774350438069 lineto
181.14608414134176 -163.13588149340077 lineto
closepath
184.3552095842921 -163.13588149340077 moveto
184.3552095842921 -162.05854709323987 lineto
183.2778751841312 -162.05854709323987 lineto
183.2778751841312 -161.75073726462247 lineto
184.3552095842921 -161.75073726462247 lineto
184.3552095842921 -160.67340286446156 lineto
184.66301941290953 -160.67340286446156 lineto
184.66301941290953 -161.75073726462247 lineto
185.74035381307044 -161.75073726462247 lineto
185.74035381307044 -162.05854709323987 lineto
184.66301941290953 -162.05854709323987 lineto
184.66301941290953 -163.13588149340077 lineto
closepath
186.84264576690302 -163.13588149340077 moveto
186.84264576690302 -162.82807166478338 lineto
187.45826542413783 -162.82807166478338 lineto
187.45826542413783 -160.39886977407306 lineto
186.84264576690302 -160.55277468838176 lineto
186.84264576690302 -160.23664567520714 lineto
187.8700650597206 -159.9808307500724 lineto
187.8700650597206 -162.82807166478338 lineto
188.48568471695538 -162.82807166478338 lineto
188.48568471695538 -163.13588149340077 lineto
closepath
fill
newpath
0.0 0.0 0.0 setrgbcolor
1.0 setlinewidth
10.0 setmiterlimit
1 setlinejoin
1 setlinecap
[ ] 0 setdash
newpath
50.061524991569875 -123.73788726728463 moveto
50.061524991569875 -126.07890580168834 lineto
49.56736542887058 -126.07890580168834 lineto
49.56736542887058 -123.73788726728463 lineto
49.18301910232669 -123.73788726728463 lineto
49.18301910232669 -123.36851547294374 lineto
49.56736542887058 -123.36851547294374 lineto
49.56736542887058 -123.04406727521189 lineto
49.56736542887058 -122.39849853433162 49.86186457097318 -122.07571419275065 50.4508628288481 -122.07571419275065 curveto
50.61558268799023 -122.07571419275065 50.80276433874274 -122.10316750260768 51.01240778646093 -122.1580741198672 curveto
51.01240778646093 -122.54741195714543 lineto
50.79111747064373 -122.47919464174313 50.61391884418631 -122.44508598709153 50.48081189325412 -122.44508598709153 curveto
50.31941970803405 -122.44508598709153 50.2091905165805 -122.48377019643551 50.15012430710434 -122.56113861166486 curveto
50.09105809498772 -122.63850703035283 50.061524991569875 -122.78201296478316 50.061524991569875 -122.99165641250136 curveto
50.061524991569875 -123.36851547294374 lineto
50.73787469607244 -123.36851547294374 lineto
50.73787469607244 -123.73788726728463 lineto
closepath
52.340149641794376 -126.47822666043524 moveto
52.340149641794376 -126.81764939037011 lineto
51.980760858211546 -126.57306535709846 51.69582879470081 -126.24071393506614 51.48535342853929 -125.82059512118643 curveto
51.274878052968795 -125.40047628852595 51.169640374592525 -124.95248820554896 51.169640374592525 -124.47663085596639 curveto
51.169640374592525 -124.00243732207238 51.27487806237777 -123.55528115999323 51.48535342853929 -123.13516234611352 curveto
51.695828804109794 -122.71504351345304 51.98076087427748 -122.38269209926774 52.340149641794376 -122.13810807692985 curveto
52.340149641794376 -122.47753080686472 lineto
52.095565608522726 -122.74374472062978 51.92127869778842 -123.02992466602653 51.81728889237265 -123.33607065317055 curveto
51.713299082308176 -123.64221665400038 51.66130418192465 -124.02240338591031 51.66130418192465 -124.47663085596639 curveto
51.66130418192465 -124.93252218328907 51.71329908695689 -125.31354082698537 51.81728889237265 -125.6196868141294 curveto
51.92127870243713 -125.92583281495922 52.09556561945649 -126.21201275857086 52.340149641794376 -126.47822666043524 curveto
closepath
52.744462011275616 -126.07890580168834 moveto
53.77520897791606 -124.67878704070701 lineto
52.774411075681634 -123.36851547294374 lineto
53.35841783159898 -123.36851547294374 lineto
54.14957228299128 -124.41174121642003 lineto
54.86585407336853 -123.36851547294374 lineto
55.34503910386481 -123.36851547294374 lineto
54.4066350858096 -124.74367668025339 lineto
55.42739903098136 -126.07890580168834 lineto
54.84339227506402 -126.07890580168834 lineto
54.027280270000034 -125.00573099380604 lineto
53.23862157397491 -126.07890580168834 lineto
closepath
fill
newpath
1.0 setlinewidth
10.0 setmiterlimit
1 setlinejoin
1 setlinecap
[ ] 0 setdash
newpath
56.06922411957143 -128.20861704833848 moveto
56.06922411957143 -124.92461894437308 lineto
56.47894395901487 -124.92461894437308 lineto
56.47894395901487 -127.04601100646599 lineto
57.43565018309599 -125.94995844105132 lineto
57.87656696462902 -125.94995844105132 lineto
56.963536459473346 -127.00441508367986 lineto
58.06582841330594 -128.20861704833848 lineto
57.54171978620063 -128.20861704833848 lineto
56.47894395901487 -127.0501705987446 lineto
56.47894395901487 -128.20861704833848 lineto
closepath
fill
newpath
1.0 setlinewidth
10.0 setmiterlimit
1 setlinejoin
1 setlinecap
[ ] 0 setdash
newpath
58.33370615604865 -126.47822666043524 moveto
58.33370615604865 -126.81764939037011 lineto
58.69309493963148 -126.57306535709846 58.97802700314222 -126.24071393506614 59.18850236930374 -125.82059512118643 curveto
59.39897774487424 -125.40047628852595 59.50421542325051 -124.95248820554896 59.50421542325051 -124.47663085596639 curveto
59.50421542325051 -124.00243732207238 59.39897773546526 -123.55528115999323 59.18850236930374 -123.13516234611352 curveto
58.97802699373324 -122.71504351345304 58.69309492356555 -122.38269209926774 58.33370615604865 -122.13810807692985 curveto
58.33370615604865 -122.47753080686472 lineto
58.5782901893203 -122.74374472062978 58.75257710005461 -123.02992466602653 58.85656690547037 -123.33607065317055 curveto
58.96055671553485 -123.64221665400038 59.01255161591838 -124.02240338591031 59.01255161591838 -124.47663085596639 curveto
59.01255161591838 -124.93252218328907 58.960556710886145 -125.31354082698537 58.85656690547037 -125.6196868141294 curveto
58.7525770954059 -125.92583281495922 58.578290178386546 -126.21201275857086 58.33370615604865 -126.47822666043524 curveto
closepath
fill
newpath
0.0 0.0 0.0 setrgbcolor
1.0 setlinewidth
10.0 setmiterlimit
1 setlinejoin
1 setlinecap
[ ] 0 setdash
newpath
44.52427575027951 -86.68091157557218 moveto
44.52427575027951 -89.02193010997588 lineto
44.03011618758022 -89.02193010997588 lineto
44.03011618758022 -86.68091157557218 lineto
43.64576986103632 -86.68091157557218 lineto
43.64576986103632 -86.31153978123129 lineto
44.03011618758022 -86.31153978123129 lineto
44.03011618758022 -85.98709158349943 lineto
44.03011618758022 -85.34152284261917 44.324615329682814 -85.0187385010382 44.913613587557734 -85.0187385010382 curveto
45.078333446699865 -85.0187385010382 45.26551509745237 -85.04619181089522 45.475158545170565 -85.10109842815474 curveto
45.475158545170565 -85.49043626543298 lineto
45.25386822935336 -85.42221895003068 45.07666960289594 -85.38811029537908 44.94356265196375 -85.38811029537908 curveto
44.782170466743686 -85.38811029537908 44.67194127529014 -85.42679450472306 44.612875065813974 -85.5041629199524 curveto
44.553808853697355 -85.58153133864037 44.52427575027951 -85.72503727307071 44.52427575027951 -85.9346807207889 curveto
44.52427575027951 -86.31153978123129 lineto
45.20062545478207 -86.31153978123129 lineto
45.20062545478207 -86.68091157557218 lineto
closepath
46.802900400504015 -89.42125096872279 moveto
46.802900400504015 -89.76067369865765 lineto
46.443511616921185 -89.516089665386 46.15857955341045 -89.1837382433537 45.94810418724893 -88.76361942947399 curveto
45.73762881167843 -88.3435005968135 45.63239113330216 -87.89551251383651 45.63239113330216 -87.41965516425394 curveto
45.63239113330216 -86.94546163035993 45.73762882108741 -86.49830546828079 45.94810418724893 -86.07818665440108 curveto
46.158579562819426 -85.65806782174059 46.44351163298711 -85.32571640755529 46.802900400504015 -85.0811323852174 curveto
46.802900400504015 -85.42055511515227 lineto
46.558316367232365 -85.68676902891733 46.38402945649806 -85.97294897431408 46.28003965108229 -86.27909496145811 curveto
46.176049841017814 -86.58524096228793 46.12405494063428 -86.96542769419786 46.12405494063428 -87.41965516425394 curveto
46.12405494063428 -87.87554649157661 46.17604984566652 -88.25656513527292 46.28003965108229 -88.56271112241696 curveto
46.38402946114677 -88.86885712324677 46.558316378166126 -89.15503706685841 46.802900400504015 -89.42125096872279 curveto
closepath
47.20721276998525 -89.02193010997588 moveto
48.23795973662569 -87.62181134899457 lineto
47.237161834391266 -86.31153978123129 lineto
47.82116859030861 -86.31153978123129 lineto
48.61232304170091 -87.35476552470757 lineto
49.32860483207816 -86.31153978123129 lineto
49.807789862574445 -86.31153978123129 lineto
48.86938584451923 -87.68670098854093 lineto
49.890149789690994 -89.02193010997588 lineto
49.30614303377365 -89.02193010997588 lineto
48.49003102870967 -87.94875530209359 lineto
47.70137233268454 -89.02193010997588 lineto
closepath
fill
newpath
1.0 setlinewidth
10.0 setmiterlimit
1 setlinejoin
1 setlinecap
[ ] 0 setdash
newpath
50.53197487828107 -91.15164135662603 moveto
50.53197487828107 -87.86764325266063 lineto
50.9416947177245 -87.86764325266063 lineto
50.9416947177245 -89.98903531475354 lineto
51.89840094180562 -88.89298274933887 lineto
52.33931772333866 -88.89298274933887 lineto
51.42628721818298 -89.94743939196741 lineto
52.528579172015576 -91.15164135662603 lineto
52.00447054491026 -91.15164135662603 lineto
50.9416947177245 -89.99319490703215 lineto
50.9416947177245 -91.15164135662603 lineto
closepath
54.15082016067486 -91.15164135662603 moveto
54.15082016067486 -90.07430695646512 lineto
53.07348576051395 -90.07430695646512 lineto
53.07348576051395 -89.76649712784771 lineto
54.15082016067486 -89.76649712784771 lineto
54.15082016067486 -88.6891627276868 lineto
54.45862998929226 -88.6891627276868 lineto
54.45862998929226 -89.76649712784771 lineto
55.53596438945318 -89.76649712784771 lineto
55.53596438945318 -90.07430695646512 lineto
54.45862998929226 -90.07430695646512 lineto
54.45862998929226 -91.15164135662603 lineto
closepath
56.63825634328577 -91.15164135662603 moveto
56.63825634328577 -90.84383152800862 lineto
57.25387600052057 -90.84383152800862 lineto
57.25387600052057 -88.4146296372983 lineto
56.63825634328577 -88.56853455160702 lineto
56.63825634328577 -88.25240553843238 lineto
57.665675636103316 -87.99659061329764 lineto
57.665675636103316 -90.84383152800862 lineto
58.28129529333812 -90.84383152800862 lineto
58.28129529333812 -91.15164135662603 lineto
closepath
fill
newpath
1.0 setlinewidth
10.0 setmiterlimit
1 setlinejoin
1 setlinecap
[ ] 0 setdash
newpath
58.875701029952 -89.42125096872279 moveto
58.875701029952 -89.76067369865765 lineto
59.23508981353483 -89.516089665386 59.520021877045565 -89.1837382433537 59.73049724320708 -88.76361942947399 curveto
59.940972618777586 -88.3435005968135 60.046210297153856 -87.89551251383651 60.046210297153856 -87.41965516425394 curveto
60.046210297153856 -86.94546163035993 59.9409726093686 -86.49830546828079 59.73049724320708 -86.07818665440108 curveto
59.520021867636586 -85.65806782174059 59.2350897974689 -85.32571640755529 58.875701029952 -85.0811323852174 curveto
58.875701029952 -85.42055511515227 lineto
59.12028506322365 -85.68676902891733 59.29457197395795 -85.97294897431408 59.39856177937372 -86.27909496145811 curveto
59.5025515894382 -86.58524096228793 59.55454648982173 -86.96542769419786 59.55454648982173 -87.41965516425394 curveto
59.55454648982173 -87.87554649157661 59.502551584789494 -88.25656513527292 59.39856177937372 -88.56271112241696 curveto
59.294571969309246 -88.86885712324677 59.12028505228989 -89.15503706685841 58.875701029952 -89.42125096872279 curveto
closepath
fill
newpath
grestore
grestore
showpage

%%EOF